%!PS-Adobe-2.0 EPSF-2.0
%%Title: /home/gijs/.chiplotle/output/20180423_154829.eps
%%Creator: hp2xx 3.4.4 (c) 1991-1994 by H. Werntges, 1999-2003 by M. Kroeker
%%CreationDate: Mon Apr 23 15:48:29 2018
%%Pages: 1
%%BoundingBox: 0 0 75 18
%%EndComments

%%BeginProcSet:
/PSSave save def
/PSDict 200 dict def
PSDict begin
/@restore /restore load def
/restore
   {vmstatus pop
    dup @VMused lt {pop @VMused} if
    exch pop exch @restore /@VMused exch def
   } def
/@pri
   {
    ( ) print
    (                                       ) cvs print
   } def
/@start
   {
    vmstatus pop /@VMused exch def pop
   } def
/@end
   {(VM Used: ) print @VMused @pri
    (. Unused: ) print vmstatus @VMused sub @pri pop pop
    (\n) print flush
    end
    PSSave restore
   } def
/bop
   {
    /SaveImage save def
   } def
/eop
   {
    showpage
    SaveImage restore
   } def
/@line
   {
%%    1 setlinejoin      %% now set from LA command
%%    1 setmiterlimit    %% now set from LA command
   } def
/@SetPlot
   {
    2.834646 2.834646 scale
      0.050   0.050 translate
     0.100 setlinewidth
   } def
/C {setrgbcolor} def
/D {lineto} def
/M {moveto} def
/S {stroke} def
/W {setlinewidth} def
/Z {stroke newpath} def
end
%%EndProcSet

%%BeginSetup
/#copies 1 def
%%EndSetup
%%Page: 1 1
%%BeginPageSetup
PSDict begin
@start
@line
@SetPlot

bop
%%EndPageSetup
  0.100 W
 S
-195.80 -19.20 M  0.100 W
 S
-195.80 -19.20 M 1 setlinecap
 S
-195.80 -19.20 M 1 setlinejoin
 S
-195.80 -19.20 M  0.000  0.000  0.000 C
 S
  2.00   5.20 M   2.00   1.00 D S
  2.00   5.20 M   3.80   5.20 D   4.40   5.00 D   4.60   4.80 D   4.80   4.40 D
  4.80   4.00 D   4.60   3.60 D   4.40   3.40 D   3.80   3.20 D S
  2.00   3.20 M   3.80   3.20 D   4.40   3.00 D   4.60   2.80 D   4.80   2.40 D
  4.80   1.80 D   4.60   1.40 D   4.40   1.20 D   3.80   1.00 D
  2.00   1.00 D S
  6.40   3.80 M   6.40   1.00 D S
  6.40   2.60 M   6.60   3.20 D   7.00   3.60 D   7.40   3.80 D   8.00   3.80 D S
  9.20   3.80 M   9.20   1.80 D   9.40   1.20 D   9.80   1.00 D  10.40   1.00 D
 10.80   1.20 D  11.40   1.80 D S
 11.40   3.80 M  11.40   1.00 D S
 14.80   3.20 M  14.60   3.60 D  14.00   3.80 D  13.40   3.80 D  12.80   3.60 D
 12.60   3.20 D  12.80   2.80 D  13.20   2.60 D  14.20   2.40 D
 14.60   2.20 D  14.80   1.80 D  14.80   1.60 D  14.60   1.20 D
 14.00   1.00 D  13.40   1.00 D  12.80   1.20 D  12.60   1.60 D S
 18.00   3.20 M  17.80   3.60 D  17.20   3.80 D  16.60   3.80 D  16.00   3.60 D
 15.80   3.20 D  16.00   2.80 D  16.40   2.60 D  17.40   2.40 D
 17.80   2.20 D  18.00   1.80 D  18.00   1.60 D  17.80   1.20 D
 17.20   1.00 D  16.60   1.00 D  16.00   1.20 D  15.80   1.60 D S
 19.00   2.60 M  21.40   2.60 D  21.40   3.00 D  21.20   3.40 D  21.00   3.60 D
 20.60   3.80 D  20.00   3.80 D  19.60   3.60 D  19.20   3.20 D
 19.00   2.60 D  19.00   2.20 D  19.20   1.60 D  19.60   1.20 D
 20.00   1.00 D  20.60   1.00 D  21.00   1.20 D  21.40   1.60 D S
 22.80   5.20 M  22.80   1.00 D S
 26.40   3.20 M  26.20   3.60 D  25.60   3.80 D  25.00   3.80 D  24.40   3.60 D
 24.20   3.20 D  24.40   2.80 D  24.80   2.60 D  25.80   2.40 D
 26.20   2.20 D  26.40   1.80 D  26.40   1.60 D  26.20   1.20 D
 25.60   1.00 D  25.00   1.00 D  24.40   1.20 D  24.20   1.60 D S
  0.00   5.20 M   0.00   1.00 D S
  0.00   5.20 M   1.80   5.20 D   2.40   5.00 D   2.60   4.80 D   2.80   4.40 D
  2.80   4.00 D   2.60   3.60 D   2.40   3.40 D   1.80   3.20 D S
  0.00   3.20 M   1.80   3.20 D   2.40   3.00 D   2.60   2.80 D   2.80   2.40 D
  2.80   1.80 D   2.60   1.40 D   2.40   1.20 D   1.80   1.00 D
  0.00   1.00 D S
  4.40   3.80 M   4.40   1.00 D S
  4.40   2.60 M   4.60   3.20 D   5.00   3.60 D   5.40   3.80 D   6.00   3.80 D S
  7.20   3.80 M   7.20   1.80 D   7.40   1.20 D   7.80   1.00 D   8.40   1.00 D
  8.80   1.20 D   9.40   1.80 D S
  9.40   3.80 M   9.40   1.00 D S
 12.80   3.20 M  12.60   3.60 D  12.00   3.80 D  11.40   3.80 D  10.80   3.60 D
 10.60   3.20 D  10.80   2.80 D  11.20   2.60 D  12.20   2.40 D
 12.60   2.20 D  12.80   1.80 D  12.80   1.60 D  12.60   1.20 D
 12.00   1.00 D  11.40   1.00 D  10.80   1.20 D  10.60   1.60 D S
 16.00   3.20 M  15.80   3.60 D  15.20   3.80 D  14.60   3.80 D  14.00   3.60 D
 13.80   3.20 D  14.00   2.80 D  14.40   2.60 D  15.40   2.40 D
 15.80   2.20 D  16.00   1.80 D  16.00   1.60 D  15.80   1.20 D
 15.20   1.00 D  14.60   1.00 D  14.00   1.20 D  13.80   1.60 D S
 17.00   2.60 M  19.40   2.60 D  19.40   3.00 D  19.20   3.40 D  19.00   3.60 D
 18.60   3.80 D  18.00   3.80 D  17.60   3.60 D  17.20   3.20 D
 17.00   2.60 D  17.00   2.20 D  17.20   1.60 D  17.60   1.20 D
 18.00   1.00 D  18.60   1.00 D  19.00   1.20 D  19.40   1.60 D S
 20.80   5.20 M  20.80   1.00 D S
 24.40   3.20 M  24.20   3.60 D  23.60   3.80 D  23.00   3.80 D  22.40   3.60 D
 22.20   3.20 D  22.40   2.80 D  22.80   2.60 D  23.80   2.40 D
 24.20   2.20 D  24.40   1.80 D  24.40   1.60 D  24.20   1.20 D
 23.60   1.00 D  23.00   1.00 D  22.40   1.20 D  22.20   1.60 D S
  1.00   4.20 M   1.00   0.00 D S
  1.00   4.20 M   2.80   4.20 D   3.40   4.00 D   3.60   3.80 D   3.80   3.40 D
  3.80   3.00 D   3.60   2.60 D   3.40   2.40 D   2.80   2.20 D S
  1.00   2.20 M   2.80   2.20 D   3.40   2.00 D   3.60   1.80 D   3.80   1.40 D
  3.80   0.80 D   3.60   0.40 D   3.40   0.20 D   2.80   0.00 D
  1.00   0.00 D S
  5.40   2.80 M   5.40   0.00 D S
  5.40   1.60 M   5.60   2.20 D   6.00   2.60 D   6.40   2.80 D   7.00   2.80 D S
  8.20   2.80 M   8.20   0.80 D   8.40   0.20 D   8.80   0.00 D   9.40   0.00 D
  9.80   0.20 D  10.40   0.80 D S
 10.40   2.80 M  10.40   0.00 D S
 13.80   2.20 M  13.60   2.60 D  13.00   2.80 D  12.40   2.80 D  11.80   2.60 D
 11.60   2.20 D  11.80   1.80 D  12.20   1.60 D  13.20   1.40 D
 13.60   1.20 D  13.80   0.80 D  13.80   0.60 D  13.60   0.20 D
 13.00   0.00 D  12.40   0.00 D  11.80   0.20 D  11.60   0.60 D S
 17.00   2.20 M  16.80   2.60 D  16.20   2.80 D  15.60   2.80 D  15.00   2.60 D
 14.80   2.20 D  15.00   1.80 D  15.40   1.60 D  16.40   1.40 D
 16.80   1.20 D  17.00   0.80 D  17.00   0.60 D  16.80   0.20 D
 16.20   0.00 D  15.60   0.00 D  15.00   0.20 D  14.80   0.60 D S
 18.00   1.60 M  20.40   1.60 D  20.40   2.00 D  20.20   2.40 D  20.00   2.60 D
 19.60   2.80 D  19.00   2.80 D  18.60   2.60 D  18.20   2.20 D
 18.00   1.60 D  18.00   1.20 D  18.20   0.60 D  18.60   0.20 D
 19.00   0.00 D  19.60   0.00 D  20.00   0.20 D  20.40   0.60 D S
 21.80   4.20 M  21.80   0.00 D S
 25.40   2.20 M  25.20   2.60 D  24.60   2.80 D  24.00   2.80 D  23.40   2.60 D
 23.20   2.20 D  23.40   1.80 D  23.80   1.60 D  24.80   1.40 D
 25.20   1.20 D  25.40   0.80 D  25.40   0.60 D  25.20   0.20 D
 24.60   0.00 D  24.00   0.00 D  23.40   0.20 D  23.20   0.60 D S
  1.00   6.20 M   1.00   2.00 D S
  1.00   6.20 M   2.80   6.20 D   3.40   6.00 D   3.60   5.80 D   3.80   5.40 D
  3.80   5.00 D   3.60   4.60 D   3.40   4.40 D   2.80   4.20 D S
  1.00   4.20 M   2.80   4.20 D   3.40   4.00 D   3.60   3.80 D   3.80   3.40 D
  3.80   2.80 D   3.60   2.40 D   3.40   2.20 D   2.80   2.00 D
  1.00   2.00 D S
  5.40   4.80 M   5.40   2.00 D S
  5.40   3.60 M   5.60   4.20 D   6.00   4.60 D   6.40   4.80 D   7.00   4.80 D S
  8.20   4.80 M   8.20   2.80 D   8.40   2.20 D   8.80   2.00 D   9.40   2.00 D
  9.80   2.20 D  10.40   2.80 D S
 10.40   4.80 M  10.40   2.00 D S
 13.80   4.20 M  13.60   4.60 D  13.00   4.80 D  12.40   4.80 D  11.80   4.60 D
 11.60   4.20 D  11.80   3.80 D  12.20   3.60 D  13.20   3.40 D
 13.60   3.20 D  13.80   2.80 D  13.80   2.60 D  13.60   2.20 D
 13.00   2.00 D  12.40   2.00 D  11.80   2.20 D  11.60   2.60 D S
 17.00   4.20 M  16.80   4.60 D  16.20   4.80 D  15.60   4.80 D  15.00   4.60 D
 14.80   4.20 D  15.00   3.80 D  15.40   3.60 D  16.40   3.40 D
 16.80   3.20 D  17.00   2.80 D  17.00   2.60 D  16.80   2.20 D
 16.20   2.00 D  15.60   2.00 D  15.00   2.20 D  14.80   2.60 D S
 18.00   3.60 M  20.40   3.60 D  20.40   4.00 D  20.20   4.40 D  20.00   4.60 D
 19.60   4.80 D  19.00   4.80 D  18.60   4.60 D  18.20   4.20 D
 18.00   3.60 D  18.00   3.20 D  18.20   2.60 D  18.60   2.20 D
 19.00   2.00 D  19.60   2.00 D  20.00   2.20 D  20.40   2.60 D S
 21.80   6.20 M  21.80   2.00 D S
 25.40   4.20 M  25.20   4.60 D  24.60   4.80 D  24.00   4.80 D  23.40   4.60 D
 23.20   4.20 D  23.40   3.80 D  23.80   3.60 D  24.80   3.40 D
 25.20   3.20 D  25.40   2.80 D  25.40   2.60 D  25.20   2.20 D
 24.60   2.00 D  24.00   2.00 D  23.40   2.20 D  23.20   2.60 D S
eop
@end
%%PageTrailer
%%Trailer
%%EOF
