%!PS-Adobe-2.0 EPSF-2.0
%%Title: /home/gijs/.chiplotle/output/20180424_102816.eps
%%Creator: hp2xx 3.4.4 (c) 1991-1994 by H. Werntges, 1999-2003 by M. Kroeker
%%CreationDate: Tue Apr 24 10:28:16 2018
%%Pages: 1
%%BoundingBox: 0 0 574 39
%%EndComments

%%BeginProcSet:
/PSSave save def
/PSDict 200 dict def
PSDict begin
/@restore /restore load def
/restore
   {vmstatus pop
    dup @VMused lt {pop @VMused} if
    exch pop exch @restore /@VMused exch def
   } def
/@pri
   {
    ( ) print
    (                                       ) cvs print
   } def
/@start
   {
    vmstatus pop /@VMused exch def pop
   } def
/@end
   {(VM Used: ) print @VMused @pri
    (. Unused: ) print vmstatus @VMused sub @pri pop pop
    (\n) print flush
    end
    PSSave restore
   } def
/bop
   {
    /SaveImage save def
   } def
/eop
   {
    showpage
    SaveImage restore
   } def
/@line
   {
%%    1 setlinejoin      %% now set from LA command
%%    1 setmiterlimit    %% now set from LA command
   } def
/@SetPlot
   {
    2.834646 2.834646 scale
      0.050   0.050 translate
     0.100 setlinewidth
   } def
/C {setrgbcolor} def
/D {lineto} def
/M {moveto} def
/S {stroke} def
/W {setlinewidth} def
/Z {stroke newpath} def
end
%%EndProcSet

%%BeginSetup
/#copies 1 def
%%EndSetup
%%Page: 1 1
%%BeginPageSetup
PSDict begin
@start
@line
@SetPlot

bop
%%EndPageSetup
  0.100 W
 S
 10.35   0.45 M  0.100 W
 S
 10.35   0.45 M 1 setlinecap
 S
 10.35   0.45 M 1 setlinejoin
 S
  9.25   9.80 M   8.70  10.90 D   7.60  12.00 D   6.50  12.55 D   4.30  12.55 D
  3.20  12.00 D   2.10  10.90 D   1.55   9.80 D   1.00   8.15 D
  1.00   5.40 D   1.55   3.75 D   2.10   2.65 D   3.20   1.55 D
  4.30   1.00 D   6.50   1.00 D   7.60   1.55 D   8.70   2.65 D
  9.25   3.75 D S
 15.30  12.55 M  14.20  12.00 D  13.10  10.90 D  12.55   9.80 D  12.00   8.15 D
 12.00   5.40 D  12.55   3.75 D  13.10   2.65 D  14.20   1.55 D
 15.30   1.00 D  17.50   1.00 D  18.60   1.55 D  19.70   2.65 D
 20.25   3.75 D  20.80   5.40 D  20.80   8.15 D  20.25   9.80 D
 19.70  10.90 D  18.60  12.00 D  17.50  12.55 D  15.30  12.55 D S
 24.65  12.55 M  24.65   1.00 D S
 24.65   1.00 M  31.25   1.00 D S
 38.40  12.55 M  37.30  12.00 D  36.20  10.90 D  35.65   9.80 D  35.10   8.15 D
 35.10   5.40 D  35.65   3.75 D  36.20   2.65 D  37.30   1.55 D
 38.40   1.00 D  40.60   1.00 D  41.70   1.55 D  42.80   2.65 D
 43.35   3.75 D  43.90   5.40 D  43.90   8.15 D  43.35   9.80 D
 42.80  10.90 D  41.70  12.00 D  40.60  12.55 D  38.40  12.55 D S
 47.75  12.55 M  47.75   1.00 D S
 47.75  12.55 M  52.70  12.55 D  54.35  12.00 D  54.90  11.45 D  55.45  10.35 D
 55.45   9.25 D  54.90   8.15 D  54.35   7.60 D  52.70   7.05 D
 47.75   7.05 D S
 51.60   7.05 M  55.45   1.00 D S
 59.85  12.55 M  59.85   1.00 D S
 59.85   1.00 M  66.45   1.00 D S
 73.60  12.55 M  69.20   1.00 D S
 73.60  12.55 M  78.00   1.00 D S
 70.85   4.85 M  76.35   4.85 D S
 80.75  12.55 M  80.75   1.00 D S
 80.75  12.55 M  85.70  12.55 D  87.35  12.00 D  87.90  11.45 D  88.45  10.35 D
 88.45   9.25 D  87.90   8.15 D  87.35   7.60 D  85.70   7.05 D S
 80.75   7.05 M  85.70   7.05 D  87.35   6.50 D  87.90   5.95 D  88.45   4.85 D
 88.45   3.20 D  87.90   2.10 D  87.35   1.55 D  85.70   1.00 D
 80.75   1.00 D S
 92.85   5.95 M 102.75   5.95 D S
107.15  12.55 M 107.15   1.00 D S
107.15  12.55 M 112.10  12.55 D 113.75  12.00 D 114.30  11.45 D 114.85  10.35 D
114.85   9.25 D 114.30   8.15 D 113.75   7.60 D 112.10   7.05 D S
107.15   7.05 M 112.10   7.05 D 113.75   6.50 D 114.30   5.95 D 114.85   4.85 D
114.85   3.20 D 114.30   2.10 D 113.75   1.55 D 112.10   1.00 D
107.15   1.00 D S
119.25  12.55 M 119.25   1.00 D S
126.40  12.55 M 125.30  12.00 D 124.20  10.90 D 123.65   9.80 D 123.10   8.15 D
123.10   5.40 D 123.65   3.75 D 124.20   2.65 D 125.30   1.55 D
126.40   1.00 D 128.60   1.00 D 129.70   1.55 D 130.80   2.65 D
131.35   3.75 D 131.90   5.40 D 131.90   8.15 D 131.35   9.80 D
130.80  10.90 D 129.70  12.00 D 128.60  12.55 D 126.40  12.55 D S
143.45   9.80 M 142.90  10.90 D 141.80  12.00 D 140.70  12.55 D 138.50  12.55 D
137.40  12.00 D 136.30  10.90 D 135.75   9.80 D 135.20   8.15 D
135.20   5.40 D 135.75   3.75 D 136.30   2.65 D 137.40   1.55 D
138.50   1.00 D 140.70   1.00 D 141.80   1.55 D 142.90   2.65 D
143.45   3.75 D S
149.50  12.55 M 148.40  12.00 D 147.30  10.90 D 146.75   9.80 D 146.20   8.15 D
146.20   5.40 D 146.75   3.75 D 147.30   2.65 D 148.40   1.55 D
149.50   1.00 D 151.70   1.00 D 152.80   1.55 D 153.90   2.65 D
154.45   3.75 D 155.00   5.40 D 155.00   8.15 D 154.45   9.80 D
153.90  10.90 D 152.80  12.00 D 151.70  12.55 D 149.50  12.55 D S
158.85  12.55 M 158.85   1.00 D S
158.85   1.00 M 165.45   1.00 D S
172.60  12.55 M 171.50  12.00 D 170.40  10.90 D 169.85   9.80 D 169.30   8.15 D
169.30   5.40 D 169.85   3.75 D 170.40   2.65 D 171.50   1.55 D
172.60   1.00 D 174.80   1.00 D 175.90   1.55 D 177.00   2.65 D
177.55   3.75 D 178.10   5.40 D 178.10   8.15 D 177.55   9.80 D
177.00  10.90 D 175.90  12.00 D 174.80  12.55 D 172.60  12.55 D S
181.95  12.55 M 181.95   1.00 D S
181.95  12.55 M 186.90  12.55 D 188.55  12.00 D 189.10  11.45 D 189.65  10.35 D
189.65   9.25 D 189.10   8.15 D 188.55   7.60 D 186.90   7.05 D
181.95   7.05 D S
185.80   7.05 M 189.65   1.00 D S
201.20  10.90 M 200.10  12.00 D 198.45  12.55 D 196.25  12.55 D 194.60  12.00 D
193.50  10.90 D 193.50   9.80 D 194.05   8.70 D 194.60   8.15 D
195.70   7.60 D 199.00   6.50 D 200.10   5.95 D 200.65   5.40 D
201.20   4.30 D 201.20   2.65 D 200.10   1.55 D 198.45   1.00 D
196.25   1.00 D 194.60   1.55 D 193.50   2.65 D S
 10.25   9.80 M   9.70  10.90 D   8.60  12.00 D   7.50  12.55 D   5.30  12.55 D
  4.20  12.00 D   3.10  10.90 D   2.55   9.80 D   2.00   8.15 D
  2.00   5.40 D   2.55   3.75 D   3.10   2.65 D   4.20   1.55 D
  5.30   1.00 D   7.50   1.00 D   8.60   1.55 D   9.70   2.65 D
 10.25   3.75 D S
 16.30  12.55 M  15.20  12.00 D  14.10  10.90 D  13.55   9.80 D  13.00   8.15 D
 13.00   5.40 D  13.55   3.75 D  14.10   2.65 D  15.20   1.55 D
 16.30   1.00 D  18.50   1.00 D  19.60   1.55 D  20.70   2.65 D
 21.25   3.75 D  21.80   5.40 D  21.80   8.15 D  21.25   9.80 D
 20.70  10.90 D  19.60  12.00 D  18.50  12.55 D  16.30  12.55 D S
 25.65  12.55 M  25.65   1.00 D S
 25.65   1.00 M  32.25   1.00 D S
 39.40  12.55 M  38.30  12.00 D  37.20  10.90 D  36.65   9.80 D  36.10   8.15 D
 36.10   5.40 D  36.65   3.75 D  37.20   2.65 D  38.30   1.55 D
 39.40   1.00 D  41.60   1.00 D  42.70   1.55 D  43.80   2.65 D
 44.35   3.75 D  44.90   5.40 D  44.90   8.15 D  44.35   9.80 D
 43.80  10.90 D  42.70  12.00 D  41.60  12.55 D  39.40  12.55 D S
 48.75  12.55 M  48.75   1.00 D S
 48.75  12.55 M  53.70  12.55 D  55.35  12.00 D  55.90  11.45 D  56.45  10.35 D
 56.45   9.25 D  55.90   8.15 D  55.35   7.60 D  53.70   7.05 D
 48.75   7.05 D S
 52.60   7.05 M  56.45   1.00 D S
 60.85  12.55 M  60.85   1.00 D S
 60.85   1.00 M  67.45   1.00 D S
 74.60  12.55 M  70.20   1.00 D S
 74.60  12.55 M  79.00   1.00 D S
 71.85   4.85 M  77.35   4.85 D S
 81.75  12.55 M  81.75   1.00 D S
 81.75  12.55 M  86.70  12.55 D  88.35  12.00 D  88.90  11.45 D  89.45  10.35 D
 89.45   9.25 D  88.90   8.15 D  88.35   7.60 D  86.70   7.05 D S
 81.75   7.05 M  86.70   7.05 D  88.35   6.50 D  88.90   5.95 D  89.45   4.85 D
 89.45   3.20 D  88.90   2.10 D  88.35   1.55 D  86.70   1.00 D
 81.75   1.00 D S
 93.85   5.95 M 103.75   5.95 D S
108.15  12.55 M 108.15   1.00 D S
108.15  12.55 M 113.10  12.55 D 114.75  12.00 D 115.30  11.45 D 115.85  10.35 D
115.85   9.25 D 115.30   8.15 D 114.75   7.60 D 113.10   7.05 D S
108.15   7.05 M 113.10   7.05 D 114.75   6.50 D 115.30   5.95 D 115.85   4.85 D
115.85   3.20 D 115.30   2.10 D 114.75   1.55 D 113.10   1.00 D
108.15   1.00 D S
120.25  12.55 M 120.25   1.00 D S
127.40  12.55 M 126.30  12.00 D 125.20  10.90 D 124.65   9.80 D 124.10   8.15 D
124.10   5.40 D 124.65   3.75 D 125.20   2.65 D 126.30   1.55 D
127.40   1.00 D 129.60   1.00 D 130.70   1.55 D 131.80   2.65 D
132.35   3.75 D 132.90   5.40 D 132.90   8.15 D 132.35   9.80 D
131.80  10.90 D 130.70  12.00 D 129.60  12.55 D 127.40  12.55 D S
144.45   9.80 M 143.90  10.90 D 142.80  12.00 D 141.70  12.55 D 139.50  12.55 D
138.40  12.00 D 137.30  10.90 D 136.75   9.80 D 136.20   8.15 D
136.20   5.40 D 136.75   3.75 D 137.30   2.65 D 138.40   1.55 D
139.50   1.00 D 141.70   1.00 D 142.80   1.55 D 143.90   2.65 D
144.45   3.75 D S
150.50  12.55 M 149.40  12.00 D 148.30  10.90 D 147.75   9.80 D 147.20   8.15 D
147.20   5.40 D 147.75   3.75 D 148.30   2.65 D 149.40   1.55 D
150.50   1.00 D 152.70   1.00 D 153.80   1.55 D 154.90   2.65 D
155.45   3.75 D 156.00   5.40 D 156.00   8.15 D 155.45   9.80 D
154.90  10.90 D 153.80  12.00 D 152.70  12.55 D 150.50  12.55 D S
159.85  12.55 M 159.85   1.00 D S
159.85   1.00 M 166.45   1.00 D S
173.60  12.55 M 172.50  12.00 D 171.40  10.90 D 170.85   9.80 D 170.30   8.15 D
170.30   5.40 D 170.85   3.75 D 171.40   2.65 D 172.50   1.55 D
173.60   1.00 D 175.80   1.00 D 176.90   1.55 D 178.00   2.65 D
178.55   3.75 D 179.10   5.40 D 179.10   8.15 D 178.55   9.80 D
178.00  10.90 D 176.90  12.00 D 175.80  12.55 D 173.60  12.55 D S
182.95  12.55 M 182.95   1.00 D S
182.95  12.55 M 187.90  12.55 D 189.55  12.00 D 190.10  11.45 D 190.65  10.35 D
190.65   9.25 D 190.10   8.15 D 189.55   7.60 D 187.90   7.05 D
182.95   7.05 D S
186.80   7.05 M 190.65   1.00 D S
202.20  10.90 M 201.10  12.00 D 199.45  12.55 D 197.25  12.55 D 195.60  12.00 D
194.50  10.90 D 194.50   9.80 D 195.05   8.70 D 195.60   8.15 D
196.70   7.60 D 200.00   6.50 D 201.10   5.95 D 201.65   5.40 D
202.20   4.30 D 202.20   2.65 D 201.10   1.55 D 199.45   1.00 D
197.25   1.00 D 195.60   1.55 D 194.50   2.65 D S
  9.25   8.80 M   8.70   9.90 D   7.60  11.00 D   6.50  11.55 D   4.30  11.55 D
  3.20  11.00 D   2.10   9.90 D   1.55   8.80 D   1.00   7.15 D
  1.00   4.40 D   1.55   2.75 D   2.10   1.65 D   3.20   0.55 D
  4.30   0.00 D   6.50   0.00 D   7.60   0.55 D   8.70   1.65 D
  9.25   2.75 D S
 15.30  11.55 M  14.20  11.00 D  13.10   9.90 D  12.55   8.80 D  12.00   7.15 D
 12.00   4.40 D  12.55   2.75 D  13.10   1.65 D  14.20   0.55 D
 15.30   0.00 D  17.50   0.00 D  18.60   0.55 D  19.70   1.65 D
 20.25   2.75 D  20.80   4.40 D  20.80   7.15 D  20.25   8.80 D
 19.70   9.90 D  18.60  11.00 D  17.50  11.55 D  15.30  11.55 D S
 24.65  11.55 M  24.65   0.00 D S
 24.65   0.00 M  31.25   0.00 D S
 38.40  11.55 M  37.30  11.00 D  36.20   9.90 D  35.65   8.80 D  35.10   7.15 D
 35.10   4.40 D  35.65   2.75 D  36.20   1.65 D  37.30   0.55 D
 38.40   0.00 D  40.60   0.00 D  41.70   0.55 D  42.80   1.65 D
 43.35   2.75 D  43.90   4.40 D  43.90   7.15 D  43.35   8.80 D
 42.80   9.90 D  41.70  11.00 D  40.60  11.55 D  38.40  11.55 D S
 47.75  11.55 M  47.75   0.00 D S
 47.75  11.55 M  52.70  11.55 D  54.35  11.00 D  54.90  10.45 D  55.45   9.35 D
 55.45   8.25 D  54.90   7.15 D  54.35   6.60 D  52.70   6.05 D
 47.75   6.05 D S
 51.60   6.05 M  55.45   0.00 D S
 59.85  11.55 M  59.85   0.00 D S
 59.85   0.00 M  66.45   0.00 D S
 73.60  11.55 M  69.20   0.00 D S
 73.60  11.55 M  78.00   0.00 D S
 70.85   3.85 M  76.35   3.85 D S
 80.75  11.55 M  80.75   0.00 D S
 80.75  11.55 M  85.70  11.55 D  87.35  11.00 D  87.90  10.45 D  88.45   9.35 D
 88.45   8.25 D  87.90   7.15 D  87.35   6.60 D  85.70   6.05 D S
 80.75   6.05 M  85.70   6.05 D  87.35   5.50 D  87.90   4.95 D  88.45   3.85 D
 88.45   2.20 D  87.90   1.10 D  87.35   0.55 D  85.70   0.00 D
 80.75   0.00 D S
 92.85   4.95 M 102.75   4.95 D S
107.15  11.55 M 107.15   0.00 D S
107.15  11.55 M 112.10  11.55 D 113.75  11.00 D 114.30  10.45 D 114.85   9.35 D
114.85   8.25 D 114.30   7.15 D 113.75   6.60 D 112.10   6.05 D S
107.15   6.05 M 112.10   6.05 D 113.75   5.50 D 114.30   4.95 D 114.85   3.85 D
114.85   2.20 D 114.30   1.10 D 113.75   0.55 D 112.10   0.00 D
107.15   0.00 D S
119.25  11.55 M 119.25   0.00 D S
126.40  11.55 M 125.30  11.00 D 124.20   9.90 D 123.65   8.80 D 123.10   7.15 D
123.10   4.40 D 123.65   2.75 D 124.20   1.65 D 125.30   0.55 D
126.40   0.00 D 128.60   0.00 D 129.70   0.55 D 130.80   1.65 D
131.35   2.75 D 131.90   4.40 D 131.90   7.15 D 131.35   8.80 D
130.80   9.90 D 129.70  11.00 D 128.60  11.55 D 126.40  11.55 D S
143.45   8.80 M 142.90   9.90 D 141.80  11.00 D 140.70  11.55 D 138.50  11.55 D
137.40  11.00 D 136.30   9.90 D 135.75   8.80 D 135.20   7.15 D
135.20   4.40 D 135.75   2.75 D 136.30   1.65 D 137.40   0.55 D
138.50   0.00 D 140.70   0.00 D 141.80   0.55 D 142.90   1.65 D
143.45   2.75 D S
149.50  11.55 M 148.40  11.00 D 147.30   9.90 D 146.75   8.80 D 146.20   7.15 D
146.20   4.40 D 146.75   2.75 D 147.30   1.65 D 148.40   0.55 D
149.50   0.00 D 151.70   0.00 D 152.80   0.55 D 153.90   1.65 D
154.45   2.75 D 155.00   4.40 D 155.00   7.15 D 154.45   8.80 D
153.90   9.90 D 152.80  11.00 D 151.70  11.55 D 149.50  11.55 D S
158.85  11.55 M 158.85   0.00 D S
158.85   0.00 M 165.45   0.00 D S
172.60  11.55 M 171.50  11.00 D 170.40   9.90 D 169.85   8.80 D 169.30   7.15 D
169.30   4.40 D 169.85   2.75 D 170.40   1.65 D 171.50   0.55 D
172.60   0.00 D 174.80   0.00 D 175.90   0.55 D 177.00   1.65 D
177.55   2.75 D 178.10   4.40 D 178.10   7.15 D 177.55   8.80 D
177.00   9.90 D 175.90  11.00 D 174.80  11.55 D 172.60  11.55 D S
181.95  11.55 M 181.95   0.00 D S
181.95  11.55 M 186.90  11.55 D 188.55  11.00 D 189.10  10.45 D 189.65   9.35 D
189.65   8.25 D 189.10   7.15 D 188.55   6.60 D 186.90   6.05 D
181.95   6.05 D S
185.80   6.05 M 189.65   0.00 D S
201.20   9.90 M 200.10  11.00 D 198.45  11.55 D 196.25  11.55 D 194.60  11.00 D
193.50   9.90 D 193.50   8.80 D 194.05   7.70 D 194.60   7.15 D
195.70   6.60 D 199.00   5.50 D 200.10   4.95 D 200.65   4.40 D
201.20   3.30 D 201.20   1.65 D 200.10   0.55 D 198.45   0.00 D
196.25   0.00 D 194.60   0.55 D 193.50   1.65 D S
  8.25   9.80 M   7.70  10.90 D   6.60  12.00 D   5.50  12.55 D   3.30  12.55 D
  2.20  12.00 D   1.10  10.90 D   0.55   9.80 D   0.00   8.15 D
  0.00   5.40 D   0.55   3.75 D   1.10   2.65 D   2.20   1.55 D
  3.30   1.00 D   5.50   1.00 D   6.60   1.55 D   7.70   2.65 D
  8.25   3.75 D S
 14.30  12.55 M  13.20  12.00 D  12.10  10.90 D  11.55   9.80 D  11.00   8.15 D
 11.00   5.40 D  11.55   3.75 D  12.10   2.65 D  13.20   1.55 D
 14.30   1.00 D  16.50   1.00 D  17.60   1.55 D  18.70   2.65 D
 19.25   3.75 D  19.80   5.40 D  19.80   8.15 D  19.25   9.80 D
 18.70  10.90 D  17.60  12.00 D  16.50  12.55 D  14.30  12.55 D S
 23.65  12.55 M  23.65   1.00 D S
 23.65   1.00 M  30.25   1.00 D S
 37.40  12.55 M  36.30  12.00 D  35.20  10.90 D  34.65   9.80 D  34.10   8.15 D
 34.10   5.40 D  34.65   3.75 D  35.20   2.65 D  36.30   1.55 D
 37.40   1.00 D  39.60   1.00 D  40.70   1.55 D  41.80   2.65 D
 42.35   3.75 D  42.90   5.40 D  42.90   8.15 D  42.35   9.80 D
 41.80  10.90 D  40.70  12.00 D  39.60  12.55 D  37.40  12.55 D S
 46.75  12.55 M  46.75   1.00 D S
 46.75  12.55 M  51.70  12.55 D  53.35  12.00 D  53.90  11.45 D  54.45  10.35 D
 54.45   9.25 D  53.90   8.15 D  53.35   7.60 D  51.70   7.05 D
 46.75   7.05 D S
 50.60   7.05 M  54.45   1.00 D S
 58.85  12.55 M  58.85   1.00 D S
 58.85   1.00 M  65.45   1.00 D S
 72.60  12.55 M  68.20   1.00 D S
 72.60  12.55 M  77.00   1.00 D S
 69.85   4.85 M  75.35   4.85 D S
 79.75  12.55 M  79.75   1.00 D S
 79.75  12.55 M  84.70  12.55 D  86.35  12.00 D  86.90  11.45 D  87.45  10.35 D
 87.45   9.25 D  86.90   8.15 D  86.35   7.60 D  84.70   7.05 D S
 79.75   7.05 M  84.70   7.05 D  86.35   6.50 D  86.90   5.95 D  87.45   4.85 D
 87.45   3.20 D  86.90   2.10 D  86.35   1.55 D  84.70   1.00 D
 79.75   1.00 D S
 91.85   5.95 M 101.75   5.95 D S
106.15  12.55 M 106.15   1.00 D S
106.15  12.55 M 111.10  12.55 D 112.75  12.00 D 113.30  11.45 D 113.85  10.35 D
113.85   9.25 D 113.30   8.15 D 112.75   7.60 D 111.10   7.05 D S
106.15   7.05 M 111.10   7.05 D 112.75   6.50 D 113.30   5.95 D 113.85   4.85 D
113.85   3.20 D 113.30   2.10 D 112.75   1.55 D 111.10   1.00 D
106.15   1.00 D S
118.25  12.55 M 118.25   1.00 D S
125.40  12.55 M 124.30  12.00 D 123.20  10.90 D 122.65   9.80 D 122.10   8.15 D
122.10   5.40 D 122.65   3.75 D 123.20   2.65 D 124.30   1.55 D
125.40   1.00 D 127.60   1.00 D 128.70   1.55 D 129.80   2.65 D
130.35   3.75 D 130.90   5.40 D 130.90   8.15 D 130.35   9.80 D
129.80  10.90 D 128.70  12.00 D 127.60  12.55 D 125.40  12.55 D S
142.45   9.80 M 141.90  10.90 D 140.80  12.00 D 139.70  12.55 D 137.50  12.55 D
136.40  12.00 D 135.30  10.90 D 134.75   9.80 D 134.20   8.15 D
134.20   5.40 D 134.75   3.75 D 135.30   2.65 D 136.40   1.55 D
137.50   1.00 D 139.70   1.00 D 140.80   1.55 D 141.90   2.65 D
142.45   3.75 D S
148.50  12.55 M 147.40  12.00 D 146.30  10.90 D 145.75   9.80 D 145.20   8.15 D
145.20   5.40 D 145.75   3.75 D 146.30   2.65 D 147.40   1.55 D
148.50   1.00 D 150.70   1.00 D 151.80   1.55 D 152.90   2.65 D
153.45   3.75 D 154.00   5.40 D 154.00   8.15 D 153.45   9.80 D
152.90  10.90 D 151.80  12.00 D 150.70  12.55 D 148.50  12.55 D S
157.85  12.55 M 157.85   1.00 D S
157.85   1.00 M 164.45   1.00 D S
171.60  12.55 M 170.50  12.00 D 169.40  10.90 D 168.85   9.80 D 168.30   8.15 D
168.30   5.40 D 168.85   3.75 D 169.40   2.65 D 170.50   1.55 D
171.60   1.00 D 173.80   1.00 D 174.90   1.55 D 176.00   2.65 D
176.55   3.75 D 177.10   5.40 D 177.10   8.15 D 176.55   9.80 D
176.00  10.90 D 174.90  12.00 D 173.80  12.55 D 171.60  12.55 D S
180.95  12.55 M 180.95   1.00 D S
180.95  12.55 M 185.90  12.55 D 187.55  12.00 D 188.10  11.45 D 188.65  10.35 D
188.65   9.25 D 188.10   8.15 D 187.55   7.60 D 185.90   7.05 D
180.95   7.05 D S
184.80   7.05 M 188.65   1.00 D S
200.20  10.90 M 199.10  12.00 D 197.45  12.55 D 195.25  12.55 D 193.60  12.00 D
192.50  10.90 D 192.50   9.80 D 193.05   8.70 D 193.60   8.15 D
194.70   7.60 D 198.00   6.50 D 199.10   5.95 D 199.65   5.40 D
200.20   4.30 D 200.20   2.65 D 199.10   1.55 D 197.45   1.00 D
195.25   1.00 D 193.60   1.55 D 192.50   2.65 D S
  9.25  10.80 M   8.70  11.90 D   7.60  13.00 D   6.50  13.55 D   4.30  13.55 D
  3.20  13.00 D   2.10  11.90 D   1.55  10.80 D   1.00   9.15 D
  1.00   6.40 D   1.55   4.75 D   2.10   3.65 D   3.20   2.55 D
  4.30   2.00 D   6.50   2.00 D   7.60   2.55 D   8.70   3.65 D
  9.25   4.75 D S
 15.30  13.55 M  14.20  13.00 D  13.10  11.90 D  12.55  10.80 D  12.00   9.15 D
 12.00   6.40 D  12.55   4.75 D  13.10   3.65 D  14.20   2.55 D
 15.30   2.00 D  17.50   2.00 D  18.60   2.55 D  19.70   3.65 D
 20.25   4.75 D  20.80   6.40 D  20.80   9.15 D  20.25  10.80 D
 19.70  11.90 D  18.60  13.00 D  17.50  13.55 D  15.30  13.55 D S
 24.65  13.55 M  24.65   2.00 D S
 24.65   2.00 M  31.25   2.00 D S
 38.40  13.55 M  37.30  13.00 D  36.20  11.90 D  35.65  10.80 D  35.10   9.15 D
 35.10   6.40 D  35.65   4.75 D  36.20   3.65 D  37.30   2.55 D
 38.40   2.00 D  40.60   2.00 D  41.70   2.55 D  42.80   3.65 D
 43.35   4.75 D  43.90   6.40 D  43.90   9.15 D  43.35  10.80 D
 42.80  11.90 D  41.70  13.00 D  40.60  13.55 D  38.40  13.55 D S
 47.75  13.55 M  47.75   2.00 D S
 47.75  13.55 M  52.70  13.55 D  54.35  13.00 D  54.90  12.45 D  55.45  11.35 D
 55.45  10.25 D  54.90   9.15 D  54.35   8.60 D  52.70   8.05 D
 47.75   8.05 D S
 51.60   8.05 M  55.45   2.00 D S
 59.85  13.55 M  59.85   2.00 D S
 59.85   2.00 M  66.45   2.00 D S
 73.60  13.55 M  69.20   2.00 D S
 73.60  13.55 M  78.00   2.00 D S
 70.85   5.85 M  76.35   5.85 D S
 80.75  13.55 M  80.75   2.00 D S
 80.75  13.55 M  85.70  13.55 D  87.35  13.00 D  87.90  12.45 D  88.45  11.35 D
 88.45  10.25 D  87.90   9.15 D  87.35   8.60 D  85.70   8.05 D S
 80.75   8.05 M  85.70   8.05 D  87.35   7.50 D  87.90   6.95 D  88.45   5.85 D
 88.45   4.20 D  87.90   3.10 D  87.35   2.55 D  85.70   2.00 D
 80.75   2.00 D S
 92.85   6.95 M 102.75   6.95 D S
107.15  13.55 M 107.15   2.00 D S
107.15  13.55 M 112.10  13.55 D 113.75  13.00 D 114.30  12.45 D 114.85  11.35 D
114.85  10.25 D 114.30   9.15 D 113.75   8.60 D 112.10   8.05 D S
107.15   8.05 M 112.10   8.05 D 113.75   7.50 D 114.30   6.95 D 114.85   5.85 D
114.85   4.20 D 114.30   3.10 D 113.75   2.55 D 112.10   2.00 D
107.15   2.00 D S
119.25  13.55 M 119.25   2.00 D S
126.40  13.55 M 125.30  13.00 D 124.20  11.90 D 123.65  10.80 D 123.10   9.15 D
123.10   6.40 D 123.65   4.75 D 124.20   3.65 D 125.30   2.55 D
126.40   2.00 D 128.60   2.00 D 129.70   2.55 D 130.80   3.65 D
131.35   4.75 D 131.90   6.40 D 131.90   9.15 D 131.35  10.80 D
130.80  11.90 D 129.70  13.00 D 128.60  13.55 D 126.40  13.55 D S
143.45  10.80 M 142.90  11.90 D 141.80  13.00 D 140.70  13.55 D 138.50  13.55 D
137.40  13.00 D 136.30  11.90 D 135.75  10.80 D 135.20   9.15 D
135.20   6.40 D 135.75   4.75 D 136.30   3.65 D 137.40   2.55 D
138.50   2.00 D 140.70   2.00 D 141.80   2.55 D 142.90   3.65 D
143.45   4.75 D S
149.50  13.55 M 148.40  13.00 D 147.30  11.90 D 146.75  10.80 D 146.20   9.15 D
146.20   6.40 D 146.75   4.75 D 147.30   3.65 D 148.40   2.55 D
149.50   2.00 D 151.70   2.00 D 152.80   2.55 D 153.90   3.65 D
154.45   4.75 D 155.00   6.40 D 155.00   9.15 D 154.45  10.80 D
153.90  11.90 D 152.80  13.00 D 151.70  13.55 D 149.50  13.55 D S
158.85  13.55 M 158.85   2.00 D S
158.85   2.00 M 165.45   2.00 D S
172.60  13.55 M 171.50  13.00 D 170.40  11.90 D 169.85  10.80 D 169.30   9.15 D
169.30   6.40 D 169.85   4.75 D 170.40   3.65 D 171.50   2.55 D
172.60   2.00 D 174.80   2.00 D 175.90   2.55 D 177.00   3.65 D
177.55   4.75 D 178.10   6.40 D 178.10   9.15 D 177.55  10.80 D
177.00  11.90 D 175.90  13.00 D 174.80  13.55 D 172.60  13.55 D S
181.95  13.55 M 181.95   2.00 D S
181.95  13.55 M 186.90  13.55 D 188.55  13.00 D 189.10  12.45 D 189.65  11.35 D
189.65  10.25 D 189.10   9.15 D 188.55   8.60 D 186.90   8.05 D
181.95   8.05 D S
185.80   8.05 M 189.65   2.00 D S
201.20  11.90 M 200.10  13.00 D 198.45  13.55 D 196.25  13.55 D 194.60  13.00 D
193.50  11.90 D 193.50  10.80 D 194.05   9.70 D 194.60   9.15 D
195.70   8.60 D 199.00   7.50 D 200.10   6.95 D 200.65   6.40 D
201.20   5.30 D 201.20   3.65 D 200.10   2.55 D 198.45   2.00 D
196.25   2.00 D 194.60   2.55 D 193.50   3.65 D S
eop
@end
%%PageTrailer
%%Trailer
%%EOF
