%!PS-Adobe-2.0 EPSF-2.0
%%Title: /home/gijs/.chiplotle/output/20180423_155823.eps
%%Creator: hp2xx 3.4.4 (c) 1991-1994 by H. Werntges, 1999-2003 by M. Kroeker
%%CreationDate: Mon Apr 23 15:58:23 2018
%%Pages: 1
%%BoundingBox: 0 0 186 36
%%EndComments

%%BeginProcSet:
/PSSave save def
/PSDict 200 dict def
PSDict begin
/@restore /restore load def
/restore
   {vmstatus pop
    dup @VMused lt {pop @VMused} if
    exch pop exch @restore /@VMused exch def
   } def
/@pri
   {
    ( ) print
    (                                       ) cvs print
   } def
/@start
   {
    vmstatus pop /@VMused exch def pop
   } def
/@end
   {(VM Used: ) print @VMused @pri
    (. Unused: ) print vmstatus @VMused sub @pri pop pop
    (\n) print flush
    end
    PSSave restore
   } def
/bop
   {
    /SaveImage save def
   } def
/eop
   {
    showpage
    SaveImage restore
   } def
/@line
   {
%%    1 setlinejoin      %% now set from LA command
%%    1 setmiterlimit    %% now set from LA command
   } def
/@SetPlot
   {
    2.834646 2.834646 scale
      0.050   0.050 translate
     0.100 setlinewidth
   } def
/C {setrgbcolor} def
/D {lineto} def
/M {moveto} def
/S {stroke} def
/W {setlinewidth} def
/Z {stroke newpath} def
end
%%EndProcSet

%%BeginSetup
/#copies 1 def
%%EndSetup
%%Page: 1 1
%%BeginPageSetup
PSDict begin
@start
@line
@SetPlot

bop
%%EndPageSetup
  0.100 W
 S
-166.05  -0.05 M  0.100 W
 S
-166.05  -0.05 M 1 setlinecap
 S
-166.05  -0.05 M 1 setlinejoin
 S
  9.25   9.30 M   8.70  10.40 D   7.60  11.50 D   6.50  12.05 D   4.30  12.05 D
  3.20  11.50 D   2.10  10.40 D   1.55   9.30 D   1.00   7.65 D
  1.00   4.90 D   1.55   3.25 D   2.10   2.15 D   3.20   1.05 D
  4.30   0.50 D   6.50   0.50 D   7.60   1.05 D   8.70   2.15 D
  9.25   3.25 D S
 14.75   8.20 M  13.65   7.65 D  12.55   6.55 D  12.00   4.90 D  12.00   3.80 D
 12.55   2.15 D  13.65   1.05 D  14.75   0.50 D  16.40   0.50 D
 17.50   1.05 D  18.60   2.15 D  19.15   3.80 D  19.15   4.90 D
 18.60   6.55 D  17.50   7.65 D  16.40   8.20 D  14.75   8.20 D S
 22.45  12.05 M  22.45   0.50 D S
 29.05   8.20 M  27.95   7.65 D  26.85   6.55 D  26.30   4.90 D  26.30   3.80 D
 26.85   2.15 D  27.95   1.05 D  29.05   0.50 D  30.70   0.50 D
 31.80   1.05 D  32.90   2.15 D  33.45   3.80 D  33.45   4.90 D
 32.90   6.55 D  31.80   7.65 D  30.70   8.20 D  29.05   8.20 D S
 36.75   8.20 M  36.75   0.50 D S
 36.75   4.90 M  37.30   6.55 D  38.40   7.65 D  39.50   8.20 D  41.15   8.20 D S
 44.45  12.05 M  44.45   0.50 D S
 54.90   8.20 M  54.90   0.50 D S
 54.90   6.55 M  53.80   7.65 D  52.70   8.20 D  51.05   8.20 D  49.95   7.65 D
 48.85   6.55 D  48.30   4.90 D  48.30   3.80 D  48.85   2.15 D
 49.95   1.05 D  51.05   0.50 D  52.70   0.50 D  53.80   1.05 D
 54.90   2.15 D S
 58.75  12.05 M  58.75   0.50 D S
 58.75   6.55 M  59.85   7.65 D  60.95   8.20 D  62.60   8.20 D  63.70   7.65 D
 64.80   6.55 D  65.35   4.90 D  65.35   3.80 D  64.80   2.15 D
 63.70   1.05 D  62.60   0.50 D  60.95   0.50 D  59.85   1.05 D
 58.75   2.15 D S
  8.75   8.80 M   8.20   9.90 D   7.10  11.00 D   6.00  11.55 D   3.80  11.55 D
  2.70  11.00 D   1.60   9.90 D   1.05   8.80 D   0.50   7.15 D
  0.50   4.40 D   1.05   2.75 D   1.60   1.65 D   2.70   0.55 D
  3.80   0.00 D   6.00   0.00 D   7.10   0.55 D   8.20   1.65 D
  8.75   2.75 D S
 14.25   7.70 M  13.15   7.15 D  12.05   6.05 D  11.50   4.40 D  11.50   3.30 D
 12.05   1.65 D  13.15   0.55 D  14.25   0.00 D  15.90   0.00 D
 17.00   0.55 D  18.10   1.65 D  18.65   3.30 D  18.65   4.40 D
 18.10   6.05 D  17.00   7.15 D  15.90   7.70 D  14.25   7.70 D S
 21.95  11.55 M  21.95   0.00 D S
 28.55   7.70 M  27.45   7.15 D  26.35   6.05 D  25.80   4.40 D  25.80   3.30 D
 26.35   1.65 D  27.45   0.55 D  28.55   0.00 D  30.20   0.00 D
 31.30   0.55 D  32.40   1.65 D  32.95   3.30 D  32.95   4.40 D
 32.40   6.05 D  31.30   7.15 D  30.20   7.70 D  28.55   7.70 D S
 36.25   7.70 M  36.25   0.00 D S
 36.25   4.40 M  36.80   6.05 D  37.90   7.15 D  39.00   7.70 D  40.65   7.70 D S
 43.95  11.55 M  43.95   0.00 D S
 54.40   7.70 M  54.40   0.00 D S
 54.40   6.05 M  53.30   7.15 D  52.20   7.70 D  50.55   7.70 D  49.45   7.15 D
 48.35   6.05 D  47.80   4.40 D  47.80   3.30 D  48.35   1.65 D
 49.45   0.55 D  50.55   0.00 D  52.20   0.00 D  53.30   0.55 D
 54.40   1.65 D S
 58.25  11.55 M  58.25   0.00 D S
 58.25   6.05 M  59.35   7.15 D  60.45   7.70 D  62.10   7.70 D  63.20   7.15 D
 64.30   6.05 D  64.85   4.40 D  64.85   3.30 D  64.30   1.65 D
 63.20   0.55 D  62.10   0.00 D  60.45   0.00 D  59.35   0.55 D
 58.25   1.65 D S
  8.25   9.30 M   7.70  10.40 D   6.60  11.50 D   5.50  12.05 D   3.30  12.05 D
  2.20  11.50 D   1.10  10.40 D   0.55   9.30 D   0.00   7.65 D
  0.00   4.90 D   0.55   3.25 D   1.10   2.15 D   2.20   1.05 D
  3.30   0.50 D   5.50   0.50 D   6.60   1.05 D   7.70   2.15 D
  8.25   3.25 D S
 13.75   8.20 M  12.65   7.65 D  11.55   6.55 D  11.00   4.90 D  11.00   3.80 D
 11.55   2.15 D  12.65   1.05 D  13.75   0.50 D  15.40   0.50 D
 16.50   1.05 D  17.60   2.15 D  18.15   3.80 D  18.15   4.90 D
 17.60   6.55 D  16.50   7.65 D  15.40   8.20 D  13.75   8.20 D S
 21.45  12.05 M  21.45   0.50 D S
 28.05   8.20 M  26.95   7.65 D  25.85   6.55 D  25.30   4.90 D  25.30   3.80 D
 25.85   2.15 D  26.95   1.05 D  28.05   0.50 D  29.70   0.50 D
 30.80   1.05 D  31.90   2.15 D  32.45   3.80 D  32.45   4.90 D
 31.90   6.55 D  30.80   7.65 D  29.70   8.20 D  28.05   8.20 D S
 35.75   8.20 M  35.75   0.50 D S
 35.75   4.90 M  36.30   6.55 D  37.40   7.65 D  38.50   8.20 D  40.15   8.20 D S
 43.45  12.05 M  43.45   0.50 D S
 53.90   8.20 M  53.90   0.50 D S
 53.90   6.55 M  52.80   7.65 D  51.70   8.20 D  50.05   8.20 D  48.95   7.65 D
 47.85   6.55 D  47.30   4.90 D  47.30   3.80 D  47.85   2.15 D
 48.95   1.05 D  50.05   0.50 D  51.70   0.50 D  52.80   1.05 D
 53.90   2.15 D S
 57.75  12.05 M  57.75   0.50 D S
 57.75   6.55 M  58.85   7.65 D  59.95   8.20 D  61.60   8.20 D  62.70   7.65 D
 63.80   6.55 D  64.35   4.90 D  64.35   3.80 D  63.80   2.15 D
 62.70   1.05 D  61.60   0.50 D  59.95   0.50 D  58.85   1.05 D
 57.75   2.15 D S
  8.75   9.80 M   8.20  10.90 D   7.10  12.00 D   6.00  12.55 D   3.80  12.55 D
  2.70  12.00 D   1.60  10.90 D   1.05   9.80 D   0.50   8.15 D
  0.50   5.40 D   1.05   3.75 D   1.60   2.65 D   2.70   1.55 D
  3.80   1.00 D   6.00   1.00 D   7.10   1.55 D   8.20   2.65 D
  8.75   3.75 D S
 14.25   8.70 M  13.15   8.15 D  12.05   7.05 D  11.50   5.40 D  11.50   4.30 D
 12.05   2.65 D  13.15   1.55 D  14.25   1.00 D  15.90   1.00 D
 17.00   1.55 D  18.10   2.65 D  18.65   4.30 D  18.65   5.40 D
 18.10   7.05 D  17.00   8.15 D  15.90   8.70 D  14.25   8.70 D S
 21.95  12.55 M  21.95   1.00 D S
 28.55   8.70 M  27.45   8.15 D  26.35   7.05 D  25.80   5.40 D  25.80   4.30 D
 26.35   2.65 D  27.45   1.55 D  28.55   1.00 D  30.20   1.00 D
 31.30   1.55 D  32.40   2.65 D  32.95   4.30 D  32.95   5.40 D
 32.40   7.05 D  31.30   8.15 D  30.20   8.70 D  28.55   8.70 D S
 36.25   8.70 M  36.25   1.00 D S
 36.25   5.40 M  36.80   7.05 D  37.90   8.15 D  39.00   8.70 D  40.65   8.70 D S
 43.95  12.55 M  43.95   1.00 D S
 54.40   8.70 M  54.40   1.00 D S
 54.40   7.05 M  53.30   8.15 D  52.20   8.70 D  50.55   8.70 D  49.45   8.15 D
 48.35   7.05 D  47.80   5.40 D  47.80   4.30 D  48.35   2.65 D
 49.45   1.55 D  50.55   1.00 D  52.20   1.00 D  53.30   1.55 D
 54.40   2.65 D S
 58.25  12.55 M  58.25   1.00 D S
 58.25   7.05 M  59.35   8.15 D  60.45   8.70 D  62.10   8.70 D  63.20   8.15 D
 64.30   7.05 D  64.85   5.40 D  64.85   4.30 D  64.30   2.65 D
 63.20   1.55 D  62.10   1.00 D  60.45   1.00 D  59.35   1.55 D
 58.25   2.65 D S
eop
@end
%%PageTrailer
%%Trailer
%%EOF
