%!PS-Adobe-2.0 EPSF-2.0
%%Title: /home/gijs/.chiplotle/output/20180423_155931.eps
%%Creator: hp2xx 3.4.4 (c) 1991-1994 by H. Werntges, 1999-2003 by M. Kroeker
%%CreationDate: Mon Apr 23 15:59:31 2018
%%Pages: 1
%%BoundingBox: 0 0 189 39
%%EndComments

%%BeginProcSet:
/PSSave save def
/PSDict 200 dict def
PSDict begin
/@restore /restore load def
/restore
   {vmstatus pop
    dup @VMused lt {pop @VMused} if
    exch pop exch @restore /@VMused exch def
   } def
/@pri
   {
    ( ) print
    (                                       ) cvs print
   } def
/@start
   {
    vmstatus pop /@VMused exch def pop
   } def
/@end
   {(VM Used: ) print @VMused @pri
    (. Unused: ) print vmstatus @VMused sub @pri pop pop
    (\n) print flush
    end
    PSSave restore
   } def
/bop
   {
    /SaveImage save def
   } def
/eop
   {
    showpage
    SaveImage restore
   } def
/@line
   {
%%    1 setlinejoin      %% now set from LA command
%%    1 setmiterlimit    %% now set from LA command
   } def
/@SetPlot
   {
    2.834646 2.834646 scale
      0.050   0.050 translate
     0.100 setlinewidth
   } def
/C {setrgbcolor} def
/D {lineto} def
/M {moveto} def
/S {stroke} def
/W {setlinewidth} def
/Z {stroke newpath} def
end
%%EndProcSet

%%BeginSetup
/#copies 1 def
%%EndSetup
%%Page: 1 1
%%BeginPageSetup
PSDict begin
@start
@line
@SetPlot

bop
%%EndPageSetup
  0.100 W
 S
-165.55   0.45 M  0.100 W
 S
-165.55   0.45 M 1 setlinecap
 S
-165.55   0.45 M 1 setlinejoin
 S
 10.25   9.80 M   9.70  10.90 D   8.60  12.00 D   7.50  12.55 D   5.30  12.55 D
  4.20  12.00 D   3.10  10.90 D   2.55   9.80 D   2.00   8.15 D
  2.00   5.40 D   2.55   3.75 D   3.10   2.65 D   4.20   1.55 D
  5.30   1.00 D   7.50   1.00 D   8.60   1.55 D   9.70   2.65 D
 10.25   3.75 D S
 15.75   8.70 M  14.65   8.15 D  13.55   7.05 D  13.00   5.40 D  13.00   4.30 D
 13.55   2.65 D  14.65   1.55 D  15.75   1.00 D  17.40   1.00 D
 18.50   1.55 D  19.60   2.65 D  20.15   4.30 D  20.15   5.40 D
 19.60   7.05 D  18.50   8.15 D  17.40   8.70 D  15.75   8.70 D S
 23.45  12.55 M  23.45   1.00 D S
 30.05   8.70 M  28.95   8.15 D  27.85   7.05 D  27.30   5.40 D  27.30   4.30 D
 27.85   2.65 D  28.95   1.55 D  30.05   1.00 D  31.70   1.00 D
 32.80   1.55 D  33.90   2.65 D  34.45   4.30 D  34.45   5.40 D
 33.90   7.05 D  32.80   8.15 D  31.70   8.70 D  30.05   8.70 D S
 37.75   8.70 M  37.75   1.00 D S
 37.75   5.40 M  38.30   7.05 D  39.40   8.15 D  40.50   8.70 D  42.15   8.70 D S
 45.45  12.55 M  45.45   1.00 D S
 55.90   8.70 M  55.90   1.00 D S
 55.90   7.05 M  54.80   8.15 D  53.70   8.70 D  52.05   8.70 D  50.95   8.15 D
 49.85   7.05 D  49.30   5.40 D  49.30   4.30 D  49.85   2.65 D
 50.95   1.55 D  52.05   1.00 D  53.70   1.00 D  54.80   1.55 D
 55.90   2.65 D S
 59.75  12.55 M  59.75   1.00 D S
 59.75   7.05 M  60.85   8.15 D  61.95   8.70 D  63.60   8.70 D  64.70   8.15 D
 65.80   7.05 D  66.35   5.40 D  66.35   4.30 D  65.80   2.65 D
 64.70   1.55 D  63.60   1.00 D  61.95   1.00 D  60.85   1.55 D
 59.75   2.65 D S
  9.25   8.80 M   8.70   9.90 D   7.60  11.00 D   6.50  11.55 D   4.30  11.55 D
  3.20  11.00 D   2.10   9.90 D   1.55   8.80 D   1.00   7.15 D
  1.00   4.40 D   1.55   2.75 D   2.10   1.65 D   3.20   0.55 D
  4.30   0.00 D   6.50   0.00 D   7.60   0.55 D   8.70   1.65 D
  9.25   2.75 D S
 14.75   7.70 M  13.65   7.15 D  12.55   6.05 D  12.00   4.40 D  12.00   3.30 D
 12.55   1.65 D  13.65   0.55 D  14.75   0.00 D  16.40   0.00 D
 17.50   0.55 D  18.60   1.65 D  19.15   3.30 D  19.15   4.40 D
 18.60   6.05 D  17.50   7.15 D  16.40   7.70 D  14.75   7.70 D S
 22.45  11.55 M  22.45   0.00 D S
 29.05   7.70 M  27.95   7.15 D  26.85   6.05 D  26.30   4.40 D  26.30   3.30 D
 26.85   1.65 D  27.95   0.55 D  29.05   0.00 D  30.70   0.00 D
 31.80   0.55 D  32.90   1.65 D  33.45   3.30 D  33.45   4.40 D
 32.90   6.05 D  31.80   7.15 D  30.70   7.70 D  29.05   7.70 D S
 36.75   7.70 M  36.75   0.00 D S
 36.75   4.40 M  37.30   6.05 D  38.40   7.15 D  39.50   7.70 D  41.15   7.70 D S
 44.45  11.55 M  44.45   0.00 D S
 54.90   7.70 M  54.90   0.00 D S
 54.90   6.05 M  53.80   7.15 D  52.70   7.70 D  51.05   7.70 D  49.95   7.15 D
 48.85   6.05 D  48.30   4.40 D  48.30   3.30 D  48.85   1.65 D
 49.95   0.55 D  51.05   0.00 D  52.70   0.00 D  53.80   0.55 D
 54.90   1.65 D S
 58.75  11.55 M  58.75   0.00 D S
 58.75   6.05 M  59.85   7.15 D  60.95   7.70 D  62.60   7.70 D  63.70   7.15 D
 64.80   6.05 D  65.35   4.40 D  65.35   3.30 D  64.80   1.65 D
 63.70   0.55 D  62.60   0.00 D  60.95   0.00 D  59.85   0.55 D
 58.75   1.65 D S
  8.25   9.80 M   7.70  10.90 D   6.60  12.00 D   5.50  12.55 D   3.30  12.55 D
  2.20  12.00 D   1.10  10.90 D   0.55   9.80 D   0.00   8.15 D
  0.00   5.40 D   0.55   3.75 D   1.10   2.65 D   2.20   1.55 D
  3.30   1.00 D   5.50   1.00 D   6.60   1.55 D   7.70   2.65 D
  8.25   3.75 D S
 13.75   8.70 M  12.65   8.15 D  11.55   7.05 D  11.00   5.40 D  11.00   4.30 D
 11.55   2.65 D  12.65   1.55 D  13.75   1.00 D  15.40   1.00 D
 16.50   1.55 D  17.60   2.65 D  18.15   4.30 D  18.15   5.40 D
 17.60   7.05 D  16.50   8.15 D  15.40   8.70 D  13.75   8.70 D S
 21.45  12.55 M  21.45   1.00 D S
 28.05   8.70 M  26.95   8.15 D  25.85   7.05 D  25.30   5.40 D  25.30   4.30 D
 25.85   2.65 D  26.95   1.55 D  28.05   1.00 D  29.70   1.00 D
 30.80   1.55 D  31.90   2.65 D  32.45   4.30 D  32.45   5.40 D
 31.90   7.05 D  30.80   8.15 D  29.70   8.70 D  28.05   8.70 D S
 35.75   8.70 M  35.75   1.00 D S
 35.75   5.40 M  36.30   7.05 D  37.40   8.15 D  38.50   8.70 D  40.15   8.70 D S
 43.45  12.55 M  43.45   1.00 D S
 53.90   8.70 M  53.90   1.00 D S
 53.90   7.05 M  52.80   8.15 D  51.70   8.70 D  50.05   8.70 D  48.95   8.15 D
 47.85   7.05 D  47.30   5.40 D  47.30   4.30 D  47.85   2.65 D
 48.95   1.55 D  50.05   1.00 D  51.70   1.00 D  52.80   1.55 D
 53.90   2.65 D S
 57.75  12.55 M  57.75   1.00 D S
 57.75   7.05 M  58.85   8.15 D  59.95   8.70 D  61.60   8.70 D  62.70   8.15 D
 63.80   7.05 D  64.35   5.40 D  64.35   4.30 D  63.80   2.65 D
 62.70   1.55 D  61.60   1.00 D  59.95   1.00 D  58.85   1.55 D
 57.75   2.65 D S
  9.25  10.80 M   8.70  11.90 D   7.60  13.00 D   6.50  13.55 D   4.30  13.55 D
  3.20  13.00 D   2.10  11.90 D   1.55  10.80 D   1.00   9.15 D
  1.00   6.40 D   1.55   4.75 D   2.10   3.65 D   3.20   2.55 D
  4.30   2.00 D   6.50   2.00 D   7.60   2.55 D   8.70   3.65 D
  9.25   4.75 D S
 14.75   9.70 M  13.65   9.15 D  12.55   8.05 D  12.00   6.40 D  12.00   5.30 D
 12.55   3.65 D  13.65   2.55 D  14.75   2.00 D  16.40   2.00 D
 17.50   2.55 D  18.60   3.65 D  19.15   5.30 D  19.15   6.40 D
 18.60   8.05 D  17.50   9.15 D  16.40   9.70 D  14.75   9.70 D S
 22.45  13.55 M  22.45   2.00 D S
 29.05   9.70 M  27.95   9.15 D  26.85   8.05 D  26.30   6.40 D  26.30   5.30 D
 26.85   3.65 D  27.95   2.55 D  29.05   2.00 D  30.70   2.00 D
 31.80   2.55 D  32.90   3.65 D  33.45   5.30 D  33.45   6.40 D
 32.90   8.05 D  31.80   9.15 D  30.70   9.70 D  29.05   9.70 D S
 36.75   9.70 M  36.75   2.00 D S
 36.75   6.40 M  37.30   8.05 D  38.40   9.15 D  39.50   9.70 D  41.15   9.70 D S
 44.45  13.55 M  44.45   2.00 D S
 54.90   9.70 M  54.90   2.00 D S
 54.90   8.05 M  53.80   9.15 D  52.70   9.70 D  51.05   9.70 D  49.95   9.15 D
 48.85   8.05 D  48.30   6.40 D  48.30   5.30 D  48.85   3.65 D
 49.95   2.55 D  51.05   2.00 D  52.70   2.00 D  53.80   2.55 D
 54.90   3.65 D S
 58.75  13.55 M  58.75   2.00 D S
 58.75   8.05 M  59.85   9.15 D  60.95   9.70 D  62.60   9.70 D  63.70   9.15 D
 64.80   8.05 D  65.35   6.40 D  65.35   5.30 D  64.80   3.65 D
 63.70   2.55 D  62.60   2.00 D  60.95   2.00 D  59.85   2.55 D
 58.75   3.65 D S
eop
@end
%%PageTrailer
%%Trailer
%%EOF
