%!PS-Adobe-2.0 EPSF-2.0
%%Title: /home/gijs/.chiplotle/output/20180423_154854.eps
%%Creator: hp2xx 3.4.4 (c) 1991-1994 by H. Werntges, 1999-2003 by M. Kroeker
%%CreationDate: Mon Apr 23 15:48:54 2018
%%Pages: 1
%%BoundingBox: 0 0 179 36
%%EndComments

%%BeginProcSet:
/PSSave save def
/PSDict 200 dict def
PSDict begin
/@restore /restore load def
/restore
   {vmstatus pop
    dup @VMused lt {pop @VMused} if
    exch pop exch @restore /@VMused exch def
   } def
/@pri
   {
    ( ) print
    (                                       ) cvs print
   } def
/@start
   {
    vmstatus pop /@VMused exch def pop
   } def
/@end
   {(VM Used: ) print @VMused @pri
    (. Unused: ) print vmstatus @VMused sub @pri pop pop
    (\n) print flush
    end
    PSSave restore
   } def
/bop
   {
    /SaveImage save def
   } def
/eop
   {
    showpage
    SaveImage restore
   } def
/@line
   {
%%    1 setlinejoin      %% now set from LA command
%%    1 setmiterlimit    %% now set from LA command
   } def
/@SetPlot
   {
    2.834646 2.834646 scale
      0.050   0.050 translate
     0.100 setlinewidth
   } def
/C {setrgbcolor} def
/D {lineto} def
/M {moveto} def
/S {stroke} def
/W {setlinewidth} def
/Z {stroke newpath} def
end
%%EndProcSet

%%BeginSetup
/#copies 1 def
%%EndSetup
%%Page: 1 1
%%BeginPageSetup
PSDict begin
@start
@line
@SetPlot

bop
%%EndPageSetup
  0.100 W
 S
-191.00 -19.50 M  0.100 W
 S
-191.00 -19.50 M 1 setlinecap
 S
-191.00 -19.50 M 1 setlinejoin
 S
-191.00 -19.50 M  0.000  0.000  0.000 C
 S
  2.00  11.50 M   2.00   1.00 D S
  2.00  11.50 M   6.50  11.50 D   8.00  11.00 D   8.50  10.50 D   9.00   9.50 D
  9.00   8.50 D   8.50   7.50 D   8.00   7.00 D   6.50   6.50 D S
  2.00   6.50 M   6.50   6.50 D   8.00   6.00 D   8.50   5.50 D   9.00   4.50 D
  9.00   3.00 D   8.50   2.00 D   8.00   1.50 D   6.50   1.00 D
  2.00   1.00 D S
 13.00   8.00 M  13.00   1.00 D S
 13.00   5.00 M  13.50   6.50 D  14.50   7.50 D  15.50   8.00 D  17.00   8.00 D S
 20.00   8.00 M  20.00   3.00 D  20.50   1.50 D  21.50   1.00 D  23.00   1.00 D
 24.00   1.50 D  25.50   3.00 D S
 25.50   8.00 M  25.50   1.00 D S
 34.00   6.50 M  33.50   7.50 D  32.00   8.00 D  30.50   8.00 D  29.00   7.50 D
 28.50   6.50 D  29.00   5.50 D  30.00   5.00 D  32.50   4.50 D
 33.50   4.00 D  34.00   3.00 D  34.00   2.50 D  33.50   1.50 D
 32.00   1.00 D  30.50   1.00 D  29.00   1.50 D  28.50   2.50 D S
 42.00   6.50 M  41.50   7.50 D  40.00   8.00 D  38.50   8.00 D  37.00   7.50 D
 36.50   6.50 D  37.00   5.50 D  38.00   5.00 D  40.50   4.50 D
 41.50   4.00 D  42.00   3.00 D  42.00   2.50 D  41.50   1.50 D
 40.00   1.00 D  38.50   1.00 D  37.00   1.50 D  36.50   2.50 D S
 44.50   5.00 M  50.50   5.00 D  50.50   6.00 D  50.00   7.00 D  49.50   7.50 D
 48.50   8.00 D  47.00   8.00 D  46.00   7.50 D  45.00   6.50 D
 44.50   5.00 D  44.50   4.00 D  45.00   2.50 D  46.00   1.50 D
 47.00   1.00 D  48.50   1.00 D  49.50   1.50 D  50.50   2.50 D S
 54.00  11.50 M  54.00   1.00 D S
 63.00   6.50 M  62.50   7.50 D  61.00   8.00 D  59.50   8.00 D  58.00   7.50 D
 57.50   6.50 D  58.00   5.50 D  59.00   5.00 D  61.50   4.50 D
 62.50   4.00 D  63.00   3.00 D  63.00   2.50 D  62.50   1.50 D
 61.00   1.00 D  59.50   1.00 D  58.00   1.50 D  57.50   2.50 D S
  0.00  11.50 M   0.00   1.00 D S
  0.00  11.50 M   4.50  11.50 D   6.00  11.00 D   6.50  10.50 D   7.00   9.50 D
  7.00   8.50 D   6.50   7.50 D   6.00   7.00 D   4.50   6.50 D S
  0.00   6.50 M   4.50   6.50 D   6.00   6.00 D   6.50   5.50 D   7.00   4.50 D
  7.00   3.00 D   6.50   2.00 D   6.00   1.50 D   4.50   1.00 D
  0.00   1.00 D S
 11.00   8.00 M  11.00   1.00 D S
 11.00   5.00 M  11.50   6.50 D  12.50   7.50 D  13.50   8.00 D  15.00   8.00 D S
 18.00   8.00 M  18.00   3.00 D  18.50   1.50 D  19.50   1.00 D  21.00   1.00 D
 22.00   1.50 D  23.50   3.00 D S
 23.50   8.00 M  23.50   1.00 D S
 32.00   6.50 M  31.50   7.50 D  30.00   8.00 D  28.50   8.00 D  27.00   7.50 D
 26.50   6.50 D  27.00   5.50 D  28.00   5.00 D  30.50   4.50 D
 31.50   4.00 D  32.00   3.00 D  32.00   2.50 D  31.50   1.50 D
 30.00   1.00 D  28.50   1.00 D  27.00   1.50 D  26.50   2.50 D S
 40.00   6.50 M  39.50   7.50 D  38.00   8.00 D  36.50   8.00 D  35.00   7.50 D
 34.50   6.50 D  35.00   5.50 D  36.00   5.00 D  38.50   4.50 D
 39.50   4.00 D  40.00   3.00 D  40.00   2.50 D  39.50   1.50 D
 38.00   1.00 D  36.50   1.00 D  35.00   1.50 D  34.50   2.50 D S
 42.50   5.00 M  48.50   5.00 D  48.50   6.00 D  48.00   7.00 D  47.50   7.50 D
 46.50   8.00 D  45.00   8.00 D  44.00   7.50 D  43.00   6.50 D
 42.50   5.00 D  42.50   4.00 D  43.00   2.50 D  44.00   1.50 D
 45.00   1.00 D  46.50   1.00 D  47.50   1.50 D  48.50   2.50 D S
 52.00  11.50 M  52.00   1.00 D S
 61.00   6.50 M  60.50   7.50 D  59.00   8.00 D  57.50   8.00 D  56.00   7.50 D
 55.50   6.50 D  56.00   5.50 D  57.00   5.00 D  59.50   4.50 D
 60.50   4.00 D  61.00   3.00 D  61.00   2.50 D  60.50   1.50 D
 59.00   1.00 D  57.50   1.00 D  56.00   1.50 D  55.50   2.50 D S
  1.00  10.50 M   1.00   0.00 D S
  1.00  10.50 M   5.50  10.50 D   7.00  10.00 D   7.50   9.50 D   8.00   8.50 D
  8.00   7.50 D   7.50   6.50 D   7.00   6.00 D   5.50   5.50 D S
  1.00   5.50 M   5.50   5.50 D   7.00   5.00 D   7.50   4.50 D   8.00   3.50 D
  8.00   2.00 D   7.50   1.00 D   7.00   0.50 D   5.50   0.00 D
  1.00   0.00 D S
 12.00   7.00 M  12.00   0.00 D S
 12.00   4.00 M  12.50   5.50 D  13.50   6.50 D  14.50   7.00 D  16.00   7.00 D S
 19.00   7.00 M  19.00   2.00 D  19.50   0.50 D  20.50   0.00 D  22.00   0.00 D
 23.00   0.50 D  24.50   2.00 D S
 24.50   7.00 M  24.50   0.00 D S
 33.00   5.50 M  32.50   6.50 D  31.00   7.00 D  29.50   7.00 D  28.00   6.50 D
 27.50   5.50 D  28.00   4.50 D  29.00   4.00 D  31.50   3.50 D
 32.50   3.00 D  33.00   2.00 D  33.00   1.50 D  32.50   0.50 D
 31.00   0.00 D  29.50   0.00 D  28.00   0.50 D  27.50   1.50 D S
 41.00   5.50 M  40.50   6.50 D  39.00   7.00 D  37.50   7.00 D  36.00   6.50 D
 35.50   5.50 D  36.00   4.50 D  37.00   4.00 D  39.50   3.50 D
 40.50   3.00 D  41.00   2.00 D  41.00   1.50 D  40.50   0.50 D
 39.00   0.00 D  37.50   0.00 D  36.00   0.50 D  35.50   1.50 D S
 43.50   4.00 M  49.50   4.00 D  49.50   5.00 D  49.00   6.00 D  48.50   6.50 D
 47.50   7.00 D  46.00   7.00 D  45.00   6.50 D  44.00   5.50 D
 43.50   4.00 D  43.50   3.00 D  44.00   1.50 D  45.00   0.50 D
 46.00   0.00 D  47.50   0.00 D  48.50   0.50 D  49.50   1.50 D S
 53.00  10.50 M  53.00   0.00 D S
 62.00   5.50 M  61.50   6.50 D  60.00   7.00 D  58.50   7.00 D  57.00   6.50 D
 56.50   5.50 D  57.00   4.50 D  58.00   4.00 D  60.50   3.50 D
 61.50   3.00 D  62.00   2.00 D  62.00   1.50 D  61.50   0.50 D
 60.00   0.00 D  58.50   0.00 D  57.00   0.50 D  56.50   1.50 D S
  1.00  12.50 M   1.00   2.00 D S
  1.00  12.50 M   5.50  12.50 D   7.00  12.00 D   7.50  11.50 D   8.00  10.50 D
  8.00   9.50 D   7.50   8.50 D   7.00   8.00 D   5.50   7.50 D S
  1.00   7.50 M   5.50   7.50 D   7.00   7.00 D   7.50   6.50 D   8.00   5.50 D
  8.00   4.00 D   7.50   3.00 D   7.00   2.50 D   5.50   2.00 D
  1.00   2.00 D S
 12.00   9.00 M  12.00   2.00 D S
 12.00   6.00 M  12.50   7.50 D  13.50   8.50 D  14.50   9.00 D  16.00   9.00 D S
 19.00   9.00 M  19.00   4.00 D  19.50   2.50 D  20.50   2.00 D  22.00   2.00 D
 23.00   2.50 D  24.50   4.00 D S
 24.50   9.00 M  24.50   2.00 D S
 33.00   7.50 M  32.50   8.50 D  31.00   9.00 D  29.50   9.00 D  28.00   8.50 D
 27.50   7.50 D  28.00   6.50 D  29.00   6.00 D  31.50   5.50 D
 32.50   5.00 D  33.00   4.00 D  33.00   3.50 D  32.50   2.50 D
 31.00   2.00 D  29.50   2.00 D  28.00   2.50 D  27.50   3.50 D S
 41.00   7.50 M  40.50   8.50 D  39.00   9.00 D  37.50   9.00 D  36.00   8.50 D
 35.50   7.50 D  36.00   6.50 D  37.00   6.00 D  39.50   5.50 D
 40.50   5.00 D  41.00   4.00 D  41.00   3.50 D  40.50   2.50 D
 39.00   2.00 D  37.50   2.00 D  36.00   2.50 D  35.50   3.50 D S
 43.50   6.00 M  49.50   6.00 D  49.50   7.00 D  49.00   8.00 D  48.50   8.50 D
 47.50   9.00 D  46.00   9.00 D  45.00   8.50 D  44.00   7.50 D
 43.50   6.00 D  43.50   5.00 D  44.00   3.50 D  45.00   2.50 D
 46.00   2.00 D  47.50   2.00 D  48.50   2.50 D  49.50   3.50 D S
 53.00  12.50 M  53.00   2.00 D S
 62.00   7.50 M  61.50   8.50 D  60.00   9.00 D  58.50   9.00 D  57.00   8.50 D
 56.50   7.50 D  57.00   6.50 D  58.00   6.00 D  60.50   5.50 D
 61.50   5.00 D  62.00   4.00 D  62.00   3.50 D  61.50   2.50 D
 60.00   2.00 D  58.50   2.00 D  57.00   2.50 D  56.50   3.50 D S
eop
@end
%%PageTrailer
%%Trailer
%%EOF
