%!PS-Adobe-2.0 EPSF-2.0
%%Title: /home/gijs/.chiplotle/output/20180423_154909.eps
%%Creator: hp2xx 3.4.4 (c) 1991-1994 by H. Werntges, 1999-2003 by M. Kroeker
%%CreationDate: Mon Apr 23 15:49:09 2018
%%Pages: 1
%%BoundingBox: 0 0 197 39
%%EndComments

%%BeginProcSet:
/PSSave save def
/PSDict 200 dict def
PSDict begin
/@restore /restore load def
/restore
   {vmstatus pop
    dup @VMused lt {pop @VMused} if
    exch pop exch @restore /@VMused exch def
   } def
/@pri
   {
    ( ) print
    (                                       ) cvs print
   } def
/@start
   {
    vmstatus pop /@VMused exch def pop
   } def
/@end
   {(VM Used: ) print @VMused @pri
    (. Unused: ) print vmstatus @VMused sub @pri pop pop
    (\n) print flush
    end
    PSSave restore
   } def
/bop
   {
    /SaveImage save def
   } def
/eop
   {
    showpage
    SaveImage restore
   } def
/@line
   {
%%    1 setlinejoin      %% now set from LA command
%%    1 setmiterlimit    %% now set from LA command
   } def
/@SetPlot
   {
    2.834646 2.834646 scale
      0.050   0.050 translate
     0.100 setlinewidth
   } def
/C {setrgbcolor} def
/D {lineto} def
/M {moveto} def
/S {stroke} def
/W {setlinewidth} def
/Z {stroke newpath} def
end
%%EndProcSet

%%BeginSetup
/#copies 1 def
%%EndSetup
%%Page: 1 1
%%BeginPageSetup
PSDict begin
@start
@line
@SetPlot

bop
%%EndPageSetup
  0.100 W
 S
-190.20 -19.55 M  0.100 W
 S
-190.20 -19.55 M 1 setlinecap
 S
-190.20 -19.55 M 1 setlinejoin
 S
-190.20 -19.55 M  0.000  0.000  0.000 C
 S
  2.00  12.55 M   2.00   1.00 D S
  2.00  12.55 M   6.95  12.55 D   8.60  12.00 D   9.15  11.45 D   9.70  10.35 D
  9.70   9.25 D   9.15   8.15 D   8.60   7.60 D   6.95   7.05 D S
  2.00   7.05 M   6.95   7.05 D   8.60   6.50 D   9.15   5.95 D   9.70   4.85 D
  9.70   3.20 D   9.15   2.10 D   8.60   1.55 D   6.95   1.00 D
  2.00   1.00 D S
 14.10   8.70 M  14.10   1.00 D S
 14.10   5.40 M  14.65   7.05 D  15.75   8.15 D  16.85   8.70 D  18.50   8.70 D S
 21.80   8.70 M  21.80   3.20 D  22.35   1.55 D  23.45   1.00 D  25.10   1.00 D
 26.20   1.55 D  27.85   3.20 D S
 27.85   8.70 M  27.85   1.00 D S
 37.20   7.05 M  36.65   8.15 D  35.00   8.70 D  33.35   8.70 D  31.70   8.15 D
 31.15   7.05 D  31.70   5.95 D  32.80   5.40 D  35.55   4.85 D
 36.65   4.30 D  37.20   3.20 D  37.20   2.65 D  36.65   1.55 D
 35.00   1.00 D  33.35   1.00 D  31.70   1.55 D  31.15   2.65 D S
 46.00   7.05 M  45.45   8.15 D  43.80   8.70 D  42.15   8.70 D  40.50   8.15 D
 39.95   7.05 D  40.50   5.95 D  41.60   5.40 D  44.35   4.85 D
 45.45   4.30 D  46.00   3.20 D  46.00   2.65 D  45.45   1.55 D
 43.80   1.00 D  42.15   1.00 D  40.50   1.55 D  39.95   2.65 D S
 48.75   5.40 M  55.35   5.40 D  55.35   6.50 D  54.80   7.60 D  54.25   8.15 D
 53.15   8.70 D  51.50   8.70 D  50.40   8.15 D  49.30   7.05 D
 48.75   5.40 D  48.75   4.30 D  49.30   2.65 D  50.40   1.55 D
 51.50   1.00 D  53.15   1.00 D  54.25   1.55 D  55.35   2.65 D S
 59.20  12.55 M  59.20   1.00 D S
 69.10   7.05 M  68.55   8.15 D  66.90   8.70 D  65.25   8.70 D  63.60   8.15 D
 63.05   7.05 D  63.60   5.95 D  64.70   5.40 D  67.45   4.85 D
 68.55   4.30 D  69.10   3.20 D  69.10   2.65 D  68.55   1.55 D
 66.90   1.00 D  65.25   1.00 D  63.60   1.55 D  63.05   2.65 D S
  0.00  12.55 M   0.00   1.00 D S
  0.00  12.55 M   4.95  12.55 D   6.60  12.00 D   7.15  11.45 D   7.70  10.35 D
  7.70   9.25 D   7.15   8.15 D   6.60   7.60 D   4.95   7.05 D S
  0.00   7.05 M   4.95   7.05 D   6.60   6.50 D   7.15   5.95 D   7.70   4.85 D
  7.70   3.20 D   7.15   2.10 D   6.60   1.55 D   4.95   1.00 D
  0.00   1.00 D S
 12.10   8.70 M  12.10   1.00 D S
 12.10   5.40 M  12.65   7.05 D  13.75   8.15 D  14.85   8.70 D  16.50   8.70 D S
 19.80   8.70 M  19.80   3.20 D  20.35   1.55 D  21.45   1.00 D  23.10   1.00 D
 24.20   1.55 D  25.85   3.20 D S
 25.85   8.70 M  25.85   1.00 D S
 35.20   7.05 M  34.65   8.15 D  33.00   8.70 D  31.35   8.70 D  29.70   8.15 D
 29.15   7.05 D  29.70   5.95 D  30.80   5.40 D  33.55   4.85 D
 34.65   4.30 D  35.20   3.20 D  35.20   2.65 D  34.65   1.55 D
 33.00   1.00 D  31.35   1.00 D  29.70   1.55 D  29.15   2.65 D S
 44.00   7.05 M  43.45   8.15 D  41.80   8.70 D  40.15   8.70 D  38.50   8.15 D
 37.95   7.05 D  38.50   5.95 D  39.60   5.40 D  42.35   4.85 D
 43.45   4.30 D  44.00   3.20 D  44.00   2.65 D  43.45   1.55 D
 41.80   1.00 D  40.15   1.00 D  38.50   1.55 D  37.95   2.65 D S
 46.75   5.40 M  53.35   5.40 D  53.35   6.50 D  52.80   7.60 D  52.25   8.15 D
 51.15   8.70 D  49.50   8.70 D  48.40   8.15 D  47.30   7.05 D
 46.75   5.40 D  46.75   4.30 D  47.30   2.65 D  48.40   1.55 D
 49.50   1.00 D  51.15   1.00 D  52.25   1.55 D  53.35   2.65 D S
 57.20  12.55 M  57.20   1.00 D S
 67.10   7.05 M  66.55   8.15 D  64.90   8.70 D  63.25   8.70 D  61.60   8.15 D
 61.05   7.05 D  61.60   5.95 D  62.70   5.40 D  65.45   4.85 D
 66.55   4.30 D  67.10   3.20 D  67.10   2.65 D  66.55   1.55 D
 64.90   1.00 D  63.25   1.00 D  61.60   1.55 D  61.05   2.65 D S
  1.00  11.55 M   1.00   0.00 D S
  1.00  11.55 M   5.95  11.55 D   7.60  11.00 D   8.15  10.45 D   8.70   9.35 D
  8.70   8.25 D   8.15   7.15 D   7.60   6.60 D   5.95   6.05 D S
  1.00   6.05 M   5.95   6.05 D   7.60   5.50 D   8.15   4.95 D   8.70   3.85 D
  8.70   2.20 D   8.15   1.10 D   7.60   0.55 D   5.95   0.00 D
  1.00   0.00 D S
 13.10   7.70 M  13.10   0.00 D S
 13.10   4.40 M  13.65   6.05 D  14.75   7.15 D  15.85   7.70 D  17.50   7.70 D S
 20.80   7.70 M  20.80   2.20 D  21.35   0.55 D  22.45   0.00 D  24.10   0.00 D
 25.20   0.55 D  26.85   2.20 D S
 26.85   7.70 M  26.85   0.00 D S
 36.20   6.05 M  35.65   7.15 D  34.00   7.70 D  32.35   7.70 D  30.70   7.15 D
 30.15   6.05 D  30.70   4.95 D  31.80   4.40 D  34.55   3.85 D
 35.65   3.30 D  36.20   2.20 D  36.20   1.65 D  35.65   0.55 D
 34.00   0.00 D  32.35   0.00 D  30.70   0.55 D  30.15   1.65 D S
 45.00   6.05 M  44.45   7.15 D  42.80   7.70 D  41.15   7.70 D  39.50   7.15 D
 38.95   6.05 D  39.50   4.95 D  40.60   4.40 D  43.35   3.85 D
 44.45   3.30 D  45.00   2.20 D  45.00   1.65 D  44.45   0.55 D
 42.80   0.00 D  41.15   0.00 D  39.50   0.55 D  38.95   1.65 D S
 47.75   4.40 M  54.35   4.40 D  54.35   5.50 D  53.80   6.60 D  53.25   7.15 D
 52.15   7.70 D  50.50   7.70 D  49.40   7.15 D  48.30   6.05 D
 47.75   4.40 D  47.75   3.30 D  48.30   1.65 D  49.40   0.55 D
 50.50   0.00 D  52.15   0.00 D  53.25   0.55 D  54.35   1.65 D S
 58.20  11.55 M  58.20   0.00 D S
 68.10   6.05 M  67.55   7.15 D  65.90   7.70 D  64.25   7.70 D  62.60   7.15 D
 62.05   6.05 D  62.60   4.95 D  63.70   4.40 D  66.45   3.85 D
 67.55   3.30 D  68.10   2.20 D  68.10   1.65 D  67.55   0.55 D
 65.90   0.00 D  64.25   0.00 D  62.60   0.55 D  62.05   1.65 D S
  1.00  13.55 M   1.00   2.00 D S
  1.00  13.55 M   5.95  13.55 D   7.60  13.00 D   8.15  12.45 D   8.70  11.35 D
  8.70  10.25 D   8.15   9.15 D   7.60   8.60 D   5.95   8.05 D S
  1.00   8.05 M   5.95   8.05 D   7.60   7.50 D   8.15   6.95 D   8.70   5.85 D
  8.70   4.20 D   8.15   3.10 D   7.60   2.55 D   5.95   2.00 D
  1.00   2.00 D S
 13.10   9.70 M  13.10   2.00 D S
 13.10   6.40 M  13.65   8.05 D  14.75   9.15 D  15.85   9.70 D  17.50   9.70 D S
 20.80   9.70 M  20.80   4.20 D  21.35   2.55 D  22.45   2.00 D  24.10   2.00 D
 25.20   2.55 D  26.85   4.20 D S
 26.85   9.70 M  26.85   2.00 D S
 36.20   8.05 M  35.65   9.15 D  34.00   9.70 D  32.35   9.70 D  30.70   9.15 D
 30.15   8.05 D  30.70   6.95 D  31.80   6.40 D  34.55   5.85 D
 35.65   5.30 D  36.20   4.20 D  36.20   3.65 D  35.65   2.55 D
 34.00   2.00 D  32.35   2.00 D  30.70   2.55 D  30.15   3.65 D S
 45.00   8.05 M  44.45   9.15 D  42.80   9.70 D  41.15   9.70 D  39.50   9.15 D
 38.95   8.05 D  39.50   6.95 D  40.60   6.40 D  43.35   5.85 D
 44.45   5.30 D  45.00   4.20 D  45.00   3.65 D  44.45   2.55 D
 42.80   2.00 D  41.15   2.00 D  39.50   2.55 D  38.95   3.65 D S
 47.75   6.40 M  54.35   6.40 D  54.35   7.50 D  53.80   8.60 D  53.25   9.15 D
 52.15   9.70 D  50.50   9.70 D  49.40   9.15 D  48.30   8.05 D
 47.75   6.40 D  47.75   5.30 D  48.30   3.65 D  49.40   2.55 D
 50.50   2.00 D  52.15   2.00 D  53.25   2.55 D  54.35   3.65 D S
 58.20  13.55 M  58.20   2.00 D S
 68.10   8.05 M  67.55   9.15 D  65.90   9.70 D  64.25   9.70 D  62.60   9.15 D
 62.05   8.05 D  62.60   6.95 D  63.70   6.40 D  66.45   5.85 D
 67.55   5.30 D  68.10   4.20 D  68.10   3.65 D  67.55   2.55 D
 65.90   2.00 D  64.25   2.00 D  62.60   2.55 D  62.05   3.65 D S
eop
@end
%%PageTrailer
%%Trailer
%%EOF
