%!PS-Adobe-2.0 EPSF-2.0
%%Title: /home/gijs/.chiplotle/output/20180423_165218.eps
%%Creator: hp2xx 3.4.4 (c) 1991-1994 by H. Werntges, 1999-2003 by M. Kroeker
%%CreationDate: Mon Apr 23 16:52:18 2018
%%Pages: 1
%%BoundingBox: 0 0 1176 39
%%EndComments

%%BeginProcSet:
/PSSave save def
/PSDict 200 dict def
PSDict begin
/@restore /restore load def
/restore
   {vmstatus pop
    dup @VMused lt {pop @VMused} if
    exch pop exch @restore /@VMused exch def
   } def
/@pri
   {
    ( ) print
    (                                       ) cvs print
   } def
/@start
   {
    vmstatus pop /@VMused exch def pop
   } def
/@end
   {(VM Used: ) print @VMused @pri
    (. Unused: ) print vmstatus @VMused sub @pri pop pop
    (\n) print flush
    end
    PSSave restore
   } def
/bop
   {
    /SaveImage save def
   } def
/eop
   {
    showpage
    SaveImage restore
   } def
/@line
   {
%%    1 setlinejoin      %% now set from LA command
%%    1 setmiterlimit    %% now set from LA command
   } def
/@SetPlot
   {
    2.834646 2.834646 scale
      0.050   0.050 translate
     0.100 setlinewidth
   } def
/C {setrgbcolor} def
/D {lineto} def
/M {moveto} def
/S {stroke} def
/W {setlinewidth} def
/Z {stroke newpath} def
end
%%EndProcSet

%%BeginSetup
/#copies 1 def
%%EndSetup
%%Page: 1 1
%%BeginPageSetup
PSDict begin
@start
@line
@SetPlot

bop
%%EndPageSetup
  0.100 W
 S
  9.30   0.45 M  0.100 W
 S
  9.30   0.45 M 1 setlinecap
 S
  9.30   0.45 M 1 setlinejoin
 S
215.30   9.80 M 214.75  10.90 D 213.65  12.00 D 212.55  12.55 D 210.35  12.55 D
209.25  12.00 D 208.15  10.90 D 207.60   9.80 D 207.05   8.15 D
207.05   5.40 D 207.60   3.75 D 208.15   2.65 D 209.25   1.55 D
210.35   1.00 D 212.55   1.00 D 213.65   1.55 D 214.75   2.65 D
215.30   3.75 D S
222.35  12.55 M 221.25  12.00 D 220.15  10.90 D 219.60   9.80 D 219.05   8.15 D
219.05   5.40 D 219.60   3.75 D 220.15   2.65 D 221.25   1.55 D
222.35   1.00 D 224.55   1.00 D 225.65   1.55 D 226.75   2.65 D
227.30   3.75 D 227.85   5.40 D 227.85   8.15 D 227.30   9.80 D
226.75  10.90 D 225.65  12.00 D 224.55  12.55 D 222.35  12.55 D S
232.70  12.55 M 232.70   1.00 D S
232.70   1.00 M 239.30   1.00 D S
247.45  12.55 M 246.35  12.00 D 245.25  10.90 D 244.70   9.80 D 244.15   8.15 D
244.15   5.40 D 244.70   3.75 D 245.25   2.65 D 246.35   1.55 D
247.45   1.00 D 249.65   1.00 D 250.75   1.55 D 251.85   2.65 D
252.40   3.75 D 252.95   5.40 D 252.95   8.15 D 252.40   9.80 D
251.85  10.90 D 250.75  12.00 D 249.65  12.55 D 247.45  12.55 D S
257.80  12.55 M 257.80   1.00 D S
257.80  12.55 M 262.75  12.55 D 264.40  12.00 D 264.95  11.45 D 265.50  10.35 D
265.50   9.25 D 264.95   8.15 D 264.40   7.60 D 262.75   7.05 D
257.80   7.05 D S
261.65   7.05 M 265.50   1.00 D S
270.90  12.55 M 270.90   1.00 D S
270.90   1.00 M 277.50   1.00 D S
285.65  12.55 M 281.25   1.00 D S
285.65  12.55 M 290.05   1.00 D S
282.90   4.85 M 288.40   4.85 D S
293.80  12.55 M 293.80   1.00 D S
293.80  12.55 M 298.75  12.55 D 300.40  12.00 D 300.95  11.45 D 301.50  10.35 D
301.50   9.25 D 300.95   8.15 D 300.40   7.60 D 298.75   7.05 D S
293.80   7.05 M 298.75   7.05 D 300.40   6.50 D 300.95   5.95 D 301.50   4.85 D
301.50   3.20 D 300.95   2.10 D 300.40   1.55 D 298.75   1.00 D
293.80   1.00 D S
215.30   9.80 M 214.75  10.90 D 213.65  12.00 D 212.55  12.55 D 210.35  12.55 D
209.25  12.00 D 208.15  10.90 D 207.60   9.80 D 207.05   8.15 D
207.05   5.40 D 207.60   3.75 D 208.15   2.65 D 209.25   1.55 D
210.35   1.00 D 212.55   1.00 D 213.65   1.55 D 214.75   2.65 D
215.30   3.75 D S
222.35  12.55 M 221.25  12.00 D 220.15  10.90 D 219.60   9.80 D 219.05   8.15 D
219.05   5.40 D 219.60   3.75 D 220.15   2.65 D 221.25   1.55 D
222.35   1.00 D 224.55   1.00 D 225.65   1.55 D 226.75   2.65 D
227.30   3.75 D 227.85   5.40 D 227.85   8.15 D 227.30   9.80 D
226.75  10.90 D 225.65  12.00 D 224.55  12.55 D 222.35  12.55 D S
232.70  12.55 M 232.70   1.00 D S
232.70   1.00 M 239.30   1.00 D S
247.45  12.55 M 246.35  12.00 D 245.25  10.90 D 244.70   9.80 D 244.15   8.15 D
244.15   5.40 D 244.70   3.75 D 245.25   2.65 D 246.35   1.55 D
247.45   1.00 D 249.65   1.00 D 250.75   1.55 D 251.85   2.65 D
252.40   3.75 D 252.95   5.40 D 252.95   8.15 D 252.40   9.80 D
251.85  10.90 D 250.75  12.00 D 249.65  12.55 D 247.45  12.55 D S
257.80  12.55 M 257.80   1.00 D S
257.80  12.55 M 262.75  12.55 D 264.40  12.00 D 264.95  11.45 D 265.50  10.35 D
265.50   9.25 D 264.95   8.15 D 264.40   7.60 D 262.75   7.05 D
257.80   7.05 D S
261.65   7.05 M 265.50   1.00 D S
270.90  12.55 M 270.90   1.00 D S
270.90   1.00 M 277.50   1.00 D S
285.65  12.55 M 281.25   1.00 D S
285.65  12.55 M 290.05   1.00 D S
282.90   4.85 M 288.40   4.85 D S
293.80  12.55 M 293.80   1.00 D S
293.80  12.55 M 298.75  12.55 D 300.40  12.00 D 300.95  11.45 D 301.50  10.35 D
301.50   9.25 D 300.95   8.15 D 300.40   7.60 D 298.75   7.05 D S
293.80   7.05 M 298.75   7.05 D 300.40   6.50 D 300.95   5.95 D 301.50   4.85 D
301.50   3.20 D 300.95   2.10 D 300.40   1.55 D 298.75   1.00 D
293.80   1.00 D S
203.85   5.95 M 213.75   5.95 D S
108.45   9.80 M 107.90  10.90 D 106.80  12.00 D 105.70  12.55 D 103.50  12.55 D
102.40  12.00 D 101.30  10.90 D 100.75   9.80 D 100.20   8.15 D
100.20   5.40 D 100.75   3.75 D 101.30   2.65 D 102.40   1.55 D
103.50   1.00 D 105.70   1.00 D 106.80   1.55 D 107.90   2.65 D
108.45   3.75 D S
115.50  12.55 M 114.40  12.00 D 113.30  10.90 D 112.75   9.80 D 112.20   8.15 D
112.20   5.40 D 112.75   3.75 D 113.30   2.65 D 114.40   1.55 D
115.50   1.00 D 117.70   1.00 D 118.80   1.55 D 119.90   2.65 D
120.45   3.75 D 121.00   5.40 D 121.00   8.15 D 120.45   9.80 D
119.90  10.90 D 118.80  12.00 D 117.70  12.55 D 115.50  12.55 D S
125.85  12.55 M 125.85   1.00 D S
125.85   1.00 M 132.45   1.00 D S
140.60  12.55 M 139.50  12.00 D 138.40  10.90 D 137.85   9.80 D 137.30   8.15 D
137.30   5.40 D 137.85   3.75 D 138.40   2.65 D 139.50   1.55 D
140.60   1.00 D 142.80   1.00 D 143.90   1.55 D 145.00   2.65 D
145.55   3.75 D 146.10   5.40 D 146.10   8.15 D 145.55   9.80 D
145.00  10.90 D 143.90  12.00 D 142.80  12.55 D 140.60  12.55 D S
150.95  12.55 M 150.95   1.00 D S
150.95  12.55 M 155.90  12.55 D 157.55  12.00 D 158.10  11.45 D 158.65  10.35 D
158.65   9.25 D 158.10   8.15 D 157.55   7.60 D 155.90   7.05 D
150.95   7.05 D S
154.80   7.05 M 158.65   1.00 D S
164.05  12.55 M 164.05   1.00 D S
164.05   1.00 M 170.65   1.00 D S
178.80  12.55 M 174.40   1.00 D S
178.80  12.55 M 183.20   1.00 D S
176.05   4.85 M 181.55   4.85 D S
186.95  12.55 M 186.95   1.00 D S
186.95  12.55 M 191.90  12.55 D 193.55  12.00 D 194.10  11.45 D 194.65  10.35 D
194.65   9.25 D 194.10   8.15 D 193.55   7.60 D 191.90   7.05 D S
186.95   7.05 M 191.90   7.05 D 193.55   6.50 D 194.10   5.95 D 194.65   4.85 D
194.65   3.20 D 194.10   2.10 D 193.55   1.55 D 191.90   1.00 D
186.95   1.00 D S
200.05   5.95 M 209.95   5.95 D S
215.35  12.55 M 215.35   1.00 D S
215.35  12.55 M 220.30  12.55 D 221.95  12.00 D 222.50  11.45 D 223.05  10.35 D
223.05   9.25 D 222.50   8.15 D 221.95   7.60 D 220.30   7.05 D S
215.35   7.05 M 220.30   7.05 D 221.95   6.50 D 222.50   5.95 D 223.05   4.85 D
223.05   3.20 D 222.50   2.10 D 221.95   1.55 D 220.30   1.00 D
215.35   1.00 D S
228.45  12.55 M 228.45   1.00 D S
236.60  12.55 M 235.50  12.00 D 234.40  10.90 D 233.85   9.80 D 233.30   8.15 D
233.30   5.40 D 233.85   3.75 D 234.40   2.65 D 235.50   1.55 D
236.60   1.00 D 238.80   1.00 D 239.90   1.55 D 241.00   2.65 D
241.55   3.75 D 242.10   5.40 D 242.10   8.15 D 241.55   9.80 D
241.00  10.90 D 239.90  12.00 D 238.80  12.55 D 236.60  12.55 D S
254.65   9.80 M 254.10  10.90 D 253.00  12.00 D 251.90  12.55 D 249.70  12.55 D
248.60  12.00 D 247.50  10.90 D 246.95   9.80 D 246.40   8.15 D
246.40   5.40 D 246.95   3.75 D 247.50   2.65 D 248.60   1.55 D
249.70   1.00 D 251.90   1.00 D 253.00   1.55 D 254.10   2.65 D
254.65   3.75 D S
261.70  12.55 M 260.60  12.00 D 259.50  10.90 D 258.95   9.80 D 258.40   8.15 D
258.40   5.40 D 258.95   3.75 D 259.50   2.65 D 260.60   1.55 D
261.70   1.00 D 263.90   1.00 D 265.00   1.55 D 266.10   2.65 D
266.65   3.75 D 267.20   5.40 D 267.20   8.15 D 266.65   9.80 D
266.10  10.90 D 265.00  12.00 D 263.90  12.55 D 261.70  12.55 D S
272.05  12.55 M 272.05   1.00 D S
272.05   1.00 M 278.65   1.00 D S
286.80  12.55 M 285.70  12.00 D 284.60  10.90 D 284.05   9.80 D 283.50   8.15 D
283.50   5.40 D 284.05   3.75 D 284.60   2.65 D 285.70   1.55 D
286.80   1.00 D 289.00   1.00 D 290.10   1.55 D 291.20   2.65 D
291.75   3.75 D 292.30   5.40 D 292.30   8.15 D 291.75   9.80 D
291.20  10.90 D 290.10  12.00 D 289.00  12.55 D 286.80  12.55 D S
297.15  12.55 M 297.15   1.00 D S
297.15  12.55 M 302.10  12.55 D 303.75  12.00 D 304.30  11.45 D 304.85  10.35 D
304.85   9.25 D 304.30   8.15 D 303.75   7.60 D 302.10   7.05 D
297.15   7.05 D S
301.00   7.05 M 304.85   1.00 D S
317.40  10.90 M 316.30  12.00 D 314.65  12.55 D 312.45  12.55 D 310.80  12.00 D
309.70  10.90 D 309.70   9.80 D 310.25   8.70 D 310.80   8.15 D
311.90   7.60 D 315.20   6.50 D 316.30   5.95 D 316.85   5.40 D
317.40   4.30 D 317.40   2.65 D 316.30   1.55 D 314.65   1.00 D
312.45   1.00 D 310.80   1.55 D 309.70   2.65 D S
 57.80   8.80 M  57.25   9.90 D  56.15  11.00 D  55.05  11.55 D  52.85  11.55 D
 51.75  11.00 D  50.65   9.90 D  50.10   8.80 D  49.55   7.15 D
 49.55   4.40 D  50.10   2.75 D  50.65   1.65 D  51.75   0.55 D
 52.85   0.00 D  55.05   0.00 D  56.15   0.55 D  57.25   1.65 D
 57.80   2.75 D S
 64.85  11.55 M  63.75  11.00 D  62.65   9.90 D  62.10   8.80 D  61.55   7.15 D
 61.55   4.40 D  62.10   2.75 D  62.65   1.65 D  63.75   0.55 D
 64.85   0.00 D  67.05   0.00 D  68.15   0.55 D  69.25   1.65 D
 69.80   2.75 D  70.35   4.40 D  70.35   7.15 D  69.80   8.80 D
 69.25   9.90 D  68.15  11.00 D  67.05  11.55 D  64.85  11.55 D S
 75.20  11.55 M  75.20   0.00 D S
 75.20   0.00 M  81.80   0.00 D S
 89.95  11.55 M  88.85  11.00 D  87.75   9.90 D  87.20   8.80 D  86.65   7.15 D
 86.65   4.40 D  87.20   2.75 D  87.75   1.65 D  88.85   0.55 D
 89.95   0.00 D  92.15   0.00 D  93.25   0.55 D  94.35   1.65 D
 94.90   2.75 D  95.45   4.40 D  95.45   7.15 D  94.90   8.80 D
 94.35   9.90 D  93.25  11.00 D  92.15  11.55 D  89.95  11.55 D S
100.30  11.55 M 100.30   0.00 D S
100.30  11.55 M 105.25  11.55 D 106.90  11.00 D 107.45  10.45 D 108.00   9.35 D
108.00   8.25 D 107.45   7.15 D 106.90   6.60 D 105.25   6.05 D
100.30   6.05 D S
104.15   6.05 M 108.00   0.00 D S
113.40  11.55 M 113.40   0.00 D S
113.40   0.00 M 120.00   0.00 D S
128.15  11.55 M 123.75   0.00 D S
128.15  11.55 M 132.55   0.00 D S
125.40   3.85 M 130.90   3.85 D S
136.30  11.55 M 136.30   0.00 D S
136.30  11.55 M 141.25  11.55 D 142.90  11.00 D 143.45  10.45 D 144.00   9.35 D
144.00   8.25 D 143.45   7.15 D 142.90   6.60 D 141.25   6.05 D S
136.30   6.05 M 141.25   6.05 D 142.90   5.50 D 143.45   4.95 D 144.00   3.85 D
144.00   2.20 D 143.45   1.10 D 142.90   0.55 D 141.25   0.00 D
136.30   0.00 D S
149.40   4.95 M 159.30   4.95 D S
164.70  11.55 M 164.70   0.00 D S
164.70  11.55 M 169.65  11.55 D 171.30  11.00 D 171.85  10.45 D 172.40   9.35 D
172.40   8.25 D 171.85   7.15 D 171.30   6.60 D 169.65   6.05 D S
164.70   6.05 M 169.65   6.05 D 171.30   5.50 D 171.85   4.95 D 172.40   3.85 D
172.40   2.20 D 171.85   1.10 D 171.30   0.55 D 169.65   0.00 D
164.70   0.00 D S
177.80  11.55 M 177.80   0.00 D S
185.95  11.55 M 184.85  11.00 D 183.75   9.90 D 183.20   8.80 D 182.65   7.15 D
182.65   4.40 D 183.20   2.75 D 183.75   1.65 D 184.85   0.55 D
185.95   0.00 D 188.15   0.00 D 189.25   0.55 D 190.35   1.65 D
190.90   2.75 D 191.45   4.40 D 191.45   7.15 D 190.90   8.80 D
190.35   9.90 D 189.25  11.00 D 188.15  11.55 D 185.95  11.55 D S
204.00   8.80 M 203.45   9.90 D 202.35  11.00 D 201.25  11.55 D 199.05  11.55 D
197.95  11.00 D 196.85   9.90 D 196.30   8.80 D 195.75   7.15 D
195.75   4.40 D 196.30   2.75 D 196.85   1.65 D 197.95   0.55 D
199.05   0.00 D 201.25   0.00 D 202.35   0.55 D 203.45   1.65 D
204.00   2.75 D S
211.05  11.55 M 209.95  11.00 D 208.85   9.90 D 208.30   8.80 D 207.75   7.15 D
207.75   4.40 D 208.30   2.75 D 208.85   1.65 D 209.95   0.55 D
211.05   0.00 D 213.25   0.00 D 214.35   0.55 D 215.45   1.65 D
216.00   2.75 D 216.55   4.40 D 216.55   7.15 D 216.00   8.80 D
215.45   9.90 D 214.35  11.00 D 213.25  11.55 D 211.05  11.55 D S
221.40  11.55 M 221.40   0.00 D S
221.40   0.00 M 228.00   0.00 D S
236.15  11.55 M 235.05  11.00 D 233.95   9.90 D 233.40   8.80 D 232.85   7.15 D
232.85   4.40 D 233.40   2.75 D 233.95   1.65 D 235.05   0.55 D
236.15   0.00 D 238.35   0.00 D 239.45   0.55 D 240.55   1.65 D
241.10   2.75 D 241.65   4.40 D 241.65   7.15 D 241.10   8.80 D
240.55   9.90 D 239.45  11.00 D 238.35  11.55 D 236.15  11.55 D S
246.50  11.55 M 246.50   0.00 D S
246.50  11.55 M 251.45  11.55 D 253.10  11.00 D 253.65  10.45 D 254.20   9.35 D
254.20   8.25 D 253.65   7.15 D 253.10   6.60 D 251.45   6.05 D
246.50   6.05 D S
250.35   6.05 M 254.20   0.00 D S
266.75   9.90 M 265.65  11.00 D 264.00  11.55 D 261.80  11.55 D 260.15  11.00 D
259.05   9.90 D 259.05   8.80 D 259.60   7.70 D 260.15   7.15 D
261.25   6.60 D 264.55   5.50 D 265.65   4.95 D 266.20   4.40 D
266.75   3.30 D 266.75   1.65 D 265.65   0.55 D 264.00   0.00 D
261.80   0.00 D 260.15   0.55 D 259.05   1.65 D S
279.30   8.80 M 278.75   9.90 D 277.65  11.00 D 276.55  11.55 D 274.35  11.55 D
273.25  11.00 D 272.15   9.90 D 271.60   8.80 D 271.05   7.15 D
271.05   4.40 D 271.60   2.75 D 272.15   1.65 D 273.25   0.55 D
274.35   0.00 D 276.55   0.00 D 277.65   0.55 D 278.75   1.65 D
279.30   2.75 D S
286.35  11.55 M 285.25  11.00 D 284.15   9.90 D 283.60   8.80 D 283.05   7.15 D
283.05   4.40 D 283.60   2.75 D 284.15   1.65 D 285.25   0.55 D
286.35   0.00 D 288.55   0.00 D 289.65   0.55 D 290.75   1.65 D
291.30   2.75 D 291.85   4.40 D 291.85   7.15 D 291.30   8.80 D
290.75   9.90 D 289.65  11.00 D 288.55  11.55 D 286.35  11.55 D S
296.70  11.55 M 296.70   0.00 D S
296.70   0.00 M 303.30   0.00 D S
311.45  11.55 M 310.35  11.00 D 309.25   9.90 D 308.70   8.80 D 308.15   7.15 D
308.15   4.40 D 308.70   2.75 D 309.25   1.65 D 310.35   0.55 D
311.45   0.00 D 313.65   0.00 D 314.75   0.55 D 315.85   1.65 D
316.40   2.75 D 316.95   4.40 D 316.95   7.15 D 316.40   8.80 D
315.85   9.90 D 314.75  11.00 D 313.65  11.55 D 311.45  11.55 D S
321.80  11.55 M 321.80   0.00 D S
321.80  11.55 M 326.75  11.55 D 328.40  11.00 D 328.95  10.45 D 329.50   9.35 D
329.50   8.25 D 328.95   7.15 D 328.40   6.60 D 326.75   6.05 D
321.80   6.05 D S
325.65   6.05 M 329.50   0.00 D S
334.90  11.55 M 334.90   0.00 D S
334.90   0.00 M 341.50   0.00 D S
349.65  11.55 M 345.25   0.00 D S
349.65  11.55 M 354.05   0.00 D S
346.90   3.85 M 352.40   3.85 D S
357.80  11.55 M 357.80   0.00 D S
357.80  11.55 M 362.75  11.55 D 364.40  11.00 D 364.95  10.45 D 365.50   9.35 D
365.50   8.25 D 364.95   7.15 D 364.40   6.60 D 362.75   6.05 D S
357.80   6.05 M 362.75   6.05 D 364.40   5.50 D 364.95   4.95 D 365.50   3.85 D
365.50   2.20 D 364.95   1.10 D 364.40   0.55 D 362.75   0.00 D
357.80   0.00 D S
 50.15   8.80 M  49.60   9.90 D  48.50  11.00 D  47.40  11.55 D  45.20  11.55 D
 44.10  11.00 D  43.00   9.90 D  42.45   8.80 D  41.90   7.15 D
 41.90   4.40 D  42.45   2.75 D  43.00   1.65 D  44.10   0.55 D
 45.20   0.00 D  47.40   0.00 D  48.50   0.55 D  49.60   1.65 D
 50.15   2.75 D S
 57.20  11.55 M  56.10  11.00 D  55.00   9.90 D  54.45   8.80 D  53.90   7.15 D
 53.90   4.40 D  54.45   2.75 D  55.00   1.65 D  56.10   0.55 D
 57.20   0.00 D  59.40   0.00 D  60.50   0.55 D  61.60   1.65 D
 62.15   2.75 D  62.70   4.40 D  62.70   7.15 D  62.15   8.80 D
 61.60   9.90 D  60.50  11.00 D  59.40  11.55 D  57.20  11.55 D S
 67.55  11.55 M  67.55   0.00 D S
 67.55   0.00 M  74.15   0.00 D S
 82.30  11.55 M  81.20  11.00 D  80.10   9.90 D  79.55   8.80 D  79.00   7.15 D
 79.00   4.40 D  79.55   2.75 D  80.10   1.65 D  81.20   0.55 D
 82.30   0.00 D  84.50   0.00 D  85.60   0.55 D  86.70   1.65 D
 87.25   2.75 D  87.80   4.40 D  87.80   7.15 D  87.25   8.80 D
 86.70   9.90 D  85.60  11.00 D  84.50  11.55 D  82.30  11.55 D S
 92.65  11.55 M  92.65   0.00 D S
 92.65  11.55 M  97.60  11.55 D  99.25  11.00 D  99.80  10.45 D 100.35   9.35 D
100.35   8.25 D  99.80   7.15 D  99.25   6.60 D  97.60   6.05 D
 92.65   6.05 D S
 96.50   6.05 M 100.35   0.00 D S
105.75  11.55 M 105.75   0.00 D S
105.75   0.00 M 112.35   0.00 D S
120.50  11.55 M 116.10   0.00 D S
120.50  11.55 M 124.90   0.00 D S
117.75   3.85 M 123.25   3.85 D S
128.65  11.55 M 128.65   0.00 D S
128.65  11.55 M 133.60  11.55 D 135.25  11.00 D 135.80  10.45 D 136.35   9.35 D
136.35   8.25 D 135.80   7.15 D 135.25   6.60 D 133.60   6.05 D S
128.65   6.05 M 133.60   6.05 D 135.25   5.50 D 135.80   4.95 D 136.35   3.85 D
136.35   2.20 D 135.80   1.10 D 135.25   0.55 D 133.60   0.00 D
128.65   0.00 D S
141.75   4.95 M 151.65   4.95 D S
157.05  11.55 M 157.05   0.00 D S
157.05  11.55 M 162.00  11.55 D 163.65  11.00 D 164.20  10.45 D 164.75   9.35 D
164.75   8.25 D 164.20   7.15 D 163.65   6.60 D 162.00   6.05 D S
157.05   6.05 M 162.00   6.05 D 163.65   5.50 D 164.20   4.95 D 164.75   3.85 D
164.75   2.20 D 164.20   1.10 D 163.65   0.55 D 162.00   0.00 D
157.05   0.00 D S
170.15  11.55 M 170.15   0.00 D S
178.30  11.55 M 177.20  11.00 D 176.10   9.90 D 175.55   8.80 D 175.00   7.15 D
175.00   4.40 D 175.55   2.75 D 176.10   1.65 D 177.20   0.55 D
178.30   0.00 D 180.50   0.00 D 181.60   0.55 D 182.70   1.65 D
183.25   2.75 D 183.80   4.40 D 183.80   7.15 D 183.25   8.80 D
182.70   9.90 D 181.60  11.00 D 180.50  11.55 D 178.30  11.55 D S
196.35   8.80 M 195.80   9.90 D 194.70  11.00 D 193.60  11.55 D 191.40  11.55 D
190.30  11.00 D 189.20   9.90 D 188.65   8.80 D 188.10   7.15 D
188.10   4.40 D 188.65   2.75 D 189.20   1.65 D 190.30   0.55 D
191.40   0.00 D 193.60   0.00 D 194.70   0.55 D 195.80   1.65 D
196.35   2.75 D S
203.40  11.55 M 202.30  11.00 D 201.20   9.90 D 200.65   8.80 D 200.10   7.15 D
200.10   4.40 D 200.65   2.75 D 201.20   1.65 D 202.30   0.55 D
203.40   0.00 D 205.60   0.00 D 206.70   0.55 D 207.80   1.65 D
208.35   2.75 D 208.90   4.40 D 208.90   7.15 D 208.35   8.80 D
207.80   9.90 D 206.70  11.00 D 205.60  11.55 D 203.40  11.55 D S
213.75  11.55 M 213.75   0.00 D S
213.75   0.00 M 220.35   0.00 D S
228.50  11.55 M 227.40  11.00 D 226.30   9.90 D 225.75   8.80 D 225.20   7.15 D
225.20   4.40 D 225.75   2.75 D 226.30   1.65 D 227.40   0.55 D
228.50   0.00 D 230.70   0.00 D 231.80   0.55 D 232.90   1.65 D
233.45   2.75 D 234.00   4.40 D 234.00   7.15 D 233.45   8.80 D
232.90   9.90 D 231.80  11.00 D 230.70  11.55 D 228.50  11.55 D S
238.85  11.55 M 238.85   0.00 D S
238.85  11.55 M 243.80  11.55 D 245.45  11.00 D 246.00  10.45 D 246.55   9.35 D
246.55   8.25 D 246.00   7.15 D 245.45   6.60 D 243.80   6.05 D
238.85   6.05 D S
242.70   6.05 M 246.55   0.00 D S
259.10   9.90 M 258.00  11.00 D 256.35  11.55 D 254.15  11.55 D 252.50  11.00 D
251.40   9.90 D 251.40   8.80 D 251.95   7.70 D 252.50   7.15 D
253.60   6.60 D 256.90   5.50 D 258.00   4.95 D 258.55   4.40 D
259.10   3.30 D 259.10   1.65 D 258.00   0.55 D 256.35   0.00 D
254.15   0.00 D 252.50   0.55 D 251.40   1.65 D S
271.65   8.80 M 271.10   9.90 D 270.00  11.00 D 268.90  11.55 D 266.70  11.55 D
265.60  11.00 D 264.50   9.90 D 263.95   8.80 D 263.40   7.15 D
263.40   4.40 D 263.95   2.75 D 264.50   1.65 D 265.60   0.55 D
266.70   0.00 D 268.90   0.00 D 270.00   0.55 D 271.10   1.65 D
271.65   2.75 D S
278.70  11.55 M 277.60  11.00 D 276.50   9.90 D 275.95   8.80 D 275.40   7.15 D
275.40   4.40 D 275.95   2.75 D 276.50   1.65 D 277.60   0.55 D
278.70   0.00 D 280.90   0.00 D 282.00   0.55 D 283.10   1.65 D
283.65   2.75 D 284.20   4.40 D 284.20   7.15 D 283.65   8.80 D
283.10   9.90 D 282.00  11.00 D 280.90  11.55 D 278.70  11.55 D S
289.05  11.55 M 289.05   0.00 D S
289.05   0.00 M 295.65   0.00 D S
303.80  11.55 M 302.70  11.00 D 301.60   9.90 D 301.05   8.80 D 300.50   7.15 D
300.50   4.40 D 301.05   2.75 D 301.60   1.65 D 302.70   0.55 D
303.80   0.00 D 306.00   0.00 D 307.10   0.55 D 308.20   1.65 D
308.75   2.75 D 309.30   4.40 D 309.30   7.15 D 308.75   8.80 D
308.20   9.90 D 307.10  11.00 D 306.00  11.55 D 303.80  11.55 D S
314.15  11.55 M 314.15   0.00 D S
314.15  11.55 M 319.10  11.55 D 320.75  11.00 D 321.30  10.45 D 321.85   9.35 D
321.85   8.25 D 321.30   7.15 D 320.75   6.60 D 319.10   6.05 D
314.15   6.05 D S
318.00   6.05 M 321.85   0.00 D S
327.25  11.55 M 327.25   0.00 D S
327.25   0.00 M 333.85   0.00 D S
342.00  11.55 M 337.60   0.00 D S
342.00  11.55 M 346.40   0.00 D S
339.25   3.85 M 344.75   3.85 D S
350.15  11.55 M 350.15   0.00 D S
350.15  11.55 M 355.10  11.55 D 356.75  11.00 D 357.30  10.45 D 357.85   9.35 D
357.85   8.25 D 357.30   7.15 D 356.75   6.60 D 355.10   6.05 D S
350.15   6.05 M 355.10   6.05 D 356.75   5.50 D 357.30   4.95 D 357.85   3.85 D
357.85   2.20 D 357.30   1.10 D 356.75   0.55 D 355.10   0.00 D
350.15   0.00 D S
363.25   4.95 M 373.15   4.95 D S
  9.25   8.80 M   8.70   9.90 D   7.60  11.00 D   6.50  11.55 D   4.30  11.55 D
  3.20  11.00 D   2.10   9.90 D   1.55   8.80 D   1.00   7.15 D
  1.00   4.40 D   1.55   2.75 D   2.10   1.65 D   3.20   0.55 D
  4.30   0.00 D   6.50   0.00 D   7.60   0.55 D   8.70   1.65 D
  9.25   2.75 D S
 16.30  11.55 M  15.20  11.00 D  14.10   9.90 D  13.55   8.80 D  13.00   7.15 D
 13.00   4.40 D  13.55   2.75 D  14.10   1.65 D  15.20   0.55 D
 16.30   0.00 D  18.50   0.00 D  19.60   0.55 D  20.70   1.65 D
 21.25   2.75 D  21.80   4.40 D  21.80   7.15 D  21.25   8.80 D
 20.70   9.90 D  19.60  11.00 D  18.50  11.55 D  16.30  11.55 D S
 26.65  11.55 M  26.65   0.00 D S
 26.65   0.00 M  33.25   0.00 D S
 41.40  11.55 M  40.30  11.00 D  39.20   9.90 D  38.65   8.80 D  38.10   7.15 D
 38.10   4.40 D  38.65   2.75 D  39.20   1.65 D  40.30   0.55 D
 41.40   0.00 D  43.60   0.00 D  44.70   0.55 D  45.80   1.65 D
 46.35   2.75 D  46.90   4.40 D  46.90   7.15 D  46.35   8.80 D
 45.80   9.90 D  44.70  11.00 D  43.60  11.55 D  41.40  11.55 D S
 51.75  11.55 M  51.75   0.00 D S
 51.75  11.55 M  56.70  11.55 D  58.35  11.00 D  58.90  10.45 D  59.45   9.35 D
 59.45   8.25 D  58.90   7.15 D  58.35   6.60 D  56.70   6.05 D
 51.75   6.05 D S
 55.60   6.05 M  59.45   0.00 D S
 64.85  11.55 M  64.85   0.00 D S
 64.85   0.00 M  71.45   0.00 D S
 79.60  11.55 M  75.20   0.00 D S
 79.60  11.55 M  84.00   0.00 D S
 76.85   3.85 M  82.35   3.85 D S
 87.75  11.55 M  87.75   0.00 D S
 87.75  11.55 M  92.70  11.55 D  94.35  11.00 D  94.90  10.45 D  95.45   9.35 D
 95.45   8.25 D  94.90   7.15 D  94.35   6.60 D  92.70   6.05 D S
 87.75   6.05 M  92.70   6.05 D  94.35   5.50 D  94.90   4.95 D  95.45   3.85 D
 95.45   2.20 D  94.90   1.10 D  94.35   0.55 D  92.70   0.00 D
 87.75   0.00 D S
100.85   4.95 M 110.75   4.95 D S
116.15  11.55 M 116.15   0.00 D S
116.15  11.55 M 121.10  11.55 D 122.75  11.00 D 123.30  10.45 D 123.85   9.35 D
123.85   8.25 D 123.30   7.15 D 122.75   6.60 D 121.10   6.05 D S
116.15   6.05 M 121.10   6.05 D 122.75   5.50 D 123.30   4.95 D 123.85   3.85 D
123.85   2.20 D 123.30   1.10 D 122.75   0.55 D 121.10   0.00 D
116.15   0.00 D S
129.25  11.55 M 129.25   0.00 D S
137.40  11.55 M 136.30  11.00 D 135.20   9.90 D 134.65   8.80 D 134.10   7.15 D
134.10   4.40 D 134.65   2.75 D 135.20   1.65 D 136.30   0.55 D
137.40   0.00 D 139.60   0.00 D 140.70   0.55 D 141.80   1.65 D
142.35   2.75 D 142.90   4.40 D 142.90   7.15 D 142.35   8.80 D
141.80   9.90 D 140.70  11.00 D 139.60  11.55 D 137.40  11.55 D S
155.45   8.80 M 154.90   9.90 D 153.80  11.00 D 152.70  11.55 D 150.50  11.55 D
149.40  11.00 D 148.30   9.90 D 147.75   8.80 D 147.20   7.15 D
147.20   4.40 D 147.75   2.75 D 148.30   1.65 D 149.40   0.55 D
150.50   0.00 D 152.70   0.00 D 153.80   0.55 D 154.90   1.65 D
155.45   2.75 D S
162.50  11.55 M 161.40  11.00 D 160.30   9.90 D 159.75   8.80 D 159.20   7.15 D
159.20   4.40 D 159.75   2.75 D 160.30   1.65 D 161.40   0.55 D
162.50   0.00 D 164.70   0.00 D 165.80   0.55 D 166.90   1.65 D
167.45   2.75 D 168.00   4.40 D 168.00   7.15 D 167.45   8.80 D
166.90   9.90 D 165.80  11.00 D 164.70  11.55 D 162.50  11.55 D S
172.85  11.55 M 172.85   0.00 D S
172.85   0.00 M 179.45   0.00 D S
187.60  11.55 M 186.50  11.00 D 185.40   9.90 D 184.85   8.80 D 184.30   7.15 D
184.30   4.40 D 184.85   2.75 D 185.40   1.65 D 186.50   0.55 D
187.60   0.00 D 189.80   0.00 D 190.90   0.55 D 192.00   1.65 D
192.55   2.75 D 193.10   4.40 D 193.10   7.15 D 192.55   8.80 D
192.00   9.90 D 190.90  11.00 D 189.80  11.55 D 187.60  11.55 D S
197.95  11.55 M 197.95   0.00 D S
197.95  11.55 M 202.90  11.55 D 204.55  11.00 D 205.10  10.45 D 205.65   9.35 D
205.65   8.25 D 205.10   7.15 D 204.55   6.60 D 202.90   6.05 D
197.95   6.05 D S
201.80   6.05 M 205.65   0.00 D S
218.20   9.90 M 217.10  11.00 D 215.45  11.55 D 213.25  11.55 D 211.60  11.00 D
210.50   9.90 D 210.50   8.80 D 211.05   7.70 D 211.60   7.15 D
212.70   6.60 D 216.00   5.50 D 217.10   4.95 D 217.65   4.40 D
218.20   3.30 D 218.20   1.65 D 217.10   0.55 D 215.45   0.00 D
213.25   0.00 D 211.60   0.55 D 210.50   1.65 D S
230.75   8.80 M 230.20   9.90 D 229.10  11.00 D 228.00  11.55 D 225.80  11.55 D
224.70  11.00 D 223.60   9.90 D 223.05   8.80 D 222.50   7.15 D
222.50   4.40 D 223.05   2.75 D 223.60   1.65 D 224.70   0.55 D
225.80   0.00 D 228.00   0.00 D 229.10   0.55 D 230.20   1.65 D
230.75   2.75 D S
237.80  11.55 M 236.70  11.00 D 235.60   9.90 D 235.05   8.80 D 234.50   7.15 D
234.50   4.40 D 235.05   2.75 D 235.60   1.65 D 236.70   0.55 D
237.80   0.00 D 240.00   0.00 D 241.10   0.55 D 242.20   1.65 D
242.75   2.75 D 243.30   4.40 D 243.30   7.15 D 242.75   8.80 D
242.20   9.90 D 241.10  11.00 D 240.00  11.55 D 237.80  11.55 D S
248.15  11.55 M 248.15   0.00 D S
248.15   0.00 M 254.75   0.00 D S
262.90  11.55 M 261.80  11.00 D 260.70   9.90 D 260.15   8.80 D 259.60   7.15 D
259.60   4.40 D 260.15   2.75 D 260.70   1.65 D 261.80   0.55 D
262.90   0.00 D 265.10   0.00 D 266.20   0.55 D 267.30   1.65 D
267.85   2.75 D 268.40   4.40 D 268.40   7.15 D 267.85   8.80 D
267.30   9.90 D 266.20  11.00 D 265.10  11.55 D 262.90  11.55 D S
273.25  11.55 M 273.25   0.00 D S
273.25  11.55 M 278.20  11.55 D 279.85  11.00 D 280.40  10.45 D 280.95   9.35 D
280.95   8.25 D 280.40   7.15 D 279.85   6.60 D 278.20   6.05 D
273.25   6.05 D S
277.10   6.05 M 280.95   0.00 D S
286.35  11.55 M 286.35   0.00 D S
286.35   0.00 M 292.95   0.00 D S
301.10  11.55 M 296.70   0.00 D S
301.10  11.55 M 305.50   0.00 D S
298.35   3.85 M 303.85   3.85 D S
309.25  11.55 M 309.25   0.00 D S
309.25  11.55 M 314.20  11.55 D 315.85  11.00 D 316.40  10.45 D 316.95   9.35 D
316.95   8.25 D 316.40   7.15 D 315.85   6.60 D 314.20   6.05 D S
309.25   6.05 M 314.20   6.05 D 315.85   5.50 D 316.40   4.95 D 316.95   3.85 D
316.95   2.20 D 316.40   1.10 D 315.85   0.55 D 314.20   0.00 D
309.25   0.00 D S
322.35   4.95 M 332.25   4.95 D S
337.65  11.55 M 337.65   0.00 D S
337.65  11.55 M 342.60  11.55 D 344.25  11.00 D 344.80  10.45 D 345.35   9.35 D
345.35   8.25 D 344.80   7.15 D 344.25   6.60 D 342.60   6.05 D S
337.65   6.05 M 342.60   6.05 D 344.25   5.50 D 344.80   4.95 D 345.35   3.85 D
345.35   2.20 D 344.80   1.10 D 344.25   0.55 D 342.60   0.00 D
337.65   0.00 D S
350.75  11.55 M 350.75   0.00 D S
358.90  11.55 M 357.80  11.00 D 356.70   9.90 D 356.15   8.80 D 355.60   7.15 D
355.60   4.40 D 356.15   2.75 D 356.70   1.65 D 357.80   0.55 D
358.90   0.00 D 361.10   0.00 D 362.20   0.55 D 363.30   1.65 D
363.85   2.75 D 364.40   4.40 D 364.40   7.15 D 363.85   8.80 D
363.30   9.90 D 362.20  11.00 D 361.10  11.55 D 358.90  11.55 D S
376.95   8.80 M 376.40   9.90 D 375.30  11.00 D 374.20  11.55 D 372.00  11.55 D
370.90  11.00 D 369.80   9.90 D 369.25   8.80 D 368.70   7.15 D
368.70   4.40 D 369.25   2.75 D 369.80   1.65 D 370.90   0.55 D
372.00   0.00 D 374.20   0.00 D 375.30   0.55 D 376.40   1.65 D
376.95   2.75 D S
384.00  11.55 M 382.90  11.00 D 381.80   9.90 D 381.25   8.80 D 380.70   7.15 D
380.70   4.40 D 381.25   2.75 D 381.80   1.65 D 382.90   0.55 D
384.00   0.00 D 386.20   0.00 D 387.30   0.55 D 388.40   1.65 D
388.95   2.75 D 389.50   4.40 D 389.50   7.15 D 388.95   8.80 D
388.40   9.90 D 387.30  11.00 D 386.20  11.55 D 384.00  11.55 D S
394.35  11.55 M 394.35   0.00 D S
394.35   0.00 M 400.95   0.00 D S
409.10  11.55 M 408.00  11.00 D 406.90   9.90 D 406.35   8.80 D 405.80   7.15 D
405.80   4.40 D 406.35   2.75 D 406.90   1.65 D 408.00   0.55 D
409.10   0.00 D 411.30   0.00 D 412.40   0.55 D 413.50   1.65 D
414.05   2.75 D 414.60   4.40 D 414.60   7.15 D 414.05   8.80 D
413.50   9.90 D 412.40  11.00 D 411.30  11.55 D 409.10  11.55 D S
  8.25   9.80 M   7.70  10.90 D   6.60  12.00 D   5.50  12.55 D   3.30  12.55 D
  2.20  12.00 D   1.10  10.90 D   0.55   9.80 D   0.00   8.15 D
  0.00   5.40 D   0.55   3.75 D   1.10   2.65 D   2.20   1.55 D
  3.30   1.00 D   5.50   1.00 D   6.60   1.55 D   7.70   2.65 D
  8.25   3.75 D S
 15.30  12.55 M  14.20  12.00 D  13.10  10.90 D  12.55   9.80 D  12.00   8.15 D
 12.00   5.40 D  12.55   3.75 D  13.10   2.65 D  14.20   1.55 D
 15.30   1.00 D  17.50   1.00 D  18.60   1.55 D  19.70   2.65 D
 20.25   3.75 D  20.80   5.40 D  20.80   8.15 D  20.25   9.80 D
 19.70  10.90 D  18.60  12.00 D  17.50  12.55 D  15.30  12.55 D S
 25.65  12.55 M  25.65   1.00 D S
 25.65   1.00 M  32.25   1.00 D S
 40.40  12.55 M  39.30  12.00 D  38.20  10.90 D  37.65   9.80 D  37.10   8.15 D
 37.10   5.40 D  37.65   3.75 D  38.20   2.65 D  39.30   1.55 D
 40.40   1.00 D  42.60   1.00 D  43.70   1.55 D  44.80   2.65 D
 45.35   3.75 D  45.90   5.40 D  45.90   8.15 D  45.35   9.80 D
 44.80  10.90 D  43.70  12.00 D  42.60  12.55 D  40.40  12.55 D S
 50.75  12.55 M  50.75   1.00 D S
 50.75  12.55 M  55.70  12.55 D  57.35  12.00 D  57.90  11.45 D  58.45  10.35 D
 58.45   9.25 D  57.90   8.15 D  57.35   7.60 D  55.70   7.05 D
 50.75   7.05 D S
 54.60   7.05 M  58.45   1.00 D S
 63.85  12.55 M  63.85   1.00 D S
 63.85   1.00 M  70.45   1.00 D S
 78.60  12.55 M  74.20   1.00 D S
 78.60  12.55 M  83.00   1.00 D S
 75.85   4.85 M  81.35   4.85 D S
 86.75  12.55 M  86.75   1.00 D S
 86.75  12.55 M  91.70  12.55 D  93.35  12.00 D  93.90  11.45 D  94.45  10.35 D
 94.45   9.25 D  93.90   8.15 D  93.35   7.60 D  91.70   7.05 D S
 86.75   7.05 M  91.70   7.05 D  93.35   6.50 D  93.90   5.95 D  94.45   4.85 D
 94.45   3.20 D  93.90   2.10 D  93.35   1.55 D  91.70   1.00 D
 86.75   1.00 D S
 99.85   5.95 M 109.75   5.95 D S
115.15  12.55 M 115.15   1.00 D S
115.15  12.55 M 120.10  12.55 D 121.75  12.00 D 122.30  11.45 D 122.85  10.35 D
122.85   9.25 D 122.30   8.15 D 121.75   7.60 D 120.10   7.05 D S
115.15   7.05 M 120.10   7.05 D 121.75   6.50 D 122.30   5.95 D 122.85   4.85 D
122.85   3.20 D 122.30   2.10 D 121.75   1.55 D 120.10   1.00 D
115.15   1.00 D S
128.25  12.55 M 128.25   1.00 D S
136.40  12.55 M 135.30  12.00 D 134.20  10.90 D 133.65   9.80 D 133.10   8.15 D
133.10   5.40 D 133.65   3.75 D 134.20   2.65 D 135.30   1.55 D
136.40   1.00 D 138.60   1.00 D 139.70   1.55 D 140.80   2.65 D
141.35   3.75 D 141.90   5.40 D 141.90   8.15 D 141.35   9.80 D
140.80  10.90 D 139.70  12.00 D 138.60  12.55 D 136.40  12.55 D S
154.45   9.80 M 153.90  10.90 D 152.80  12.00 D 151.70  12.55 D 149.50  12.55 D
148.40  12.00 D 147.30  10.90 D 146.75   9.80 D 146.20   8.15 D
146.20   5.40 D 146.75   3.75 D 147.30   2.65 D 148.40   1.55 D
149.50   1.00 D 151.70   1.00 D 152.80   1.55 D 153.90   2.65 D
154.45   3.75 D S
161.50  12.55 M 160.40  12.00 D 159.30  10.90 D 158.75   9.80 D 158.20   8.15 D
158.20   5.40 D 158.75   3.75 D 159.30   2.65 D 160.40   1.55 D
161.50   1.00 D 163.70   1.00 D 164.80   1.55 D 165.90   2.65 D
166.45   3.75 D 167.00   5.40 D 167.00   8.15 D 166.45   9.80 D
165.90  10.90 D 164.80  12.00 D 163.70  12.55 D 161.50  12.55 D S
171.85  12.55 M 171.85   1.00 D S
171.85   1.00 M 178.45   1.00 D S
186.60  12.55 M 185.50  12.00 D 184.40  10.90 D 183.85   9.80 D 183.30   8.15 D
183.30   5.40 D 183.85   3.75 D 184.40   2.65 D 185.50   1.55 D
186.60   1.00 D 188.80   1.00 D 189.90   1.55 D 191.00   2.65 D
191.55   3.75 D 192.10   5.40 D 192.10   8.15 D 191.55   9.80 D
191.00  10.90 D 189.90  12.00 D 188.80  12.55 D 186.60  12.55 D S
196.95  12.55 M 196.95   1.00 D S
196.95  12.55 M 201.90  12.55 D 203.55  12.00 D 204.10  11.45 D 204.65  10.35 D
204.65   9.25 D 204.10   8.15 D 203.55   7.60 D 201.90   7.05 D
196.95   7.05 D S
200.80   7.05 M 204.65   1.00 D S
217.20  10.90 M 216.10  12.00 D 214.45  12.55 D 212.25  12.55 D 210.60  12.00 D
209.50  10.90 D 209.50   9.80 D 210.05   8.70 D 210.60   8.15 D
211.70   7.60 D 215.00   6.50 D 216.10   5.95 D 216.65   5.40 D
217.20   4.30 D 217.20   2.65 D 216.10   1.55 D 214.45   1.00 D
212.25   1.00 D 210.60   1.55 D 209.50   2.65 D S
229.75   9.80 M 229.20  10.90 D 228.10  12.00 D 227.00  12.55 D 224.80  12.55 D
223.70  12.00 D 222.60  10.90 D 222.05   9.80 D 221.50   8.15 D
221.50   5.40 D 222.05   3.75 D 222.60   2.65 D 223.70   1.55 D
224.80   1.00 D 227.00   1.00 D 228.10   1.55 D 229.20   2.65 D
229.75   3.75 D S
236.80  12.55 M 235.70  12.00 D 234.60  10.90 D 234.05   9.80 D 233.50   8.15 D
233.50   5.40 D 234.05   3.75 D 234.60   2.65 D 235.70   1.55 D
236.80   1.00 D 239.00   1.00 D 240.10   1.55 D 241.20   2.65 D
241.75   3.75 D 242.30   5.40 D 242.30   8.15 D 241.75   9.80 D
241.20  10.90 D 240.10  12.00 D 239.00  12.55 D 236.80  12.55 D S
247.15  12.55 M 247.15   1.00 D S
247.15   1.00 M 253.75   1.00 D S
261.90  12.55 M 260.80  12.00 D 259.70  10.90 D 259.15   9.80 D 258.60   8.15 D
258.60   5.40 D 259.15   3.75 D 259.70   2.65 D 260.80   1.55 D
261.90   1.00 D 264.10   1.00 D 265.20   1.55 D 266.30   2.65 D
266.85   3.75 D 267.40   5.40 D 267.40   8.15 D 266.85   9.80 D
266.30  10.90 D 265.20  12.00 D 264.10  12.55 D 261.90  12.55 D S
272.25  12.55 M 272.25   1.00 D S
272.25  12.55 M 277.20  12.55 D 278.85  12.00 D 279.40  11.45 D 279.95  10.35 D
279.95   9.25 D 279.40   8.15 D 278.85   7.60 D 277.20   7.05 D
272.25   7.05 D S
276.10   7.05 M 279.95   1.00 D S
285.35  12.55 M 285.35   1.00 D S
285.35   1.00 M 291.95   1.00 D S
300.10  12.55 M 295.70   1.00 D S
300.10  12.55 M 304.50   1.00 D S
297.35   4.85 M 302.85   4.85 D S
308.25  12.55 M 308.25   1.00 D S
308.25  12.55 M 313.20  12.55 D 314.85  12.00 D 315.40  11.45 D 315.95  10.35 D
315.95   9.25 D 315.40   8.15 D 314.85   7.60 D 313.20   7.05 D S
308.25   7.05 M 313.20   7.05 D 314.85   6.50 D 315.40   5.95 D 315.95   4.85 D
315.95   3.20 D 315.40   2.10 D 314.85   1.55 D 313.20   1.00 D
308.25   1.00 D S
321.35   5.95 M 331.25   5.95 D S
336.65  12.55 M 336.65   1.00 D S
336.65  12.55 M 341.60  12.55 D 343.25  12.00 D 343.80  11.45 D 344.35  10.35 D
344.35   9.25 D 343.80   8.15 D 343.25   7.60 D 341.60   7.05 D S
336.65   7.05 M 341.60   7.05 D 343.25   6.50 D 343.80   5.95 D 344.35   4.85 D
344.35   3.20 D 343.80   2.10 D 343.25   1.55 D 341.60   1.00 D
336.65   1.00 D S
349.75  12.55 M 349.75   1.00 D S
357.90  12.55 M 356.80  12.00 D 355.70  10.90 D 355.15   9.80 D 354.60   8.15 D
354.60   5.40 D 355.15   3.75 D 355.70   2.65 D 356.80   1.55 D
357.90   1.00 D 360.10   1.00 D 361.20   1.55 D 362.30   2.65 D
362.85   3.75 D 363.40   5.40 D 363.40   8.15 D 362.85   9.80 D
362.30  10.90 D 361.20  12.00 D 360.10  12.55 D 357.90  12.55 D S
375.95   9.80 M 375.40  10.90 D 374.30  12.00 D 373.20  12.55 D 371.00  12.55 D
369.90  12.00 D 368.80  10.90 D 368.25   9.80 D 367.70   8.15 D
367.70   5.40 D 368.25   3.75 D 368.80   2.65 D 369.90   1.55 D
371.00   1.00 D 373.20   1.00 D 374.30   1.55 D 375.40   2.65 D
375.95   3.75 D S
383.00  12.55 M 381.90  12.00 D 380.80  10.90 D 380.25   9.80 D 379.70   8.15 D
379.70   5.40 D 380.25   3.75 D 380.80   2.65 D 381.90   1.55 D
383.00   1.00 D 385.20   1.00 D 386.30   1.55 D 387.40   2.65 D
387.95   3.75 D 388.50   5.40 D 388.50   8.15 D 387.95   9.80 D
387.40  10.90 D 386.30  12.00 D 385.20  12.55 D 383.00  12.55 D S
393.35  12.55 M 393.35   1.00 D S
393.35   1.00 M 399.95   1.00 D S
408.10  12.55 M 407.00  12.00 D 405.90  10.90 D 405.35   9.80 D 404.80   8.15 D
404.80   5.40 D 405.35   3.75 D 405.90   2.65 D 407.00   1.55 D
408.10   1.00 D 410.30   1.00 D 411.40   1.55 D 412.50   2.65 D
413.05   3.75 D 413.60   5.40 D 413.60   8.15 D 413.05   9.80 D
412.50  10.90 D 411.40  12.00 D 410.30  12.55 D 408.10  12.55 D S
  8.25   9.80 M   7.70  10.90 D   6.60  12.00 D   5.50  12.55 D   3.30  12.55 D
  2.20  12.00 D   1.10  10.90 D   0.55   9.80 D   0.00   8.15 D
  0.00   5.40 D   0.55   3.75 D   1.10   2.65 D   2.20   1.55 D
  3.30   1.00 D   5.50   1.00 D   6.60   1.55 D   7.70   2.65 D
  8.25   3.75 D S
 15.30  12.55 M  14.20  12.00 D  13.10  10.90 D  12.55   9.80 D  12.00   8.15 D
 12.00   5.40 D  12.55   3.75 D  13.10   2.65 D  14.20   1.55 D
 15.30   1.00 D  17.50   1.00 D  18.60   1.55 D  19.70   2.65 D
 20.25   3.75 D  20.80   5.40 D  20.80   8.15 D  20.25   9.80 D
 19.70  10.90 D  18.60  12.00 D  17.50  12.55 D  15.30  12.55 D S
 25.65  12.55 M  25.65   1.00 D S
 25.65   1.00 M  32.25   1.00 D S
 40.40  12.55 M  39.30  12.00 D  38.20  10.90 D  37.65   9.80 D  37.10   8.15 D
 37.10   5.40 D  37.65   3.75 D  38.20   2.65 D  39.30   1.55 D
 40.40   1.00 D  42.60   1.00 D  43.70   1.55 D  44.80   2.65 D
 45.35   3.75 D  45.90   5.40 D  45.90   8.15 D  45.35   9.80 D
 44.80  10.90 D  43.70  12.00 D  42.60  12.55 D  40.40  12.55 D S
 50.75  12.55 M  50.75   1.00 D S
 50.75  12.55 M  55.70  12.55 D  57.35  12.00 D  57.90  11.45 D  58.45  10.35 D
 58.45   9.25 D  57.90   8.15 D  57.35   7.60 D  55.70   7.05 D
 50.75   7.05 D S
 54.60   7.05 M  58.45   1.00 D S
 63.85  12.55 M  63.85   1.00 D S
 63.85   1.00 M  70.45   1.00 D S
 78.60  12.55 M  74.20   1.00 D S
 78.60  12.55 M  83.00   1.00 D S
 75.85   4.85 M  81.35   4.85 D S
 86.75  12.55 M  86.75   1.00 D S
 86.75  12.55 M  91.70  12.55 D  93.35  12.00 D  93.90  11.45 D  94.45  10.35 D
 94.45   9.25 D  93.90   8.15 D  93.35   7.60 D  91.70   7.05 D S
 86.75   7.05 M  91.70   7.05 D  93.35   6.50 D  93.90   5.95 D  94.45   4.85 D
 94.45   3.20 D  93.90   2.10 D  93.35   1.55 D  91.70   1.00 D
 86.75   1.00 D S
 99.85   5.95 M 109.75   5.95 D S
115.15  12.55 M 115.15   1.00 D S
115.15  12.55 M 120.10  12.55 D 121.75  12.00 D 122.30  11.45 D 122.85  10.35 D
122.85   9.25 D 122.30   8.15 D 121.75   7.60 D 120.10   7.05 D S
115.15   7.05 M 120.10   7.05 D 121.75   6.50 D 122.30   5.95 D 122.85   4.85 D
122.85   3.20 D 122.30   2.10 D 121.75   1.55 D 120.10   1.00 D
115.15   1.00 D S
128.25  12.55 M 128.25   1.00 D S
136.40  12.55 M 135.30  12.00 D 134.20  10.90 D 133.65   9.80 D 133.10   8.15 D
133.10   5.40 D 133.65   3.75 D 134.20   2.65 D 135.30   1.55 D
136.40   1.00 D 138.60   1.00 D 139.70   1.55 D 140.80   2.65 D
141.35   3.75 D 141.90   5.40 D 141.90   8.15 D 141.35   9.80 D
140.80  10.90 D 139.70  12.00 D 138.60  12.55 D 136.40  12.55 D S
154.45   9.80 M 153.90  10.90 D 152.80  12.00 D 151.70  12.55 D 149.50  12.55 D
148.40  12.00 D 147.30  10.90 D 146.75   9.80 D 146.20   8.15 D
146.20   5.40 D 146.75   3.75 D 147.30   2.65 D 148.40   1.55 D
149.50   1.00 D 151.70   1.00 D 152.80   1.55 D 153.90   2.65 D
154.45   3.75 D S
161.50  12.55 M 160.40  12.00 D 159.30  10.90 D 158.75   9.80 D 158.20   8.15 D
158.20   5.40 D 158.75   3.75 D 159.30   2.65 D 160.40   1.55 D
161.50   1.00 D 163.70   1.00 D 164.80   1.55 D 165.90   2.65 D
166.45   3.75 D 167.00   5.40 D 167.00   8.15 D 166.45   9.80 D
165.90  10.90 D 164.80  12.00 D 163.70  12.55 D 161.50  12.55 D S
171.85  12.55 M 171.85   1.00 D S
171.85   1.00 M 178.45   1.00 D S
186.60  12.55 M 185.50  12.00 D 184.40  10.90 D 183.85   9.80 D 183.30   8.15 D
183.30   5.40 D 183.85   3.75 D 184.40   2.65 D 185.50   1.55 D
186.60   1.00 D 188.80   1.00 D 189.90   1.55 D 191.00   2.65 D
191.55   3.75 D 192.10   5.40 D 192.10   8.15 D 191.55   9.80 D
191.00  10.90 D 189.90  12.00 D 188.80  12.55 D 186.60  12.55 D S
196.95  12.55 M 196.95   1.00 D S
196.95  12.55 M 201.90  12.55 D 203.55  12.00 D 204.10  11.45 D 204.65  10.35 D
204.65   9.25 D 204.10   8.15 D 203.55   7.60 D 201.90   7.05 D
196.95   7.05 D S
200.80   7.05 M 204.65   1.00 D S
217.20  10.90 M 216.10  12.00 D 214.45  12.55 D 212.25  12.55 D 210.60  12.00 D
209.50  10.90 D 209.50   9.80 D 210.05   8.70 D 210.60   8.15 D
211.70   7.60 D 215.00   6.50 D 216.10   5.95 D 216.65   5.40 D
217.20   4.30 D 217.20   2.65 D 216.10   1.55 D 214.45   1.00 D
212.25   1.00 D 210.60   1.55 D 209.50   2.65 D S
229.75   9.80 M 229.20  10.90 D 228.10  12.00 D 227.00  12.55 D 224.80  12.55 D
223.70  12.00 D 222.60  10.90 D 222.05   9.80 D 221.50   8.15 D
221.50   5.40 D 222.05   3.75 D 222.60   2.65 D 223.70   1.55 D
224.80   1.00 D 227.00   1.00 D 228.10   1.55 D 229.20   2.65 D
229.75   3.75 D S
236.80  12.55 M 235.70  12.00 D 234.60  10.90 D 234.05   9.80 D 233.50   8.15 D
233.50   5.40 D 234.05   3.75 D 234.60   2.65 D 235.70   1.55 D
236.80   1.00 D 239.00   1.00 D 240.10   1.55 D 241.20   2.65 D
241.75   3.75 D 242.30   5.40 D 242.30   8.15 D 241.75   9.80 D
241.20  10.90 D 240.10  12.00 D 239.00  12.55 D 236.80  12.55 D S
247.15  12.55 M 247.15   1.00 D S
247.15   1.00 M 253.75   1.00 D S
261.90  12.55 M 260.80  12.00 D 259.70  10.90 D 259.15   9.80 D 258.60   8.15 D
258.60   5.40 D 259.15   3.75 D 259.70   2.65 D 260.80   1.55 D
261.90   1.00 D 264.10   1.00 D 265.20   1.55 D 266.30   2.65 D
266.85   3.75 D 267.40   5.40 D 267.40   8.15 D 266.85   9.80 D
266.30  10.90 D 265.20  12.00 D 264.10  12.55 D 261.90  12.55 D S
272.25  12.55 M 272.25   1.00 D S
272.25  12.55 M 277.20  12.55 D 278.85  12.00 D 279.40  11.45 D 279.95  10.35 D
279.95   9.25 D 279.40   8.15 D 278.85   7.60 D 277.20   7.05 D
272.25   7.05 D S
276.10   7.05 M 279.95   1.00 D S
285.35  12.55 M 285.35   1.00 D S
285.35   1.00 M 291.95   1.00 D S
300.10  12.55 M 295.70   1.00 D S
300.10  12.55 M 304.50   1.00 D S
297.35   4.85 M 302.85   4.85 D S
308.25  12.55 M 308.25   1.00 D S
308.25  12.55 M 313.20  12.55 D 314.85  12.00 D 315.40  11.45 D 315.95  10.35 D
315.95   9.25 D 315.40   8.15 D 314.85   7.60 D 313.20   7.05 D S
308.25   7.05 M 313.20   7.05 D 314.85   6.50 D 315.40   5.95 D 315.95   4.85 D
315.95   3.20 D 315.40   2.10 D 314.85   1.55 D 313.20   1.00 D
308.25   1.00 D S
321.35   5.95 M 331.25   5.95 D S
336.65  12.55 M 336.65   1.00 D S
336.65  12.55 M 341.60  12.55 D 343.25  12.00 D 343.80  11.45 D 344.35  10.35 D
344.35   9.25 D 343.80   8.15 D 343.25   7.60 D 341.60   7.05 D S
336.65   7.05 M 341.60   7.05 D 343.25   6.50 D 343.80   5.95 D 344.35   4.85 D
344.35   3.20 D 343.80   2.10 D 343.25   1.55 D 341.60   1.00 D
336.65   1.00 D S
349.75  12.55 M 349.75   1.00 D S
357.90  12.55 M 356.80  12.00 D 355.70  10.90 D 355.15   9.80 D 354.60   8.15 D
354.60   5.40 D 355.15   3.75 D 355.70   2.65 D 356.80   1.55 D
357.90   1.00 D 360.10   1.00 D 361.20   1.55 D 362.30   2.65 D
362.85   3.75 D 363.40   5.40 D 363.40   8.15 D 362.85   9.80 D
362.30  10.90 D 361.20  12.00 D 360.10  12.55 D 357.90  12.55 D S
375.95   9.80 M 375.40  10.90 D 374.30  12.00 D 373.20  12.55 D 371.00  12.55 D
369.90  12.00 D 368.80  10.90 D 368.25   9.80 D 367.70   8.15 D
367.70   5.40 D 368.25   3.75 D 368.80   2.65 D 369.90   1.55 D
371.00   1.00 D 373.20   1.00 D 374.30   1.55 D 375.40   2.65 D
375.95   3.75 D S
383.00  12.55 M 381.90  12.00 D 380.80  10.90 D 380.25   9.80 D 379.70   8.15 D
379.70   5.40 D 380.25   3.75 D 380.80   2.65 D 381.90   1.55 D
383.00   1.00 D 385.20   1.00 D 386.30   1.55 D 387.40   2.65 D
387.95   3.75 D 388.50   5.40 D 388.50   8.15 D 387.95   9.80 D
387.40  10.90 D 386.30  12.00 D 385.20  12.55 D 383.00  12.55 D S
393.35  12.55 M 393.35   1.00 D S
393.35   1.00 M 399.95   1.00 D S
408.10  12.55 M 407.00  12.00 D 405.90  10.90 D 405.35   9.80 D 404.80   8.15 D
404.80   5.40 D 405.35   3.75 D 405.90   2.65 D 407.00   1.55 D
408.10   1.00 D 410.30   1.00 D 411.40   1.55 D 412.50   2.65 D
413.05   3.75 D 413.60   5.40 D 413.60   8.15 D 413.05   9.80 D
412.50  10.90 D 411.40  12.00 D 410.30  12.55 D 408.10  12.55 D S
  8.25   9.80 M   7.70  10.90 D   6.60  12.00 D   5.50  12.55 D   3.30  12.55 D
  2.20  12.00 D   1.10  10.90 D   0.55   9.80 D   0.00   8.15 D
  0.00   5.40 D   0.55   3.75 D   1.10   2.65 D   2.20   1.55 D
  3.30   1.00 D   5.50   1.00 D   6.60   1.55 D   7.70   2.65 D
  8.25   3.75 D S
 15.30  12.55 M  14.20  12.00 D  13.10  10.90 D  12.55   9.80 D  12.00   8.15 D
 12.00   5.40 D  12.55   3.75 D  13.10   2.65 D  14.20   1.55 D
 15.30   1.00 D  17.50   1.00 D  18.60   1.55 D  19.70   2.65 D
 20.25   3.75 D  20.80   5.40 D  20.80   8.15 D  20.25   9.80 D
 19.70  10.90 D  18.60  12.00 D  17.50  12.55 D  15.30  12.55 D S
 25.65  12.55 M  25.65   1.00 D S
 25.65   1.00 M  32.25   1.00 D S
 40.40  12.55 M  39.30  12.00 D  38.20  10.90 D  37.65   9.80 D  37.10   8.15 D
 37.10   5.40 D  37.65   3.75 D  38.20   2.65 D  39.30   1.55 D
 40.40   1.00 D  42.60   1.00 D  43.70   1.55 D  44.80   2.65 D
 45.35   3.75 D  45.90   5.40 D  45.90   8.15 D  45.35   9.80 D
 44.80  10.90 D  43.70  12.00 D  42.60  12.55 D  40.40  12.55 D S
 50.75  12.55 M  50.75   1.00 D S
 50.75  12.55 M  55.70  12.55 D  57.35  12.00 D  57.90  11.45 D  58.45  10.35 D
 58.45   9.25 D  57.90   8.15 D  57.35   7.60 D  55.70   7.05 D
 50.75   7.05 D S
 54.60   7.05 M  58.45   1.00 D S
 63.85  12.55 M  63.85   1.00 D S
 63.85   1.00 M  70.45   1.00 D S
 78.60  12.55 M  74.20   1.00 D S
 78.60  12.55 M  83.00   1.00 D S
 75.85   4.85 M  81.35   4.85 D S
 86.75  12.55 M  86.75   1.00 D S
 86.75  12.55 M  91.70  12.55 D  93.35  12.00 D  93.90  11.45 D  94.45  10.35 D
 94.45   9.25 D  93.90   8.15 D  93.35   7.60 D  91.70   7.05 D S
 86.75   7.05 M  91.70   7.05 D  93.35   6.50 D  93.90   5.95 D  94.45   4.85 D
 94.45   3.20 D  93.90   2.10 D  93.35   1.55 D  91.70   1.00 D
 86.75   1.00 D S
 99.85   5.95 M 109.75   5.95 D S
115.15  12.55 M 115.15   1.00 D S
115.15  12.55 M 120.10  12.55 D 121.75  12.00 D 122.30  11.45 D 122.85  10.35 D
122.85   9.25 D 122.30   8.15 D 121.75   7.60 D 120.10   7.05 D S
115.15   7.05 M 120.10   7.05 D 121.75   6.50 D 122.30   5.95 D 122.85   4.85 D
122.85   3.20 D 122.30   2.10 D 121.75   1.55 D 120.10   1.00 D
115.15   1.00 D S
128.25  12.55 M 128.25   1.00 D S
136.40  12.55 M 135.30  12.00 D 134.20  10.90 D 133.65   9.80 D 133.10   8.15 D
133.10   5.40 D 133.65   3.75 D 134.20   2.65 D 135.30   1.55 D
136.40   1.00 D 138.60   1.00 D 139.70   1.55 D 140.80   2.65 D
141.35   3.75 D 141.90   5.40 D 141.90   8.15 D 141.35   9.80 D
140.80  10.90 D 139.70  12.00 D 138.60  12.55 D 136.40  12.55 D S
154.45   9.80 M 153.90  10.90 D 152.80  12.00 D 151.70  12.55 D 149.50  12.55 D
148.40  12.00 D 147.30  10.90 D 146.75   9.80 D 146.20   8.15 D
146.20   5.40 D 146.75   3.75 D 147.30   2.65 D 148.40   1.55 D
149.50   1.00 D 151.70   1.00 D 152.80   1.55 D 153.90   2.65 D
154.45   3.75 D S
161.50  12.55 M 160.40  12.00 D 159.30  10.90 D 158.75   9.80 D 158.20   8.15 D
158.20   5.40 D 158.75   3.75 D 159.30   2.65 D 160.40   1.55 D
161.50   1.00 D 163.70   1.00 D 164.80   1.55 D 165.90   2.65 D
166.45   3.75 D 167.00   5.40 D 167.00   8.15 D 166.45   9.80 D
165.90  10.90 D 164.80  12.00 D 163.70  12.55 D 161.50  12.55 D S
171.85  12.55 M 171.85   1.00 D S
171.85   1.00 M 178.45   1.00 D S
186.60  12.55 M 185.50  12.00 D 184.40  10.90 D 183.85   9.80 D 183.30   8.15 D
183.30   5.40 D 183.85   3.75 D 184.40   2.65 D 185.50   1.55 D
186.60   1.00 D 188.80   1.00 D 189.90   1.55 D 191.00   2.65 D
191.55   3.75 D 192.10   5.40 D 192.10   8.15 D 191.55   9.80 D
191.00  10.90 D 189.90  12.00 D 188.80  12.55 D 186.60  12.55 D S
196.95  12.55 M 196.95   1.00 D S
196.95  12.55 M 201.90  12.55 D 203.55  12.00 D 204.10  11.45 D 204.65  10.35 D
204.65   9.25 D 204.10   8.15 D 203.55   7.60 D 201.90   7.05 D
196.95   7.05 D S
200.80   7.05 M 204.65   1.00 D S
217.20  10.90 M 216.10  12.00 D 214.45  12.55 D 212.25  12.55 D 210.60  12.00 D
209.50  10.90 D 209.50   9.80 D 210.05   8.70 D 210.60   8.15 D
211.70   7.60 D 215.00   6.50 D 216.10   5.95 D 216.65   5.40 D
217.20   4.30 D 217.20   2.65 D 216.10   1.55 D 214.45   1.00 D
212.25   1.00 D 210.60   1.55 D 209.50   2.65 D S
229.75   9.80 M 229.20  10.90 D 228.10  12.00 D 227.00  12.55 D 224.80  12.55 D
223.70  12.00 D 222.60  10.90 D 222.05   9.80 D 221.50   8.15 D
221.50   5.40 D 222.05   3.75 D 222.60   2.65 D 223.70   1.55 D
224.80   1.00 D 227.00   1.00 D 228.10   1.55 D 229.20   2.65 D
229.75   3.75 D S
236.80  12.55 M 235.70  12.00 D 234.60  10.90 D 234.05   9.80 D 233.50   8.15 D
233.50   5.40 D 234.05   3.75 D 234.60   2.65 D 235.70   1.55 D
236.80   1.00 D 239.00   1.00 D 240.10   1.55 D 241.20   2.65 D
241.75   3.75 D 242.30   5.40 D 242.30   8.15 D 241.75   9.80 D
241.20  10.90 D 240.10  12.00 D 239.00  12.55 D 236.80  12.55 D S
247.15  12.55 M 247.15   1.00 D S
247.15   1.00 M 253.75   1.00 D S
261.90  12.55 M 260.80  12.00 D 259.70  10.90 D 259.15   9.80 D 258.60   8.15 D
258.60   5.40 D 259.15   3.75 D 259.70   2.65 D 260.80   1.55 D
261.90   1.00 D 264.10   1.00 D 265.20   1.55 D 266.30   2.65 D
266.85   3.75 D 267.40   5.40 D 267.40   8.15 D 266.85   9.80 D
266.30  10.90 D 265.20  12.00 D 264.10  12.55 D 261.90  12.55 D S
272.25  12.55 M 272.25   1.00 D S
272.25  12.55 M 277.20  12.55 D 278.85  12.00 D 279.40  11.45 D 279.95  10.35 D
279.95   9.25 D 279.40   8.15 D 278.85   7.60 D 277.20   7.05 D
272.25   7.05 D S
276.10   7.05 M 279.95   1.00 D S
285.35  12.55 M 285.35   1.00 D S
285.35   1.00 M 291.95   1.00 D S
300.10  12.55 M 295.70   1.00 D S
300.10  12.55 M 304.50   1.00 D S
297.35   4.85 M 302.85   4.85 D S
308.25  12.55 M 308.25   1.00 D S
308.25  12.55 M 313.20  12.55 D 314.85  12.00 D 315.40  11.45 D 315.95  10.35 D
315.95   9.25 D 315.40   8.15 D 314.85   7.60 D 313.20   7.05 D S
308.25   7.05 M 313.20   7.05 D 314.85   6.50 D 315.40   5.95 D 315.95   4.85 D
315.95   3.20 D 315.40   2.10 D 314.85   1.55 D 313.20   1.00 D
308.25   1.00 D S
321.35   5.95 M 331.25   5.95 D S
336.65  12.55 M 336.65   1.00 D S
336.65  12.55 M 341.60  12.55 D 343.25  12.00 D 343.80  11.45 D 344.35  10.35 D
344.35   9.25 D 343.80   8.15 D 343.25   7.60 D 341.60   7.05 D S
336.65   7.05 M 341.60   7.05 D 343.25   6.50 D 343.80   5.95 D 344.35   4.85 D
344.35   3.20 D 343.80   2.10 D 343.25   1.55 D 341.60   1.00 D
336.65   1.00 D S
349.75  12.55 M 349.75   1.00 D S
357.90  12.55 M 356.80  12.00 D 355.70  10.90 D 355.15   9.80 D 354.60   8.15 D
354.60   5.40 D 355.15   3.75 D 355.70   2.65 D 356.80   1.55 D
357.90   1.00 D 360.10   1.00 D 361.20   1.55 D 362.30   2.65 D
362.85   3.75 D 363.40   5.40 D 363.40   8.15 D 362.85   9.80 D
362.30  10.90 D 361.20  12.00 D 360.10  12.55 D 357.90  12.55 D S
375.95   9.80 M 375.40  10.90 D 374.30  12.00 D 373.20  12.55 D 371.00  12.55 D
369.90  12.00 D 368.80  10.90 D 368.25   9.80 D 367.70   8.15 D
367.70   5.40 D 368.25   3.75 D 368.80   2.65 D 369.90   1.55 D
371.00   1.00 D 373.20   1.00 D 374.30   1.55 D 375.40   2.65 D
375.95   3.75 D S
383.00  12.55 M 381.90  12.00 D 380.80  10.90 D 380.25   9.80 D 379.70   8.15 D
379.70   5.40 D 380.25   3.75 D 380.80   2.65 D 381.90   1.55 D
383.00   1.00 D 385.20   1.00 D 386.30   1.55 D 387.40   2.65 D
387.95   3.75 D 388.50   5.40 D 388.50   8.15 D 387.95   9.80 D
387.40  10.90 D 386.30  12.00 D 385.20  12.55 D 383.00  12.55 D S
393.35  12.55 M 393.35   1.00 D S
393.35   1.00 M 399.95   1.00 D S
408.10  12.55 M 407.00  12.00 D 405.90  10.90 D 405.35   9.80 D 404.80   8.15 D
404.80   5.40 D 405.35   3.75 D 405.90   2.65 D 407.00   1.55 D
408.10   1.00 D 410.30   1.00 D 411.40   1.55 D 412.50   2.65 D
413.05   3.75 D 413.60   5.40 D 413.60   8.15 D 413.05   9.80 D
412.50  10.90 D 411.40  12.00 D 410.30  12.55 D 408.10  12.55 D S
  9.25  10.80 M   8.70  11.90 D   7.60  13.00 D   6.50  13.55 D   4.30  13.55 D
  3.20  13.00 D   2.10  11.90 D   1.55  10.80 D   1.00   9.15 D
  1.00   6.40 D   1.55   4.75 D   2.10   3.65 D   3.20   2.55 D
  4.30   2.00 D   6.50   2.00 D   7.60   2.55 D   8.70   3.65 D
  9.25   4.75 D S
 16.30  13.55 M  15.20  13.00 D  14.10  11.90 D  13.55  10.80 D  13.00   9.15 D
 13.00   6.40 D  13.55   4.75 D  14.10   3.65 D  15.20   2.55 D
 16.30   2.00 D  18.50   2.00 D  19.60   2.55 D  20.70   3.65 D
 21.25   4.75 D  21.80   6.40 D  21.80   9.15 D  21.25  10.80 D
 20.70  11.90 D  19.60  13.00 D  18.50  13.55 D  16.30  13.55 D S
 26.65  13.55 M  26.65   2.00 D S
 26.65   2.00 M  33.25   2.00 D S
 41.40  13.55 M  40.30  13.00 D  39.20  11.90 D  38.65  10.80 D  38.10   9.15 D
 38.10   6.40 D  38.65   4.75 D  39.20   3.65 D  40.30   2.55 D
 41.40   2.00 D  43.60   2.00 D  44.70   2.55 D  45.80   3.65 D
 46.35   4.75 D  46.90   6.40 D  46.90   9.15 D  46.35  10.80 D
 45.80  11.90 D  44.70  13.00 D  43.60  13.55 D  41.40  13.55 D S
 51.75  13.55 M  51.75   2.00 D S
 51.75  13.55 M  56.70  13.55 D  58.35  13.00 D  58.90  12.45 D  59.45  11.35 D
 59.45  10.25 D  58.90   9.15 D  58.35   8.60 D  56.70   8.05 D
 51.75   8.05 D S
 55.60   8.05 M  59.45   2.00 D S
 64.85  13.55 M  64.85   2.00 D S
 64.85   2.00 M  71.45   2.00 D S
 79.60  13.55 M  75.20   2.00 D S
 79.60  13.55 M  84.00   2.00 D S
 76.85   5.85 M  82.35   5.85 D S
 87.75  13.55 M  87.75   2.00 D S
 87.75  13.55 M  92.70  13.55 D  94.35  13.00 D  94.90  12.45 D  95.45  11.35 D
 95.45  10.25 D  94.90   9.15 D  94.35   8.60 D  92.70   8.05 D S
 87.75   8.05 M  92.70   8.05 D  94.35   7.50 D  94.90   6.95 D  95.45   5.85 D
 95.45   4.20 D  94.90   3.10 D  94.35   2.55 D  92.70   2.00 D
 87.75   2.00 D S
100.85   6.95 M 110.75   6.95 D S
116.15  13.55 M 116.15   2.00 D S
116.15  13.55 M 121.10  13.55 D 122.75  13.00 D 123.30  12.45 D 123.85  11.35 D
123.85  10.25 D 123.30   9.15 D 122.75   8.60 D 121.10   8.05 D S
116.15   8.05 M 121.10   8.05 D 122.75   7.50 D 123.30   6.95 D 123.85   5.85 D
123.85   4.20 D 123.30   3.10 D 122.75   2.55 D 121.10   2.00 D
116.15   2.00 D S
129.25  13.55 M 129.25   2.00 D S
137.40  13.55 M 136.30  13.00 D 135.20  11.90 D 134.65  10.80 D 134.10   9.15 D
134.10   6.40 D 134.65   4.75 D 135.20   3.65 D 136.30   2.55 D
137.40   2.00 D 139.60   2.00 D 140.70   2.55 D 141.80   3.65 D
142.35   4.75 D 142.90   6.40 D 142.90   9.15 D 142.35  10.80 D
141.80  11.90 D 140.70  13.00 D 139.60  13.55 D 137.40  13.55 D S
155.45  10.80 M 154.90  11.90 D 153.80  13.00 D 152.70  13.55 D 150.50  13.55 D
149.40  13.00 D 148.30  11.90 D 147.75  10.80 D 147.20   9.15 D
147.20   6.40 D 147.75   4.75 D 148.30   3.65 D 149.40   2.55 D
150.50   2.00 D 152.70   2.00 D 153.80   2.55 D 154.90   3.65 D
155.45   4.75 D S
162.50  13.55 M 161.40  13.00 D 160.30  11.90 D 159.75  10.80 D 159.20   9.15 D
159.20   6.40 D 159.75   4.75 D 160.30   3.65 D 161.40   2.55 D
162.50   2.00 D 164.70   2.00 D 165.80   2.55 D 166.90   3.65 D
167.45   4.75 D 168.00   6.40 D 168.00   9.15 D 167.45  10.80 D
166.90  11.90 D 165.80  13.00 D 164.70  13.55 D 162.50  13.55 D S
172.85  13.55 M 172.85   2.00 D S
172.85   2.00 M 179.45   2.00 D S
187.60  13.55 M 186.50  13.00 D 185.40  11.90 D 184.85  10.80 D 184.30   9.15 D
184.30   6.40 D 184.85   4.75 D 185.40   3.65 D 186.50   2.55 D
187.60   2.00 D 189.80   2.00 D 190.90   2.55 D 192.00   3.65 D
192.55   4.75 D 193.10   6.40 D 193.10   9.15 D 192.55  10.80 D
192.00  11.90 D 190.90  13.00 D 189.80  13.55 D 187.60  13.55 D S
197.95  13.55 M 197.95   2.00 D S
197.95  13.55 M 202.90  13.55 D 204.55  13.00 D 205.10  12.45 D 205.65  11.35 D
205.65  10.25 D 205.10   9.15 D 204.55   8.60 D 202.90   8.05 D
197.95   8.05 D S
201.80   8.05 M 205.65   2.00 D S
218.20  11.90 M 217.10  13.00 D 215.45  13.55 D 213.25  13.55 D 211.60  13.00 D
210.50  11.90 D 210.50  10.80 D 211.05   9.70 D 211.60   9.15 D
212.70   8.60 D 216.00   7.50 D 217.10   6.95 D 217.65   6.40 D
218.20   5.30 D 218.20   3.65 D 217.10   2.55 D 215.45   2.00 D
213.25   2.00 D 211.60   2.55 D 210.50   3.65 D S
230.75  10.80 M 230.20  11.90 D 229.10  13.00 D 228.00  13.55 D 225.80  13.55 D
224.70  13.00 D 223.60  11.90 D 223.05  10.80 D 222.50   9.15 D
222.50   6.40 D 223.05   4.75 D 223.60   3.65 D 224.70   2.55 D
225.80   2.00 D 228.00   2.00 D 229.10   2.55 D 230.20   3.65 D
230.75   4.75 D S
237.80  13.55 M 236.70  13.00 D 235.60  11.90 D 235.05  10.80 D 234.50   9.15 D
234.50   6.40 D 235.05   4.75 D 235.60   3.65 D 236.70   2.55 D
237.80   2.00 D 240.00   2.00 D 241.10   2.55 D 242.20   3.65 D
242.75   4.75 D 243.30   6.40 D 243.30   9.15 D 242.75  10.80 D
242.20  11.90 D 241.10  13.00 D 240.00  13.55 D 237.80  13.55 D S
248.15  13.55 M 248.15   2.00 D S
248.15   2.00 M 254.75   2.00 D S
262.90  13.55 M 261.80  13.00 D 260.70  11.90 D 260.15  10.80 D 259.60   9.15 D
259.60   6.40 D 260.15   4.75 D 260.70   3.65 D 261.80   2.55 D
262.90   2.00 D 265.10   2.00 D 266.20   2.55 D 267.30   3.65 D
267.85   4.75 D 268.40   6.40 D 268.40   9.15 D 267.85  10.80 D
267.30  11.90 D 266.20  13.00 D 265.10  13.55 D 262.90  13.55 D S
273.25  13.55 M 273.25   2.00 D S
273.25  13.55 M 278.20  13.55 D 279.85  13.00 D 280.40  12.45 D 280.95  11.35 D
280.95  10.25 D 280.40   9.15 D 279.85   8.60 D 278.20   8.05 D
273.25   8.05 D S
277.10   8.05 M 280.95   2.00 D S
286.35  13.55 M 286.35   2.00 D S
286.35   2.00 M 292.95   2.00 D S
301.10  13.55 M 296.70   2.00 D S
301.10  13.55 M 305.50   2.00 D S
298.35   5.85 M 303.85   5.85 D S
309.25  13.55 M 309.25   2.00 D S
309.25  13.55 M 314.20  13.55 D 315.85  13.00 D 316.40  12.45 D 316.95  11.35 D
316.95  10.25 D 316.40   9.15 D 315.85   8.60 D 314.20   8.05 D S
309.25   8.05 M 314.20   8.05 D 315.85   7.50 D 316.40   6.95 D 316.95   5.85 D
316.95   4.20 D 316.40   3.10 D 315.85   2.55 D 314.20   2.00 D
309.25   2.00 D S
322.35   6.95 M 332.25   6.95 D S
337.65  13.55 M 337.65   2.00 D S
337.65  13.55 M 342.60  13.55 D 344.25  13.00 D 344.80  12.45 D 345.35  11.35 D
345.35  10.25 D 344.80   9.15 D 344.25   8.60 D 342.60   8.05 D S
337.65   8.05 M 342.60   8.05 D 344.25   7.50 D 344.80   6.95 D 345.35   5.85 D
345.35   4.20 D 344.80   3.10 D 344.25   2.55 D 342.60   2.00 D
337.65   2.00 D S
350.75  13.55 M 350.75   2.00 D S
358.90  13.55 M 357.80  13.00 D 356.70  11.90 D 356.15  10.80 D 355.60   9.15 D
355.60   6.40 D 356.15   4.75 D 356.70   3.65 D 357.80   2.55 D
358.90   2.00 D 361.10   2.00 D 362.20   2.55 D 363.30   3.65 D
363.85   4.75 D 364.40   6.40 D 364.40   9.15 D 363.85  10.80 D
363.30  11.90 D 362.20  13.00 D 361.10  13.55 D 358.90  13.55 D S
376.95  10.80 M 376.40  11.90 D 375.30  13.00 D 374.20  13.55 D 372.00  13.55 D
370.90  13.00 D 369.80  11.90 D 369.25  10.80 D 368.70   9.15 D
368.70   6.40 D 369.25   4.75 D 369.80   3.65 D 370.90   2.55 D
372.00   2.00 D 374.20   2.00 D 375.30   2.55 D 376.40   3.65 D
376.95   4.75 D S
384.00  13.55 M 382.90  13.00 D 381.80  11.90 D 381.25  10.80 D 380.70   9.15 D
380.70   6.40 D 381.25   4.75 D 381.80   3.65 D 382.90   2.55 D
384.00   2.00 D 386.20   2.00 D 387.30   2.55 D 388.40   3.65 D
388.95   4.75 D 389.50   6.40 D 389.50   9.15 D 388.95  10.80 D
388.40  11.90 D 387.30  13.00 D 386.20  13.55 D 384.00  13.55 D S
394.35  13.55 M 394.35   2.00 D S
394.35   2.00 M 400.95   2.00 D S
409.10  13.55 M 408.00  13.00 D 406.90  11.90 D 406.35  10.80 D 405.80   9.15 D
405.80   6.40 D 406.35   4.75 D 406.90   3.65 D 408.00   2.55 D
409.10   2.00 D 411.30   2.00 D 412.40   2.55 D 413.50   3.65 D
414.05   4.75 D 414.60   6.40 D 414.60   9.15 D 414.05  10.80 D
413.50  11.90 D 412.40  13.00 D 411.30  13.55 D 409.10  13.55 D S
  9.25  10.80 M   8.70  11.90 D   7.60  13.00 D   6.50  13.55 D   4.30  13.55 D
  3.20  13.00 D   2.10  11.90 D   1.55  10.80 D   1.00   9.15 D
  1.00   6.40 D   1.55   4.75 D   2.10   3.65 D   3.20   2.55 D
  4.30   2.00 D   6.50   2.00 D   7.60   2.55 D   8.70   3.65 D
  9.25   4.75 D S
 16.30  13.55 M  15.20  13.00 D  14.10  11.90 D  13.55  10.80 D  13.00   9.15 D
 13.00   6.40 D  13.55   4.75 D  14.10   3.65 D  15.20   2.55 D
 16.30   2.00 D  18.50   2.00 D  19.60   2.55 D  20.70   3.65 D
 21.25   4.75 D  21.80   6.40 D  21.80   9.15 D  21.25  10.80 D
 20.70  11.90 D  19.60  13.00 D  18.50  13.55 D  16.30  13.55 D S
 26.65  13.55 M  26.65   2.00 D S
 26.65   2.00 M  33.25   2.00 D S
 41.40  13.55 M  40.30  13.00 D  39.20  11.90 D  38.65  10.80 D  38.10   9.15 D
 38.10   6.40 D  38.65   4.75 D  39.20   3.65 D  40.30   2.55 D
 41.40   2.00 D  43.60   2.00 D  44.70   2.55 D  45.80   3.65 D
 46.35   4.75 D  46.90   6.40 D  46.90   9.15 D  46.35  10.80 D
 45.80  11.90 D  44.70  13.00 D  43.60  13.55 D  41.40  13.55 D S
 51.75  13.55 M  51.75   2.00 D S
 51.75  13.55 M  56.70  13.55 D  58.35  13.00 D  58.90  12.45 D  59.45  11.35 D
 59.45  10.25 D  58.90   9.15 D  58.35   8.60 D  56.70   8.05 D
 51.75   8.05 D S
 55.60   8.05 M  59.45   2.00 D S
 64.85  13.55 M  64.85   2.00 D S
 64.85   2.00 M  71.45   2.00 D S
 79.60  13.55 M  75.20   2.00 D S
 79.60  13.55 M  84.00   2.00 D S
 76.85   5.85 M  82.35   5.85 D S
 87.75  13.55 M  87.75   2.00 D S
 87.75  13.55 M  92.70  13.55 D  94.35  13.00 D  94.90  12.45 D  95.45  11.35 D
 95.45  10.25 D  94.90   9.15 D  94.35   8.60 D  92.70   8.05 D S
 87.75   8.05 M  92.70   8.05 D  94.35   7.50 D  94.90   6.95 D  95.45   5.85 D
 95.45   4.20 D  94.90   3.10 D  94.35   2.55 D  92.70   2.00 D
 87.75   2.00 D S
100.85   6.95 M 110.75   6.95 D S
116.15  13.55 M 116.15   2.00 D S
116.15  13.55 M 121.10  13.55 D 122.75  13.00 D 123.30  12.45 D 123.85  11.35 D
123.85  10.25 D 123.30   9.15 D 122.75   8.60 D 121.10   8.05 D S
116.15   8.05 M 121.10   8.05 D 122.75   7.50 D 123.30   6.95 D 123.85   5.85 D
123.85   4.20 D 123.30   3.10 D 122.75   2.55 D 121.10   2.00 D
116.15   2.00 D S
129.25  13.55 M 129.25   2.00 D S
137.40  13.55 M 136.30  13.00 D 135.20  11.90 D 134.65  10.80 D 134.10   9.15 D
134.10   6.40 D 134.65   4.75 D 135.20   3.65 D 136.30   2.55 D
137.40   2.00 D 139.60   2.00 D 140.70   2.55 D 141.80   3.65 D
142.35   4.75 D 142.90   6.40 D 142.90   9.15 D 142.35  10.80 D
141.80  11.90 D 140.70  13.00 D 139.60  13.55 D 137.40  13.55 D S
155.45  10.80 M 154.90  11.90 D 153.80  13.00 D 152.70  13.55 D 150.50  13.55 D
149.40  13.00 D 148.30  11.90 D 147.75  10.80 D 147.20   9.15 D
147.20   6.40 D 147.75   4.75 D 148.30   3.65 D 149.40   2.55 D
150.50   2.00 D 152.70   2.00 D 153.80   2.55 D 154.90   3.65 D
155.45   4.75 D S
162.50  13.55 M 161.40  13.00 D 160.30  11.90 D 159.75  10.80 D 159.20   9.15 D
159.20   6.40 D 159.75   4.75 D 160.30   3.65 D 161.40   2.55 D
162.50   2.00 D 164.70   2.00 D 165.80   2.55 D 166.90   3.65 D
167.45   4.75 D 168.00   6.40 D 168.00   9.15 D 167.45  10.80 D
166.90  11.90 D 165.80  13.00 D 164.70  13.55 D 162.50  13.55 D S
172.85  13.55 M 172.85   2.00 D S
172.85   2.00 M 179.45   2.00 D S
187.60  13.55 M 186.50  13.00 D 185.40  11.90 D 184.85  10.80 D 184.30   9.15 D
184.30   6.40 D 184.85   4.75 D 185.40   3.65 D 186.50   2.55 D
187.60   2.00 D 189.80   2.00 D 190.90   2.55 D 192.00   3.65 D
192.55   4.75 D 193.10   6.40 D 193.10   9.15 D 192.55  10.80 D
192.00  11.90 D 190.90  13.00 D 189.80  13.55 D 187.60  13.55 D S
197.95  13.55 M 197.95   2.00 D S
197.95  13.55 M 202.90  13.55 D 204.55  13.00 D 205.10  12.45 D 205.65  11.35 D
205.65  10.25 D 205.10   9.15 D 204.55   8.60 D 202.90   8.05 D
197.95   8.05 D S
201.80   8.05 M 205.65   2.00 D S
218.20  11.90 M 217.10  13.00 D 215.45  13.55 D 213.25  13.55 D 211.60  13.00 D
210.50  11.90 D 210.50  10.80 D 211.05   9.70 D 211.60   9.15 D
212.70   8.60 D 216.00   7.50 D 217.10   6.95 D 217.65   6.40 D
218.20   5.30 D 218.20   3.65 D 217.10   2.55 D 215.45   2.00 D
213.25   2.00 D 211.60   2.55 D 210.50   3.65 D S
230.75  10.80 M 230.20  11.90 D 229.10  13.00 D 228.00  13.55 D 225.80  13.55 D
224.70  13.00 D 223.60  11.90 D 223.05  10.80 D 222.50   9.15 D
222.50   6.40 D 223.05   4.75 D 223.60   3.65 D 224.70   2.55 D
225.80   2.00 D 228.00   2.00 D 229.10   2.55 D 230.20   3.65 D
230.75   4.75 D S
237.80  13.55 M 236.70  13.00 D 235.60  11.90 D 235.05  10.80 D 234.50   9.15 D
234.50   6.40 D 235.05   4.75 D 235.60   3.65 D 236.70   2.55 D
237.80   2.00 D 240.00   2.00 D 241.10   2.55 D 242.20   3.65 D
242.75   4.75 D 243.30   6.40 D 243.30   9.15 D 242.75  10.80 D
242.20  11.90 D 241.10  13.00 D 240.00  13.55 D 237.80  13.55 D S
248.15  13.55 M 248.15   2.00 D S
248.15   2.00 M 254.75   2.00 D S
262.90  13.55 M 261.80  13.00 D 260.70  11.90 D 260.15  10.80 D 259.60   9.15 D
259.60   6.40 D 260.15   4.75 D 260.70   3.65 D 261.80   2.55 D
262.90   2.00 D 265.10   2.00 D 266.20   2.55 D 267.30   3.65 D
267.85   4.75 D 268.40   6.40 D 268.40   9.15 D 267.85  10.80 D
267.30  11.90 D 266.20  13.00 D 265.10  13.55 D 262.90  13.55 D S
273.25  13.55 M 273.25   2.00 D S
273.25  13.55 M 278.20  13.55 D 279.85  13.00 D 280.40  12.45 D 280.95  11.35 D
280.95  10.25 D 280.40   9.15 D 279.85   8.60 D 278.20   8.05 D
273.25   8.05 D S
277.10   8.05 M 280.95   2.00 D S
286.35  13.55 M 286.35   2.00 D S
286.35   2.00 M 292.95   2.00 D S
301.10  13.55 M 296.70   2.00 D S
301.10  13.55 M 305.50   2.00 D S
298.35   5.85 M 303.85   5.85 D S
309.25  13.55 M 309.25   2.00 D S
309.25  13.55 M 314.20  13.55 D 315.85  13.00 D 316.40  12.45 D 316.95  11.35 D
316.95  10.25 D 316.40   9.15 D 315.85   8.60 D 314.20   8.05 D S
309.25   8.05 M 314.20   8.05 D 315.85   7.50 D 316.40   6.95 D 316.95   5.85 D
316.95   4.20 D 316.40   3.10 D 315.85   2.55 D 314.20   2.00 D
309.25   2.00 D S
322.35   6.95 M 332.25   6.95 D S
337.65  13.55 M 337.65   2.00 D S
337.65  13.55 M 342.60  13.55 D 344.25  13.00 D 344.80  12.45 D 345.35  11.35 D
345.35  10.25 D 344.80   9.15 D 344.25   8.60 D 342.60   8.05 D S
337.65   8.05 M 342.60   8.05 D 344.25   7.50 D 344.80   6.95 D 345.35   5.85 D
345.35   4.20 D 344.80   3.10 D 344.25   2.55 D 342.60   2.00 D
337.65   2.00 D S
350.75  13.55 M 350.75   2.00 D S
358.90  13.55 M 357.80  13.00 D 356.70  11.90 D 356.15  10.80 D 355.60   9.15 D
355.60   6.40 D 356.15   4.75 D 356.70   3.65 D 357.80   2.55 D
358.90   2.00 D 361.10   2.00 D 362.20   2.55 D 363.30   3.65 D
363.85   4.75 D 364.40   6.40 D 364.40   9.15 D 363.85  10.80 D
363.30  11.90 D 362.20  13.00 D 361.10  13.55 D 358.90  13.55 D S
376.95  10.80 M 376.40  11.90 D 375.30  13.00 D 374.20  13.55 D 372.00  13.55 D
370.90  13.00 D 369.80  11.90 D 369.25  10.80 D 368.70   9.15 D
368.70   6.40 D 369.25   4.75 D 369.80   3.65 D 370.90   2.55 D
372.00   2.00 D 374.20   2.00 D 375.30   2.55 D 376.40   3.65 D
376.95   4.75 D S
384.00  13.55 M 382.90  13.00 D 381.80  11.90 D 381.25  10.80 D 380.70   9.15 D
380.70   6.40 D 381.25   4.75 D 381.80   3.65 D 382.90   2.55 D
384.00   2.00 D 386.20   2.00 D 387.30   2.55 D 388.40   3.65 D
388.95   4.75 D 389.50   6.40 D 389.50   9.15 D 388.95  10.80 D
388.40  11.90 D 387.30  13.00 D 386.20  13.55 D 384.00  13.55 D S
394.35  13.55 M 394.35   2.00 D S
394.35   2.00 M 400.95   2.00 D S
409.10  13.55 M 408.00  13.00 D 406.90  11.90 D 406.35  10.80 D 405.80   9.15 D
405.80   6.40 D 406.35   4.75 D 406.90   3.65 D 408.00   2.55 D
409.10   2.00 D 411.30   2.00 D 412.40   2.55 D 413.50   3.65 D
414.05   4.75 D 414.60   6.40 D 414.60   9.15 D 414.05  10.80 D
413.50  11.90 D 412.40  13.00 D 411.30  13.55 D 409.10  13.55 D S
  9.25  10.80 M   8.70  11.90 D   7.60  13.00 D   6.50  13.55 D   4.30  13.55 D
  3.20  13.00 D   2.10  11.90 D   1.55  10.80 D   1.00   9.15 D
  1.00   6.40 D   1.55   4.75 D   2.10   3.65 D   3.20   2.55 D
  4.30   2.00 D   6.50   2.00 D   7.60   2.55 D   8.70   3.65 D
  9.25   4.75 D S
 16.30  13.55 M  15.20  13.00 D  14.10  11.90 D  13.55  10.80 D  13.00   9.15 D
 13.00   6.40 D  13.55   4.75 D  14.10   3.65 D  15.20   2.55 D
 16.30   2.00 D  18.50   2.00 D  19.60   2.55 D  20.70   3.65 D
 21.25   4.75 D  21.80   6.40 D  21.80   9.15 D  21.25  10.80 D
 20.70  11.90 D  19.60  13.00 D  18.50  13.55 D  16.30  13.55 D S
 26.65  13.55 M  26.65   2.00 D S
 26.65   2.00 M  33.25   2.00 D S
 41.40  13.55 M  40.30  13.00 D  39.20  11.90 D  38.65  10.80 D  38.10   9.15 D
 38.10   6.40 D  38.65   4.75 D  39.20   3.65 D  40.30   2.55 D
 41.40   2.00 D  43.60   2.00 D  44.70   2.55 D  45.80   3.65 D
 46.35   4.75 D  46.90   6.40 D  46.90   9.15 D  46.35  10.80 D
 45.80  11.90 D  44.70  13.00 D  43.60  13.55 D  41.40  13.55 D S
 51.75  13.55 M  51.75   2.00 D S
 51.75  13.55 M  56.70  13.55 D  58.35  13.00 D  58.90  12.45 D  59.45  11.35 D
 59.45  10.25 D  58.90   9.15 D  58.35   8.60 D  56.70   8.05 D
 51.75   8.05 D S
 55.60   8.05 M  59.45   2.00 D S
 64.85  13.55 M  64.85   2.00 D S
 64.85   2.00 M  71.45   2.00 D S
 79.60  13.55 M  75.20   2.00 D S
 79.60  13.55 M  84.00   2.00 D S
 76.85   5.85 M  82.35   5.85 D S
 87.75  13.55 M  87.75   2.00 D S
 87.75  13.55 M  92.70  13.55 D  94.35  13.00 D  94.90  12.45 D  95.45  11.35 D
 95.45  10.25 D  94.90   9.15 D  94.35   8.60 D  92.70   8.05 D S
 87.75   8.05 M  92.70   8.05 D  94.35   7.50 D  94.90   6.95 D  95.45   5.85 D
 95.45   4.20 D  94.90   3.10 D  94.35   2.55 D  92.70   2.00 D
 87.75   2.00 D S
100.85   6.95 M 110.75   6.95 D S
116.15  13.55 M 116.15   2.00 D S
116.15  13.55 M 121.10  13.55 D 122.75  13.00 D 123.30  12.45 D 123.85  11.35 D
123.85  10.25 D 123.30   9.15 D 122.75   8.60 D 121.10   8.05 D S
116.15   8.05 M 121.10   8.05 D 122.75   7.50 D 123.30   6.95 D 123.85   5.85 D
123.85   4.20 D 123.30   3.10 D 122.75   2.55 D 121.10   2.00 D
116.15   2.00 D S
129.25  13.55 M 129.25   2.00 D S
137.40  13.55 M 136.30  13.00 D 135.20  11.90 D 134.65  10.80 D 134.10   9.15 D
134.10   6.40 D 134.65   4.75 D 135.20   3.65 D 136.30   2.55 D
137.40   2.00 D 139.60   2.00 D 140.70   2.55 D 141.80   3.65 D
142.35   4.75 D 142.90   6.40 D 142.90   9.15 D 142.35  10.80 D
141.80  11.90 D 140.70  13.00 D 139.60  13.55 D 137.40  13.55 D S
155.45  10.80 M 154.90  11.90 D 153.80  13.00 D 152.70  13.55 D 150.50  13.55 D
149.40  13.00 D 148.30  11.90 D 147.75  10.80 D 147.20   9.15 D
147.20   6.40 D 147.75   4.75 D 148.30   3.65 D 149.40   2.55 D
150.50   2.00 D 152.70   2.00 D 153.80   2.55 D 154.90   3.65 D
155.45   4.75 D S
162.50  13.55 M 161.40  13.00 D 160.30  11.90 D 159.75  10.80 D 159.20   9.15 D
159.20   6.40 D 159.75   4.75 D 160.30   3.65 D 161.40   2.55 D
162.50   2.00 D 164.70   2.00 D 165.80   2.55 D 166.90   3.65 D
167.45   4.75 D 168.00   6.40 D 168.00   9.15 D 167.45  10.80 D
166.90  11.90 D 165.80  13.00 D 164.70  13.55 D 162.50  13.55 D S
172.85  13.55 M 172.85   2.00 D S
172.85   2.00 M 179.45   2.00 D S
187.60  13.55 M 186.50  13.00 D 185.40  11.90 D 184.85  10.80 D 184.30   9.15 D
184.30   6.40 D 184.85   4.75 D 185.40   3.65 D 186.50   2.55 D
187.60   2.00 D 189.80   2.00 D 190.90   2.55 D 192.00   3.65 D
192.55   4.75 D 193.10   6.40 D 193.10   9.15 D 192.55  10.80 D
192.00  11.90 D 190.90  13.00 D 189.80  13.55 D 187.60  13.55 D S
197.95  13.55 M 197.95   2.00 D S
197.95  13.55 M 202.90  13.55 D 204.55  13.00 D 205.10  12.45 D 205.65  11.35 D
205.65  10.25 D 205.10   9.15 D 204.55   8.60 D 202.90   8.05 D
197.95   8.05 D S
201.80   8.05 M 205.65   2.00 D S
218.20  11.90 M 217.10  13.00 D 215.45  13.55 D 213.25  13.55 D 211.60  13.00 D
210.50  11.90 D 210.50  10.80 D 211.05   9.70 D 211.60   9.15 D
212.70   8.60 D 216.00   7.50 D 217.10   6.95 D 217.65   6.40 D
218.20   5.30 D 218.20   3.65 D 217.10   2.55 D 215.45   2.00 D
213.25   2.00 D 211.60   2.55 D 210.50   3.65 D S
230.75  10.80 M 230.20  11.90 D 229.10  13.00 D 228.00  13.55 D 225.80  13.55 D
224.70  13.00 D 223.60  11.90 D 223.05  10.80 D 222.50   9.15 D
222.50   6.40 D 223.05   4.75 D 223.60   3.65 D 224.70   2.55 D
225.80   2.00 D 228.00   2.00 D 229.10   2.55 D 230.20   3.65 D
230.75   4.75 D S
237.80  13.55 M 236.70  13.00 D 235.60  11.90 D 235.05  10.80 D 234.50   9.15 D
234.50   6.40 D 235.05   4.75 D 235.60   3.65 D 236.70   2.55 D
237.80   2.00 D 240.00   2.00 D 241.10   2.55 D 242.20   3.65 D
242.75   4.75 D 243.30   6.40 D 243.30   9.15 D 242.75  10.80 D
242.20  11.90 D 241.10  13.00 D 240.00  13.55 D 237.80  13.55 D S
248.15  13.55 M 248.15   2.00 D S
248.15   2.00 M 254.75   2.00 D S
262.90  13.55 M 261.80  13.00 D 260.70  11.90 D 260.15  10.80 D 259.60   9.15 D
259.60   6.40 D 260.15   4.75 D 260.70   3.65 D 261.80   2.55 D
262.90   2.00 D 265.10   2.00 D 266.20   2.55 D 267.30   3.65 D
267.85   4.75 D 268.40   6.40 D 268.40   9.15 D 267.85  10.80 D
267.30  11.90 D 266.20  13.00 D 265.10  13.55 D 262.90  13.55 D S
273.25  13.55 M 273.25   2.00 D S
273.25  13.55 M 278.20  13.55 D 279.85  13.00 D 280.40  12.45 D 280.95  11.35 D
280.95  10.25 D 280.40   9.15 D 279.85   8.60 D 278.20   8.05 D
273.25   8.05 D S
277.10   8.05 M 280.95   2.00 D S
286.35  13.55 M 286.35   2.00 D S
286.35   2.00 M 292.95   2.00 D S
301.10  13.55 M 296.70   2.00 D S
301.10  13.55 M 305.50   2.00 D S
298.35   5.85 M 303.85   5.85 D S
309.25  13.55 M 309.25   2.00 D S
309.25  13.55 M 314.20  13.55 D 315.85  13.00 D 316.40  12.45 D 316.95  11.35 D
316.95  10.25 D 316.40   9.15 D 315.85   8.60 D 314.20   8.05 D S
309.25   8.05 M 314.20   8.05 D 315.85   7.50 D 316.40   6.95 D 316.95   5.85 D
316.95   4.20 D 316.40   3.10 D 315.85   2.55 D 314.20   2.00 D
309.25   2.00 D S
322.35   6.95 M 332.25   6.95 D S
337.65  13.55 M 337.65   2.00 D S
337.65  13.55 M 342.60  13.55 D 344.25  13.00 D 344.80  12.45 D 345.35  11.35 D
345.35  10.25 D 344.80   9.15 D 344.25   8.60 D 342.60   8.05 D S
337.65   8.05 M 342.60   8.05 D 344.25   7.50 D 344.80   6.95 D 345.35   5.85 D
345.35   4.20 D 344.80   3.10 D 344.25   2.55 D 342.60   2.00 D
337.65   2.00 D S
350.75  13.55 M 350.75   2.00 D S
358.90  13.55 M 357.80  13.00 D 356.70  11.90 D 356.15  10.80 D 355.60   9.15 D
355.60   6.40 D 356.15   4.75 D 356.70   3.65 D 357.80   2.55 D
358.90   2.00 D 361.10   2.00 D 362.20   2.55 D 363.30   3.65 D
363.85   4.75 D 364.40   6.40 D 364.40   9.15 D 363.85  10.80 D
363.30  11.90 D 362.20  13.00 D 361.10  13.55 D 358.90  13.55 D S
376.95  10.80 M 376.40  11.90 D 375.30  13.00 D 374.20  13.55 D 372.00  13.55 D
370.90  13.00 D 369.80  11.90 D 369.25  10.80 D 368.70   9.15 D
368.70   6.40 D 369.25   4.75 D 369.80   3.65 D 370.90   2.55 D
372.00   2.00 D 374.20   2.00 D 375.30   2.55 D 376.40   3.65 D
376.95   4.75 D S
384.00  13.55 M 382.90  13.00 D 381.80  11.90 D 381.25  10.80 D 380.70   9.15 D
380.70   6.40 D 381.25   4.75 D 381.80   3.65 D 382.90   2.55 D
384.00   2.00 D 386.20   2.00 D 387.30   2.55 D 388.40   3.65 D
388.95   4.75 D 389.50   6.40 D 389.50   9.15 D 388.95  10.80 D
388.40  11.90 D 387.30  13.00 D 386.20  13.55 D 384.00  13.55 D S
394.35  13.55 M 394.35   2.00 D S
394.35   2.00 M 400.95   2.00 D S
409.10  13.55 M 408.00  13.00 D 406.90  11.90 D 406.35  10.80 D 405.80   9.15 D
405.80   6.40 D 406.35   4.75 D 406.90   3.65 D 408.00   2.55 D
409.10   2.00 D 411.30   2.00 D 412.40   2.55 D 413.50   3.65 D
414.05   4.75 D 414.60   6.40 D 414.60   9.15 D 414.05  10.80 D
413.50  11.90 D 412.40  13.00 D 411.30  13.55 D 409.10  13.55 D S
eop
@end
%%PageTrailer
%%Trailer
%%EOF
