%!PS-Adobe-2.0 EPSF-2.0
%%Title: /home/gijs/.chiplotle/output/20180423_155912.eps
%%Creator: hp2xx 3.4.4 (c) 1991-1994 by H. Werntges, 1999-2003 by M. Kroeker
%%CreationDate: Mon Apr 23 15:59:12 2018
%%Pages: 1
%%BoundingBox: 0 0 187 38
%%EndComments

%%BeginProcSet:
/PSSave save def
/PSDict 200 dict def
PSDict begin
/@restore /restore load def
/restore
   {vmstatus pop
    dup @VMused lt {pop @VMused} if
    exch pop exch @restore /@VMused exch def
   } def
/@pri
   {
    ( ) print
    (                                       ) cvs print
   } def
/@start
   {
    vmstatus pop /@VMused exch def pop
   } def
/@end
   {(VM Used: ) print @VMused @pri
    (. Unused: ) print vmstatus @VMused sub @pri pop pop
    (\n) print flush
    end
    PSSave restore
   } def
/bop
   {
    /SaveImage save def
   } def
/eop
   {
    showpage
    SaveImage restore
   } def
/@line
   {
%%    1 setlinejoin      %% now set from LA command
%%    1 setmiterlimit    %% now set from LA command
   } def
/@SetPlot
   {
    2.834646 2.834646 scale
      0.050   0.050 translate
     0.100 setlinewidth
   } def
/C {setrgbcolor} def
/D {lineto} def
/M {moveto} def
/S {stroke} def
/W {setlinewidth} def
/Z {stroke newpath} def
end
%%EndProcSet

%%BeginSetup
/#copies 1 def
%%EndSetup
%%Page: 1 1
%%BeginPageSetup
PSDict begin
@start
@line
@SetPlot

bop
%%EndPageSetup
  0.100 W
 S
-165.80   0.20 M  0.100 W
 S
-165.80   0.20 M 1 setlinecap
 S
-165.80   0.20 M 1 setlinejoin
 S
  9.75   9.55 M   9.20  10.65 D   8.10  11.75 D   7.00  12.30 D   4.80  12.30 D
  3.70  11.75 D   2.60  10.65 D   2.05   9.55 D   1.50   7.90 D
  1.50   5.15 D   2.05   3.50 D   2.60   2.40 D   3.70   1.30 D
  4.80   0.75 D   7.00   0.75 D   8.10   1.30 D   9.20   2.40 D
  9.75   3.50 D S
 15.25   8.45 M  14.15   7.90 D  13.05   6.80 D  12.50   5.15 D  12.50   4.05 D
 13.05   2.40 D  14.15   1.30 D  15.25   0.75 D  16.90   0.75 D
 18.00   1.30 D  19.10   2.40 D  19.65   4.05 D  19.65   5.15 D
 19.10   6.80 D  18.00   7.90 D  16.90   8.45 D  15.25   8.45 D S
 22.95  12.30 M  22.95   0.75 D S
 29.55   8.45 M  28.45   7.90 D  27.35   6.80 D  26.80   5.15 D  26.80   4.05 D
 27.35   2.40 D  28.45   1.30 D  29.55   0.75 D  31.20   0.75 D
 32.30   1.30 D  33.40   2.40 D  33.95   4.05 D  33.95   5.15 D
 33.40   6.80 D  32.30   7.90 D  31.20   8.45 D  29.55   8.45 D S
 37.25   8.45 M  37.25   0.75 D S
 37.25   5.15 M  37.80   6.80 D  38.90   7.90 D  40.00   8.45 D  41.65   8.45 D S
 44.95  12.30 M  44.95   0.75 D S
 55.40   8.45 M  55.40   0.75 D S
 55.40   6.80 M  54.30   7.90 D  53.20   8.45 D  51.55   8.45 D  50.45   7.90 D
 49.35   6.80 D  48.80   5.15 D  48.80   4.05 D  49.35   2.40 D
 50.45   1.30 D  51.55   0.75 D  53.20   0.75 D  54.30   1.30 D
 55.40   2.40 D S
 59.25  12.30 M  59.25   0.75 D S
 59.25   6.80 M  60.35   7.90 D  61.45   8.45 D  63.10   8.45 D  64.20   7.90 D
 65.30   6.80 D  65.85   5.15 D  65.85   4.05 D  65.30   2.40 D
 64.20   1.30 D  63.10   0.75 D  61.45   0.75 D  60.35   1.30 D
 59.25   2.40 D S
  9.00   8.80 M   8.45   9.90 D   7.35  11.00 D   6.25  11.55 D   4.05  11.55 D
  2.95  11.00 D   1.85   9.90 D   1.30   8.80 D   0.75   7.15 D
  0.75   4.40 D   1.30   2.75 D   1.85   1.65 D   2.95   0.55 D
  4.05   0.00 D   6.25   0.00 D   7.35   0.55 D   8.45   1.65 D
  9.00   2.75 D S
 14.50   7.70 M  13.40   7.15 D  12.30   6.05 D  11.75   4.40 D  11.75   3.30 D
 12.30   1.65 D  13.40   0.55 D  14.50   0.00 D  16.15   0.00 D
 17.25   0.55 D  18.35   1.65 D  18.90   3.30 D  18.90   4.40 D
 18.35   6.05 D  17.25   7.15 D  16.15   7.70 D  14.50   7.70 D S
 22.20  11.55 M  22.20   0.00 D S
 28.80   7.70 M  27.70   7.15 D  26.60   6.05 D  26.05   4.40 D  26.05   3.30 D
 26.60   1.65 D  27.70   0.55 D  28.80   0.00 D  30.45   0.00 D
 31.55   0.55 D  32.65   1.65 D  33.20   3.30 D  33.20   4.40 D
 32.65   6.05 D  31.55   7.15 D  30.45   7.70 D  28.80   7.70 D S
 36.50   7.70 M  36.50   0.00 D S
 36.50   4.40 M  37.05   6.05 D  38.15   7.15 D  39.25   7.70 D  40.90   7.70 D S
 44.20  11.55 M  44.20   0.00 D S
 54.65   7.70 M  54.65   0.00 D S
 54.65   6.05 M  53.55   7.15 D  52.45   7.70 D  50.80   7.70 D  49.70   7.15 D
 48.60   6.05 D  48.05   4.40 D  48.05   3.30 D  48.60   1.65 D
 49.70   0.55 D  50.80   0.00 D  52.45   0.00 D  53.55   0.55 D
 54.65   1.65 D S
 58.50  11.55 M  58.50   0.00 D S
 58.50   6.05 M  59.60   7.15 D  60.70   7.70 D  62.35   7.70 D  63.45   7.15 D
 64.55   6.05 D  65.10   4.40 D  65.10   3.30 D  64.55   1.65 D
 63.45   0.55 D  62.35   0.00 D  60.70   0.00 D  59.60   0.55 D
 58.50   1.65 D S
  8.25   9.55 M   7.70  10.65 D   6.60  11.75 D   5.50  12.30 D   3.30  12.30 D
  2.20  11.75 D   1.10  10.65 D   0.55   9.55 D   0.00   7.90 D
  0.00   5.15 D   0.55   3.50 D   1.10   2.40 D   2.20   1.30 D
  3.30   0.75 D   5.50   0.75 D   6.60   1.30 D   7.70   2.40 D
  8.25   3.50 D S
 13.75   8.45 M  12.65   7.90 D  11.55   6.80 D  11.00   5.15 D  11.00   4.05 D
 11.55   2.40 D  12.65   1.30 D  13.75   0.75 D  15.40   0.75 D
 16.50   1.30 D  17.60   2.40 D  18.15   4.05 D  18.15   5.15 D
 17.60   6.80 D  16.50   7.90 D  15.40   8.45 D  13.75   8.45 D S
 21.45  12.30 M  21.45   0.75 D S
 28.05   8.45 M  26.95   7.90 D  25.85   6.80 D  25.30   5.15 D  25.30   4.05 D
 25.85   2.40 D  26.95   1.30 D  28.05   0.75 D  29.70   0.75 D
 30.80   1.30 D  31.90   2.40 D  32.45   4.05 D  32.45   5.15 D
 31.90   6.80 D  30.80   7.90 D  29.70   8.45 D  28.05   8.45 D S
 35.75   8.45 M  35.75   0.75 D S
 35.75   5.15 M  36.30   6.80 D  37.40   7.90 D  38.50   8.45 D  40.15   8.45 D S
 43.45  12.30 M  43.45   0.75 D S
 53.90   8.45 M  53.90   0.75 D S
 53.90   6.80 M  52.80   7.90 D  51.70   8.45 D  50.05   8.45 D  48.95   7.90 D
 47.85   6.80 D  47.30   5.15 D  47.30   4.05 D  47.85   2.40 D
 48.95   1.30 D  50.05   0.75 D  51.70   0.75 D  52.80   1.30 D
 53.90   2.40 D S
 57.75  12.30 M  57.75   0.75 D S
 57.75   6.80 M  58.85   7.90 D  59.95   8.45 D  61.60   8.45 D  62.70   7.90 D
 63.80   6.80 D  64.35   5.15 D  64.35   4.05 D  63.80   2.40 D
 62.70   1.30 D  61.60   0.75 D  59.95   0.75 D  58.85   1.30 D
 57.75   2.40 D S
  9.00  10.30 M   8.45  11.40 D   7.35  12.50 D   6.25  13.05 D   4.05  13.05 D
  2.95  12.50 D   1.85  11.40 D   1.30  10.30 D   0.75   8.65 D
  0.75   5.90 D   1.30   4.25 D   1.85   3.15 D   2.95   2.05 D
  4.05   1.50 D   6.25   1.50 D   7.35   2.05 D   8.45   3.15 D
  9.00   4.25 D S
 14.50   9.20 M  13.40   8.65 D  12.30   7.55 D  11.75   5.90 D  11.75   4.80 D
 12.30   3.15 D  13.40   2.05 D  14.50   1.50 D  16.15   1.50 D
 17.25   2.05 D  18.35   3.15 D  18.90   4.80 D  18.90   5.90 D
 18.35   7.55 D  17.25   8.65 D  16.15   9.20 D  14.50   9.20 D S
 22.20  13.05 M  22.20   1.50 D S
 28.80   9.20 M  27.70   8.65 D  26.60   7.55 D  26.05   5.90 D  26.05   4.80 D
 26.60   3.15 D  27.70   2.05 D  28.80   1.50 D  30.45   1.50 D
 31.55   2.05 D  32.65   3.15 D  33.20   4.80 D  33.20   5.90 D
 32.65   7.55 D  31.55   8.65 D  30.45   9.20 D  28.80   9.20 D S
 36.50   9.20 M  36.50   1.50 D S
 36.50   5.90 M  37.05   7.55 D  38.15   8.65 D  39.25   9.20 D  40.90   9.20 D S
 44.20  13.05 M  44.20   1.50 D S
 54.65   9.20 M  54.65   1.50 D S
 54.65   7.55 M  53.55   8.65 D  52.45   9.20 D  50.80   9.20 D  49.70   8.65 D
 48.60   7.55 D  48.05   5.90 D  48.05   4.80 D  48.60   3.15 D
 49.70   2.05 D  50.80   1.50 D  52.45   1.50 D  53.55   2.05 D
 54.65   3.15 D S
 58.50  13.05 M  58.50   1.50 D S
 58.50   7.55 M  59.60   8.65 D  60.70   9.20 D  62.35   9.20 D  63.45   8.65 D
 64.55   7.55 D  65.10   5.90 D  65.10   4.80 D  64.55   3.15 D
 63.45   2.05 D  62.35   1.50 D  60.70   1.50 D  59.60   2.05 D
 58.50   3.15 D S
eop
@end
%%PageTrailer
%%Trailer
%%EOF
