<?xml version="1.0" standalone="yes"?>
<svg width="301" height="308">
<path style="stroke:#767676; fill:none;" d="M164 43L169 51M162 47L170 53M195 52L195 56M172 57L170 67M161 60L166 63L166 63M175 61L175 67L173 65M196 61L195 64M182 63L178 85L168 72M165 65L168 68M196 66L196 67M175 67L174 79M190 68C187.824 75.3783 188.86 87.744 191 95L194 93M162 71L164 73M193 73L193 75M169 75L167 80L168 77M172 75L171 76M195 75L195 76M168 79L178 92L174 99L175 100L179 99L179 106C184.146 104.825 187.587 101.033 189 96M167 81L169 81M168 82L169 87M179 84L181 86M178 85L177 90M193 86L192 88M202 87L202 89M186 88L186 89M189 88L191 91M188 90L190 93M171 91L172 91M177 93L183 91C183.81 94.6184 183.272 96.1936 180 98M178 92L180 92M197 93L196 94M179 95L179 97M184 99L186 102M175 100L178.938 116L172 135L165 126M215 100L215 101M168 101L169 101M126 102L131 104M180 103L183 103M146 104L149 108M133 105L134 106M185 105C185.432 108.747 185.336 126.242 179 122M171 106L173 109M212 107L206 112M143 111L144 116M154 111L154 112M190 112L193 111M199 112L196 114M185 113L187 119L191 117L192 118L191 119L189 120M202 113L203 113M175 114L173 120M66 119L73 127L67 129M142 119L147 125M145 119L145 122M185 122L187 127M188 124L189 124M67 125L68 125M186 125L181 135L183 134M145 126L145 128M180 136C177.249 133.231 178.611 126.552 183 128M73 127L74 130M61 128L62 128M77 128C81.4859 131.584 84.1065 135.275 85 141M148 128L148 130M184 140L184 145L180 140L191 138C194.86 128.516 198.024 129.574 207 129M169 129L171 129M202 129L195 131M181 132L182 133M188 136L193 132M172 135L172 143L172 137M179 136L179 139M183 136L185 138M150 137L151 137M157 137L157 139M165 137L166 141L168 139M119 138L116 157C112.782 155.35 112.35 153.492 113 150M191 138L188 149C193.629 149.538 197.931 146.553 201 142M163 139L164 139M45 140L41 151M155 141L154 150M89 151C90.4493 148.957 91.2628 146.218 92.8318 144.332C101.149 134.334 102.39 160.425 103 162M165 142L166 151M174 142L176 144L174 146L172 144M180 142L176 145M224 142L205 145M126 144L125 145M167 144L166 145M179 144L182 150L184 145M58 173C61.3876 161.18 78.8806 146.817 91 145M177 146L176 156L182 150M121 147L122 150M199 148L200 148M113 149L113 150M163 149L163 159L167 153M188 149L183 152M110 150L108 157M117 150L116 152M173 150L176 155M178 150L180 150M101 151L101 153M144 152C141.857 155.752 140.67 162.571 137.531 165.393C132.059 170.311 123.819 165.025 123 176L134 173C137.244 177.787 141.52 173.566 145 171M167 154C170.697 161.609 164.243 164.584 159 169L155 155M169 154L170 154M102 160L102 156M123 156L122 158M138 157L139 159M175 157C173.011 168.091 163.239 174.101 157 182L160 182M179 157L176 162M204 158L208 157M112 158L101 174M183 161L184 158M187 158L186 160M126 159C122.962 162.287 121.001 164.471 122 169L124 166M163 159L163 165M165 159L168 159M99 160L99 168L102 163M121 160L122 162M141 160L141 164M144 160L143 161M68 161C69.1402 163.753 68.7529 164.14 66 163M114 162L113 164M127 163L128 163M178 163C175.911 167.41 174.9 168.659 170 170M179 164L183 164M89 166L85 173M114 166L113 168M138 166L143 168M64 167L68 175M109 167L110 167M166 167L166 169M140 168L138 175M68 169L68 170M98 169C96.634 175.759 97.0663 181.221 101 187L110 173M158 178C158.603 174.242 163.02 178.717 163.634 181.005C165.748 188.871 156.197 190.827 151 191C150.945 186.597 148.776 170.506 153 170M37 174L58 170M121 170L121 172M159 170L158 175M63 171L65 179M120 173L115 175L120 173M135 172L137 172M67 174L64 177M166 174L174 188L161 192M62 176L61 182L63 180M70 176L70 177M110 178L114 176M123 176L117 179L116 177L116 177M135 176C132.905 181.522 129.376 185.514 124 188L123 183M139 176L136 182M169 179L165 181M143 180L142 184M68 181L64 194M181 181L178 182M59 182L61 183M156 183L159 184M168 183L168 184M107 184L104 185M59 185L57 193M147 187L150 185M105 186L101 189L101 187M172 186L172 187M156 187L155 189M166 187L170 190M106 189L108 188M111 188C107.827 190.972 106.149 192.825 102 191L102 191M124 188C121.19 191.014 119.934 192.808 116 191L116 191M168 188L161 198M183 188L181 190M109 190L111 192M139 191L137 199L151 191M162 191L165 191M157 192L158 195M182 193L181 194M106 194L117 196L115 194M66 195L67 198M119 195C119.787 202.521 129.512 199.051 135 199M55 197L54 198M108 197L112 197M157 197L157 198M115 198L118 200M168 199L171 199M181 203L191 198M108 199L110 203L114 200M53 200L53 201M120 200L115 210L126 212M144 206L165 200M115 201L116 203M128 201L136 208M192 201L193 201M105 202L107 202M136 202L134 203M188 202L191 203M110 204L113 205M208 204L209 204M169 205L171 205M178 209L173 209L181 205M112 206L114 209M165 208L167 207M171 209L173 209M140 210L141 210M162 210L166 211C157.695 216.968 137.232 214.439 127 214M155 213L159 211M166 211L170 212"/>
</svg>
