<?xml version="1.0" standalone="yes"?>
<svg width="225" height="195">
<path style="stroke:#787878; fill:none;" d="M122 9L131 18L132 15M138 11L135 15M142 11C142.571 18.2337 144.818 26.1347 137 30L132 25C130.705 29.9072 132.621 35.9531 138 37L138 36L134 39M64 25L68 27L66 16L75 13M77 13L83 15M97 13L98 14M59 18L66 16M102 18L104 21L100 21L102 18M130 19L131 24M65 20L67 22M86 20L89 29M132 25L141 22M148 21L150 31M123 22L119 43L121 41M78 23L80 26M105 23L109 26M138 23L135 26M105 29C109.273 30.0627 111.038 28.8296 113 25L120 31M62 27L62 28M69 28C68.5979 34.303 70.0187 41.0831 74 46L75 33M107 29L108 30M144 29L145 29M113 30L118 42M137 30L134 32M61 31L69 42M83 31L84 31M110 31L107 32M131 31C129.124 32.9956 126.217 38.0247 124 35M119 32L119 34M137 32L137 35M99 33L98 34M109 33L113 38M130 35L130 42L133 40M180 36L179 37M52 37L64 38M41 40L48 38M107 38L108 38M125 38L123 45L122 45L121 44M165 38L162 41M169 44L177 38M57 39L67 49L66 46M62 39L60 41M145 39C141.589 48.9756 138.89 58.8806 135.961 69C134.36 74.5296 131.067 80.396 139 81L138 79M187 39L185 41M61 40L65 43M77 41L77.9306 49L80.5972 60.0895L79.1759 68.7361L87.7369 73.8704L96 84C98.5461 77.1935 106.153 70.2385 96 66L96 77M89 40L89 41M153 40L153 41M183 40L184 48M115 41L116 50M179 42L176 52L175 47M39 43L39 45M93 43C90.0042 49.8248 91.3312 60.2769 96 66M128 43L125 48C126.904 50.1246 127.694 50.6818 126 53M160 43L152 63L164 58M84 44L84 46M102 44L103 44M146 44L147 44M75 45L78 45M120 46C122.485 52.4107 120.903 59.1407 128 62C124.237 66.8615 117.366 73.6671 119 80L122 77M74 47L76 49M155 47L157 51M69 48C70.5399 53.4203 72.0646 60.922 79 57M108 48L107 49M125 48L123 50M182 48L180 50M40 49L39 50M45 49L45 51M67 49L69 51M74 49L72 53M101 51L103 49L107 54M165 49L165 51L165 49M62 50L66 53M143 52C151.157 50.7361 149.087 56.4128 152 62M83 52L82 56M163 52L165 54M73 53L74 58M100 53L98 63L99 64L98 65L97 66M113 53L117 57M130 53L131 61M168 54L175 52M55 54L62.6119 61.1289L63 74L64 69M48 55L54 74C46.2858 77.124 42.0305 76.5093 35 72L26 75M73 55L73 56M102 55C103.547 63.4781 106.721 60.642 111 66M119 55L120 56M152 55L153 56M125 56L121 68M155 56L157 58M70 57L72 59M91 57L91 58M72 59C71.6986 63.2319 74.7657 64.6057 78 67M76 60L80 64M105 61L108 60M118 60L115 66L118 64M146 60C146.913 63.5647 145.507 76.8575 153 70M54 61L55 63M58 61L62 63M43 62C42.9504 67.6172 47.7043 81.6692 55 75M102 62L100 64L105 65M118 64L121 62M31 64L47 67M125 63L126 64M148 63L151 64M179 63L177 72L183 66M151 64L147 70M187 64L185 75L192 72M64 65C69.0954 65.692 72.572 67.681 70 73L71 74L72 74L72 72M82 65L94 65M85 66L90 74M103 66L101 68M130 66C128.086 73.3958 123.013 82.4664 128 89L132 81M34 67L43 71M46 67L50 71L47 67M102 67L118 86L125 81M116 68L109 75M118 67L120 72M111 71L114 70M39 70L37 72M66 70L70 74M74 70L78 72M87 70L87 72M185 70L186 72M90 71L88 73M147 71L139 77M176 71L165 86L163 80L167 82M51 72L51 73M76 72C76.4584 76.4872 78.9905 76.9156 83 78L81 82L80 78M177 72L179 73M61 73L59 85M64 73L78 88C71.6017 91.3729 68.7401 96.7981 75 102L77 87M73 73L75 75M162 73L146 87M47 74L45 76M70 74L68 76M147 74L149 81M174 75L176 75M55 76L58 76M76 76L72 80M179 76L175 82M186 76L162 96L165 86M42 77L42 79M90 77L87 79M143 77L141 80M165 77L164 78M110 78C106.715 83.5824 101.179 94.7068 96 84M112 78L117 78M69 80C66.1154 83.1543 64.4256 84.8631 66 89L64 92M119 80L119 83M193 83L190 82L193 80M62 81C66.2977 82.2609 67.2322 84.0975 65 88M139 81L140 84M156 81L156 83M198 81L197 82M48 82L47 84M81 82L82 86C88.4499 81.7755 92.6461 87.2877 98 91M50 83L51 83M138 84L132 85M147 83L147 84M192 83C184.436 88.2174 174.535 98.8981 165 98L164 99C164.703 103.977 161.341 106.619 158 110L177 109M32 84L40 84M73 84L69 87M88 85C84.5202 87.9969 82.5125 88.5874 78 88M119 85L128 90M121 86L124 85M167 85L170 88M82 86L80 88M118 86C114.698 89.3716 107.559 95.0261 107.147 100C106.88 103.237 107.802 118.207 113.684 114.083C116.772 111.918 116.577 105.267 119 102C130.978 108.658 132.321 93.677 141 89M165 87L168 90M46 89L47 95M52 90L54 89M84 89C88.2655 91.2914 93.5297 93.1059 98 91M197 89L197 91L201 90M48 92L62 92M103 90L112 92M122 90L126 91M128 90L130 97M157 105C144.883 113.68 148.597 96.208 151 90L159 93C155.557 96.909 154.431 99.278 157 104L162 96M176 90L174 91M30 91L32 91M42 91L42 92M87 91L85 99L78 100M25 92L26 92M130 92L132 92M180 92L199 96M194 92L196 91M208 92L209 93M123 93L119 101M64 96L66 96L55 101M68 95L70 94M143 94L143 95M150 94L154 98M95 95C95.3804 102.365 95.3245 105.124 89 110L95 115L93 106M113 95L113 99L117 99M117 121L120 126L115 128L113 126L119 115L125 115C131.312 120.948 135.304 108.88 142 107C142.059 101.979 142.917 99.1107 147 96M179 96C176.916 101.336 181.878 103.356 186 106M50 97L49 98M94 97C89.8791 102.482 87.8658 114.269 80 113L76 119L82 120L80 116M162 97L164 99M172 98L176 101M113 99L109 103M85 108C85.5435 104.081 86.0288 101.305 90 100L91 100M60 101C62.2579 107.83 72.8412 106.508 70 116M175 101L176 105M184 103L195 102M75 102L70 106M105 102L107 104M74 103L84 109M91 104L93 106M106 104L100 116M131 104L136 107L126 114M72 105L77 111L79 109M78 105L82 110M125 105L119 115M67 107C64.1634 115.3 61.2974 114.607 54 117M100 107L102 111L99 110M137 107L138 108M106 110L115 108M159 112L149 122C145.902 117.915 137.673 109.557 147 108M155 108L157 110M82 110L82 113M98 110L99 110M76 111L74 113M78 111L80 113M124 111L126 113M175 112L179 117M59 116L63 113M91 113L84 117M97 113L100 113M172 116C167.092 120.379 164.102 119.887 161 114L178 115M178 115L185 115M201 113L202 113M86 114L88 116M116 114L118 116M129 114L129 121M170 114L165 119M40 115L43 116M84 115L84 117M95 115L89 123M140 115C137.114 118.014 134.939 119.822 136 124C138.785 121.491 141.213 118.832 140 115M47 116L50 119L47 121M111 116L109 122C104.599 123.462 105.069 126.313 107 130L110 123M105 121C105.787 118.111 106.253 117.918 109 119M162 118C158.929 124.027 162.951 131.161 167 136L162 144L157.302 131.39L149 122M173 118L175 118M38 119L39 119M71 122L73 122L75 120M132 119L134 120M174 119C174.349 127.857 172.761 125.047 167 129L167 130L166 130L165 129M43 120L45 121M141 120C142.504 123.943 141.259 125.491 138 128M75 121L69 134L71 134M61 125L71 122M164 127C167.628 122.423 171.412 122.016 177 122M52 123L57 128M72 123L72 125M122 123L120 125M133 123L129.849 136.961L122 151C128.204 149.129 132.919 146.754 129 140M15 124L16 124M76 124L79 124M136 124L136 126M137 124L140 127M169 124L169 126M84 125L82 126M97 125L94 132L100 127M142 125L147 129L143 136M199 125L192 133L195 134M87 126L85 128M111 126L113 126M120 126L128 133M178 127L191 130M150 127C147.13 135.994 163.645 154.342 166 141M107 128L109 129M144 128L137 145L137 140M46 130L50 131M115 129C113.444 132.142 109.843 133.694 107 131M123 129C118.437 134.882 119.314 138.882 123 145M171 129L168 131M175 129L182 138L185 130M22 130L26 133M69 130L69 132M110 130L110 132M116 130L120 131M178 131L182 130M198 130L198 132M54 133L66 131M29 132L33 133M94 132L90 138M115 132L116 143L117 140M42 133L43 133M96 133L87 152M193 133L183 137M50 134C53.6003 139.227 58.403 142.821 61 134M117 134L119 134M148 134C147.78 138.274 148.407 141.1 153 139M75 135L72 140M184 137L188 136M21 136L22 136M54 136L57 139M65 136L61 138M168 136L172 139L170 143L171 143L172 143L173 144M190 136L194 137M36 137L35 139M55 138L44 149M160 138L156 142M182 138L181 145L182 144M63 139C66.4795 141.477 66.693 142.653 63 145L63 145M87 139L88 142L89 139M162 139L164 139M173 139L178 142M193 141L202 139M29 141L32 141M195 141L196 142M37 142L39 142M129 142L130 147M150 142C149.092 146.653 151.626 148.938 156 147L157 148L157 149L150 147M152 142L153 144M183 143L192 144M87 143L77 147M108 143L106 145M132 145L135 143M163 143L166 145M186 143L190 148M115 144L103 155M146 144L148 144M162 144C162.157 150.496 164.735 154.258 170 158L174 154M166 145L177 150M130 155L125 155L125 154L130 154L137 146C140.261 148.662 142.618 150.157 145 146M149 146C143.473 156.357 149.096 166.745 154 176M184 146L185 146M194 146L195 146M142 147L147 152L149 150L151 148M84 148L84 151M130 148L132 150M63 149L62 150M75 149L68 154M119 149C120.888 152.721 121.612 156.195 126 157M170 149L171 153M128 150L128 152M139 150C139.905 157.356 139.799 171.883 131 174M79 151L77 158M136 151L138 161M151 151L153 151M78 154L75 152L75 156M114 161C112.136 157.616 117.495 153.794 120 152M152 152C153.915 156.522 156.707 161.359 162 161M165 152L169 154M176 152L178 153M83 154C82.3688 161.889 81.068 167.197 73 170L75 160C64.2156 166.122 48.0073 166.863 37 161M169 154C167.028 155.169 167.306 155.297 167 153M67 162C69.1469 157.508 72.0698 155.549 77 155M163 155L163 158M180 155L182 156M116 156L123 163L121 165L117 159M74 157L81 157M105 157L96 171M112 161L113 158M123 161L128 161L118 172M129 158L128 160M183 158L184 159M136 159C133.117 162.083 131.352 165.152 127 164M165 159L165 160M171 159L172 165L172 166L172 167M141 160L140 167M155 160L160 170L161 163M43 163L47 163M52 164L51 162L56 163M95 161L93 162M63 162L65 162M69 162L70 163M115 162L119 164L119 164M53 163L52 164M112 163L117 166L117 166M174 163L176 163M39 165L35 168L39 165M69 165L68 166M96 165L94 166M121 165L121 170M31 167L35 166M47 166L49 165M109 166L111 166M51 167L49 169M88 169L90 168M104 168L101 173M131 168L132 168M115 169L114 171M73 170L69 177M160 170L169 181M122 172L119 177M65 173L67 174M64 176L59 177M158 176L158 177M67 179L66 180M117 179L117 180M117 183L117 184M170 183L172 186"/>
</svg>
