<?xml version="1.0" encoding="UTF-8" standalone="no"?>
<!-- Created with Inkscape (http://www.inkscape.org/) -->

<svg
   xmlns:dc="http://purl.org/dc/elements/1.1/"
   xmlns:cc="http://creativecommons.org/ns#"
   xmlns:rdf="http://www.w3.org/1999/02/22-rdf-syntax-ns#"
   xmlns:svg="http://www.w3.org/2000/svg"
   xmlns="http://www.w3.org/2000/svg"
   xmlns:sodipodi="http://sodipodi.sourceforge.net/DTD/sodipodi-0.dtd"
   xmlns:inkscape="http://www.inkscape.org/namespaces/inkscape"
   version="1.1"
   id="svg2"
   xml:space="preserve"
   width="2254.6667"
   height="170.66667"
   viewBox="0 0 2254.6667 170.66667"
   sodipodi:docname="slanted-plotter-font-multicolor.svg"
   inkscape:version="0.92.2 (5c3e80d, 2017-08-06)"><metadata
     id="metadata8"><rdf:RDF><cc:Work
         rdf:about=""><dc:format>image/svg+xml</dc:format><dc:type
           rdf:resource="http://purl.org/dc/dcmitype/StillImage" /><dc:title></dc:title></cc:Work></rdf:RDF></metadata><defs
     id="defs6" /><sodipodi:namedview
     pagecolor="#ffffff"
     bordercolor="#666666"
     borderopacity="1"
     objecttolerance="10"
     gridtolerance="10"
     guidetolerance="10"
     inkscape:pageopacity="0"
     inkscape:pageshadow="2"
     inkscape:window-width="1311"
     inkscape:window-height="831"
     id="namedview4"
     showgrid="false"
     inkscape:zoom="0.47419223"
     inkscape:cx="1653.0259"
     inkscape:cy="40.251288"
     inkscape:window-x="997"
     inkscape:window-y="578"
     inkscape:window-maximized="0"
     inkscape:current-layer="g10" /><g
     id="g10"
     inkscape:groupmode="layer"
     inkscape:label="ink_ext_XXXXXX"
     transform="matrix(1.3333333,0,0,-1.3333333,0,170.66667)"><g
       id="g12"
       transform="scale(0.1)"
       style="stroke-width:22.50000056;stroke-miterlimit:4;stroke-dasharray:none;"><path
         d="M 639.211,1277.01 1.41797,1.41797 H 851.813"
         style="fill:none;stroke:#000000;stroke-width:22.50000056;stroke-linecap:round;stroke-linejoin:round;stroke-miterlimit:4;stroke-dasharray:none;stroke-opacity:1"
         id="path14"
         inkscape:connector-curvature="0" /><path
         d="M 1277.01,1.41797 H 2127.4"
         style="fill:none;stroke:#000000;stroke-width:22.50000056;stroke-linecap:round;stroke-linejoin:round;stroke-miterlimit:4;stroke-dasharray:none;stroke-opacity:1"
         id="path16"
         inkscape:connector-curvature="0" /><path
         d="M 1702.2,1.41797 2340,1277.01"
         style="fill:none;stroke:#000000;stroke-width:22.50000056;stroke-linecap:round;stroke-linejoin:round;stroke-miterlimit:4;stroke-dasharray:none;stroke-opacity:1"
         id="path18"
         inkscape:connector-curvature="0" /><path
         d="m 1914.8,1277.01 h 850.4"
         style="fill:none;stroke:#000000;stroke-width:22.50000056;stroke-linecap:round;stroke-linejoin:round;stroke-miterlimit:4;stroke-dasharray:none;stroke-opacity:1"
         id="path20"
         inkscape:connector-curvature="0" /><path
         d="M 3190.39,1277.01 2977.8,851.813 V 1.41797 l 850.39,850.39503 212.6,425.197"
         style="fill:none;stroke:#000000;stroke-width:22.50000056;stroke-linecap:round;stroke-linejoin:round;stroke-miterlimit:4;stroke-dasharray:none;stroke-opacity:1"
         id="path22"
         inkscape:connector-curvature="0" /><path
         d="m 3828.19,1.41797 h 850.39"
         style="fill:none;stroke:#000000;stroke-width:22.50000056;stroke-linecap:round;stroke-linejoin:round;stroke-miterlimit:4;stroke-dasharray:none;stroke-opacity:1"
         id="path24"
         inkscape:connector-curvature="0" /><path
         d="M 4253.39,1.41797 4891.18,1277.01"
         style="fill:none;stroke:#000000;stroke-width:22.50000056;stroke-linecap:round;stroke-linejoin:round;stroke-miterlimit:4;stroke-dasharray:none;stroke-opacity:1"
         id="path26"
         inkscape:connector-curvature="0" /><path
         d="m 4465.98,1277.01 h 850.4"
         style="fill:none;stroke:#000000;stroke-width:22.50000056;stroke-linecap:round;stroke-linejoin:round;stroke-miterlimit:4;stroke-dasharray:none;stroke-opacity:1"
         id="path28"
         inkscape:connector-curvature="0" /><path
         d="M 5103.78,1.41797 5741.57,1277.01 5954.18,1.41797 6591.97,1277.01"
         style="fill:none;stroke:#000000;stroke-width:22.50000056;stroke-linecap:round;stroke-linejoin:round;stroke-miterlimit:4;stroke-dasharray:none;stroke-opacity:1"
         id="path30"
         inkscape:connector-curvature="0" /><path
         d="m 7761.26,1064.41 -106.3,212.6 h -425.19 l -318.9,-212.6 -425.2,-850.394 106.3,-212.59803 h 425.2 l 318.89,212.59803 212.6,425.195 h -637.79"
         style="fill:none;stroke:#000000;stroke-width:22.50000056;stroke-linecap:round;stroke-linejoin:round;stroke-miterlimit:4;stroke-dasharray:none;stroke-opacity:1"
         id="path32"
         inkscape:connector-curvature="0" /><path
         d="M 9887.25,214.016 9568.35,1.41797 h -425.2 l -106.3,212.59803 425.2,850.394 318.9,212.6 h 425.15 l 106.3,-212.6"
         style="fill:none;stroke:#000000;stroke-width:22.50000056;stroke-linecap:round;stroke-linejoin:round;stroke-miterlimit:4;stroke-dasharray:none;stroke-opacity:1"
         id="path34"
         inkscape:connector-curvature="0" /><path
         d="m 10418.7,1.41797 -106.3,212.59803 425.2,850.394 318.9,212.6 h 425.2 L 11588,1064.41 11162.8,214.016 10843.9,1.41797 h -425.2"
         style="fill:none;stroke:#000000;stroke-width:22.50000056;stroke-linecap:round;stroke-linejoin:round;stroke-miterlimit:4;stroke-dasharray:none;stroke-opacity:1"
         id="path36"
         inkscape:connector-curvature="0" /><path
         d="M 12119.5,1277.01 11481.7,1.41797 h 850.4"
         style="fill:none;stroke:#000000;stroke-width:22.50000056;stroke-linecap:round;stroke-linejoin:round;stroke-miterlimit:4;stroke-dasharray:none;stroke-opacity:1"
         id="path38"
         inkscape:connector-curvature="0" /><path
         d="m 12969.9,1.41797 -106.3,212.59803 425.2,850.394 318.9,212.6 h 425.2 l 106.3,-212.6 L 13714,214.016 13395.1,1.41797 h -425.2"
         style="fill:none;stroke:#000000;stroke-width:22.50000056;stroke-linecap:round;stroke-linejoin:round;stroke-miterlimit:4;stroke-dasharray:none;stroke-opacity:1"
         id="path40"
         inkscape:connector-curvature="0" /><path
         d="M 14032.9,1.41797 14670.7,1277.01 h 637.8 l 106.3,-212.6 -106.3,-212.597 -318.9,-212.602 h -637.8 212.6 L 14883.3,1.41797"
         style="fill:none;stroke:#000000;stroke-width:22.50000056;stroke-linecap:round;stroke-linejoin:round;stroke-miterlimit:4;stroke-dasharray:none;stroke-opacity:1"
         id="path42"
         inkscape:connector-curvature="0" /><g
         id="g44"
         transform="scale(1.02395)"
         style="stroke-width:21.97372974;stroke-miterlimit:4;stroke-dasharray:none"><path
           d="M 15054.2,209.01 15158.1,1.3848 h 415.2 l 311.4,207.6252 103.9,207.625 -103.9,207.624 h -415.2 l -103.8,207.629 103.8,207.622 311.4,207.63 h 415.3 l 103.8,-207.63"
           style="fill:none;stroke:#000000;stroke-width:21.97372974;stroke-linecap:round;stroke-linejoin:round;stroke-miterlimit:4;stroke-dasharray:none;stroke-opacity:1"
           id="path46"
           inkscape:connector-curvature="0" /></g><path
         d="M 710.078,1277.01 72.2852,1.41797 H 922.676"
         style="fill:none;stroke:#ff0000;stroke-width:22.50000056;stroke-linecap:round;stroke-linejoin:round;stroke-miterlimit:4;stroke-dasharray:none;stroke-opacity:1"
         id="path48"
         inkscape:connector-curvature="0" /><path
         d="m 1347.88,1.41797 h 850.39"
         style="fill:none;stroke:#ff0000;stroke-width:22.50000056;stroke-linecap:round;stroke-linejoin:round;stroke-miterlimit:4;stroke-dasharray:none;stroke-opacity:1"
         id="path50"
         inkscape:connector-curvature="0" /><path
         d="M 1773.07,1.41797 2410.87,1277.01"
         style="fill:none;stroke:#ff0000;stroke-width:22.50000056;stroke-linecap:round;stroke-linejoin:round;stroke-miterlimit:4;stroke-dasharray:none;stroke-opacity:1"
         id="path52"
         inkscape:connector-curvature="0" /><path
         d="m 1985.67,1277.01 h 850.39"
         style="fill:none;stroke:#ff0000;stroke-width:22.50000056;stroke-linecap:round;stroke-linejoin:round;stroke-miterlimit:4;stroke-dasharray:none;stroke-opacity:1"
         id="path54"
         inkscape:connector-curvature="0" /><path
         d="M 3261.26,1277.01 3048.66,851.813 V 1.41797 l 850.39,850.39503 212.61,425.197"
         style="fill:none;stroke:#ff0000;stroke-width:22.50000056;stroke-linecap:round;stroke-linejoin:round;stroke-miterlimit:4;stroke-dasharray:none;stroke-opacity:1"
         id="path56"
         inkscape:connector-curvature="0" /><path
         d="m 3899.05,1.41797 h 850.4"
         style="fill:none;stroke:#ff0000;stroke-width:22.50000056;stroke-linecap:round;stroke-linejoin:round;stroke-miterlimit:4;stroke-dasharray:none;stroke-opacity:1"
         id="path58"
         inkscape:connector-curvature="0" /><path
         d="M 4324.25,1.41797 4962.05,1277.01"
         style="fill:none;stroke:#ff0000;stroke-width:22.50000056;stroke-linecap:round;stroke-linejoin:round;stroke-miterlimit:4;stroke-dasharray:none;stroke-opacity:1"
         id="path60"
         inkscape:connector-curvature="0" /><path
         d="m 4536.85,1277.01 h 850.4"
         style="fill:none;stroke:#ff0000;stroke-width:22.50000056;stroke-linecap:round;stroke-linejoin:round;stroke-miterlimit:4;stroke-dasharray:none;stroke-opacity:1"
         id="path62"
         inkscape:connector-curvature="0" /><path
         d="M 5174.65,1.41797 5812.44,1277.01 6025.04,1.41797 6662.84,1277.01"
         style="fill:none;stroke:#ff0000;stroke-width:22.50000056;stroke-linecap:round;stroke-linejoin:round;stroke-miterlimit:4;stroke-dasharray:none;stroke-opacity:1"
         id="path64"
         inkscape:connector-curvature="0" /><path
         d="m 7832.13,1064.41 -106.3,212.6 h -425.2 l -318.9,-212.6 -425.19,-850.394 106.3,-212.59803 h 425.19 l 318.9,212.59803 212.6,425.195 h -637.8"
         style="fill:none;stroke:#ff0000;stroke-width:22.50000056;stroke-linecap:round;stroke-linejoin:round;stroke-miterlimit:4;stroke-dasharray:none;stroke-opacity:1"
         id="path66"
         inkscape:connector-curvature="0" /><path
         d="M 9958.11,214.016 9639.21,1.41797 h -425.19 l -106.3,212.59803 425.19,850.394 318.9,212.6 H 10277 l 106.3,-212.6"
         style="fill:none;stroke:#ff0000;stroke-width:22.50000056;stroke-linecap:round;stroke-linejoin:round;stroke-miterlimit:4;stroke-dasharray:none;stroke-opacity:1"
         id="path68"
         inkscape:connector-curvature="0" /><path
         d="m 10489.6,1.41797 -106.3,212.59803 425.2,850.394 318.9,212.6 h 425.2 l 106.3,-212.6 -425.2,-850.394 -318.9,-212.59803 h -425.2"
         style="fill:none;stroke:#ff0000;stroke-width:22.50000056;stroke-linecap:round;stroke-linejoin:round;stroke-miterlimit:4;stroke-dasharray:none;stroke-opacity:1"
         id="path70"
         inkscape:connector-curvature="0" /><path
         d="M 12190.4,1277.01 11552.6,1.41797 h 850.4"
         style="fill:none;stroke:#ff0000;stroke-width:22.50000056;stroke-linecap:round;stroke-linejoin:round;stroke-miterlimit:4;stroke-dasharray:none;stroke-opacity:1"
         id="path72"
         inkscape:connector-curvature="0" /><path
         d="m 13040.8,1.41797 -106.3,212.59803 425.2,850.394 318.9,212.6 h 425.2 l 106.3,-212.6 L 13784.9,214.016 13466,1.41797 h -425.2"
         style="fill:none;stroke:#ff0000;stroke-width:22.50000056;stroke-linecap:round;stroke-linejoin:round;stroke-miterlimit:4;stroke-dasharray:none;stroke-opacity:1"
         id="path74"
         inkscape:connector-curvature="0" /><path
         d="M 14103.8,1.41797 14741.6,1277.01 h 637.8 l 106.3,-212.6 -106.3,-212.597 -318.9,-212.602 h -637.8 212.6 L 14954.2,1.41797"
         style="fill:none;stroke:#ff0000;stroke-width:22.50000056;stroke-linecap:round;stroke-linejoin:round;stroke-miterlimit:4;stroke-dasharray:none;stroke-opacity:1"
         id="path76"
         inkscape:connector-curvature="0" /><g
         id="g78"
         transform="scale(1.0283)"
         style="stroke-width:21.88077464;stroke-miterlimit:4;stroke-dasharray:none"><path
           d="M 15059.5,208.126 15162.9,1.37895 h 413.5 l 310.1,206.74705 103.4,206.747 -103.4,206.747 H 15473 l -103.4,206.751 103.4,206.749 310.1,206.75 h 413.5 l 103.4,-206.75"
           style="fill:none;stroke:#ff0000;stroke-width:21.88077464;stroke-linecap:round;stroke-linejoin:round;stroke-miterlimit:4;stroke-dasharray:none;stroke-opacity:1"
           id="path80"
           inkscape:connector-curvature="0" /></g><path
         d="M 780.945,1277.01 143.148,1.41797 h 850.395"
         style="fill:none;stroke:#00ff00;stroke-width:22.50000056;stroke-linecap:round;stroke-linejoin:round;stroke-miterlimit:4;stroke-dasharray:none;stroke-opacity:1"
         id="path82"
         inkscape:connector-curvature="0" /><path
         d="m 1418.74,1.41797 h 850.39"
         style="fill:none;stroke:#00ff00;stroke-width:22.50000056;stroke-linecap:round;stroke-linejoin:round;stroke-miterlimit:4;stroke-dasharray:none;stroke-opacity:1"
         id="path84"
         inkscape:connector-curvature="0" /><path
         d="M 1843.94,1.41797 2481.73,1277.01"
         style="fill:none;stroke:#00ff00;stroke-width:22.50000056;stroke-linecap:round;stroke-linejoin:round;stroke-miterlimit:4;stroke-dasharray:none;stroke-opacity:1"
         id="path86"
         inkscape:connector-curvature="0" /><path
         d="m 2056.54,1277.01 h 850.39"
         style="fill:none;stroke:#00ff00;stroke-width:22.50000056;stroke-linecap:round;stroke-linejoin:round;stroke-miterlimit:4;stroke-dasharray:none;stroke-opacity:1"
         id="path88"
         inkscape:connector-curvature="0" /><path
         d="M 3332.13,1277.01 3119.53,851.813 V 1.41797 l 850.39,850.39503 212.6,425.197"
         style="fill:none;stroke:#00ff00;stroke-width:22.50000056;stroke-linecap:round;stroke-linejoin:round;stroke-miterlimit:4;stroke-dasharray:none;stroke-opacity:1"
         id="path90"
         inkscape:connector-curvature="0" /><path
         d="m 3969.92,1.41797 h 850.4"
         style="fill:none;stroke:#00ff00;stroke-width:22.50000056;stroke-linecap:round;stroke-linejoin:round;stroke-miterlimit:4;stroke-dasharray:none;stroke-opacity:1"
         id="path92"
         inkscape:connector-curvature="0" /><path
         d="M 4395.12,1.41797 5032.91,1277.01"
         style="fill:none;stroke:#00ff00;stroke-width:22.50000056;stroke-linecap:round;stroke-linejoin:round;stroke-miterlimit:4;stroke-dasharray:none;stroke-opacity:1"
         id="path94"
         inkscape:connector-curvature="0" /><path
         d="m 4607.72,1277.01 h 850.39"
         style="fill:none;stroke:#00ff00;stroke-width:22.50000056;stroke-linecap:round;stroke-linejoin:round;stroke-miterlimit:4;stroke-dasharray:none;stroke-opacity:1"
         id="path96"
         inkscape:connector-curvature="0" /><path
         d="M 5245.51,1.41797 5883.31,1277.01 6095.91,1.41797 6733.7,1277.01"
         style="fill:none;stroke:#00ff00;stroke-width:22.50000056;stroke-linecap:round;stroke-linejoin:round;stroke-miterlimit:4;stroke-dasharray:none;stroke-opacity:1"
         id="path98"
         inkscape:connector-curvature="0" /><path
         d="m 7902.99,1064.41 -106.29,212.6 H 7371.5 L 7052.6,1064.41 6627.4,214.016 6733.7,1.41797 h 425.2 L 7477.8,214.016 7690.39,639.211 H 7052.6"
         style="fill:none;stroke:#00ff00;stroke-width:22.50000056;stroke-linecap:round;stroke-linejoin:round;stroke-miterlimit:4;stroke-dasharray:none;stroke-opacity:1"
         id="path100"
         inkscape:connector-curvature="0" /><path
         d="M 10029,214.016 9710.08,1.41797 h -425.2 l -106.29,212.59803 425.19,850.394 318.9,212.6 h 425.22 l 106.3,-212.6"
         style="fill:none;stroke:#00ff00;stroke-width:22.50000056;stroke-linecap:round;stroke-linejoin:round;stroke-miterlimit:4;stroke-dasharray:none;stroke-opacity:1"
         id="path102"
         inkscape:connector-curvature="0" /><path
         d="m 10560.5,1.41797 -106.3,212.59803 425.2,850.394 318.9,212.6 h 425.2 l 106.3,-212.6 -425.2,-850.394 -318.9,-212.59803 h -425.2"
         style="fill:none;stroke:#00ff00;stroke-width:22.50000056;stroke-linecap:round;stroke-linejoin:round;stroke-miterlimit:4;stroke-dasharray:none;stroke-opacity:1"
         id="path104"
         inkscape:connector-curvature="0" /><path
         d="M 12261.3,1277.01 11623.5,1.41797 h 850.4"
         style="fill:none;stroke:#00ff00;stroke-width:22.50000056;stroke-linecap:round;stroke-linejoin:round;stroke-miterlimit:4;stroke-dasharray:none;stroke-opacity:1"
         id="path106"
         inkscape:connector-curvature="0" /><path
         d="m 13111.7,1.41797 -106.3,212.59803 425.2,850.394 318.8,212.6 h 425.2 l 106.3,-212.6 -425.1,-850.394 -318.9,-212.59803 h -425.2"
         style="fill:none;stroke:#00ff00;stroke-width:22.50000056;stroke-linecap:round;stroke-linejoin:round;stroke-miterlimit:4;stroke-dasharray:none;stroke-opacity:1"
         id="path108"
         inkscape:connector-curvature="0" /><path
         d="M 14174.6,1.41797 14812.4,1277.01 h 637.8 l 106.3,-212.6 -106.3,-212.597 -318.9,-212.602 h -637.8 212.6 L 15025,1.41797"
         style="fill:none;stroke:#00ff00;stroke-width:22.50000056;stroke-linecap:round;stroke-linejoin:round;stroke-miterlimit:4;stroke-dasharray:none;stroke-opacity:1"
         id="path110"
         inkscape:connector-curvature="0" /><g
         id="g112"
         transform="scale(1.03265)"
         style="stroke-width:21.78860268;stroke-miterlimit:4;stroke-dasharray:none"><path
           d="m 15064.7,207.25 103,-205.87686 h 411.7 l 308.8,205.87686 103,205.876 -103,205.877 h -411.7 l -103,205.88 103,205.877 308.8,205.88 h 411.8 l 102.9,-205.88"
           style="fill:none;stroke:#00ff00;stroke-width:21.78860268;stroke-linecap:round;stroke-linejoin:round;stroke-miterlimit:4;stroke-dasharray:none;stroke-opacity:1"
           id="path114"
           inkscape:connector-curvature="0" /></g><path
         d="M 851.813,1277.01 214.016,1.41797 h 850.394"
         style="fill:none;stroke:#0000ff;stroke-width:22.50000056;stroke-linecap:round;stroke-linejoin:round;stroke-miterlimit:4;stroke-dasharray:none;stroke-opacity:1"
         id="path116"
         inkscape:connector-curvature="0" /><path
         d="M 1489.61,1.41797 H 2340"
         style="fill:none;stroke:#0000ff;stroke-width:22.50000056;stroke-linecap:round;stroke-linejoin:round;stroke-miterlimit:4;stroke-dasharray:none;stroke-opacity:1"
         id="path118"
         inkscape:connector-curvature="0" /><path
         d="M 1914.8,1.41797 2552.6,1277.01"
         style="fill:none;stroke:#0000ff;stroke-width:22.50000056;stroke-linecap:round;stroke-linejoin:round;stroke-miterlimit:4;stroke-dasharray:none;stroke-opacity:1"
         id="path120"
         inkscape:connector-curvature="0" /><path
         d="m 2127.4,1277.01 h 850.4"
         style="fill:none;stroke:#0000ff;stroke-width:22.50000056;stroke-linecap:round;stroke-linejoin:round;stroke-miterlimit:4;stroke-dasharray:none;stroke-opacity:1"
         id="path122"
         inkscape:connector-curvature="0" /><path
         d="M 3402.99,1277.01 3190.39,851.813 V 1.41797 l 850.4,850.39503 212.6,425.197"
         style="fill:none;stroke:#0000ff;stroke-width:22.50000056;stroke-linecap:round;stroke-linejoin:round;stroke-miterlimit:4;stroke-dasharray:none;stroke-opacity:1"
         id="path124"
         inkscape:connector-curvature="0" /><path
         d="m 4040.79,1.41797 h 850.39"
         style="fill:none;stroke:#0000ff;stroke-width:22.50000056;stroke-linecap:round;stroke-linejoin:round;stroke-miterlimit:4;stroke-dasharray:none;stroke-opacity:1"
         id="path126"
         inkscape:connector-curvature="0" /><path
         d="M 4465.98,1.41797 5103.78,1277.01"
         style="fill:none;stroke:#0000ff;stroke-width:22.50000056;stroke-linecap:round;stroke-linejoin:round;stroke-miterlimit:4;stroke-dasharray:none;stroke-opacity:1"
         id="path128"
         inkscape:connector-curvature="0" /><path
         d="m 4678.58,1277.01 h 850.4"
         style="fill:none;stroke:#0000ff;stroke-width:22.50000056;stroke-linecap:round;stroke-linejoin:round;stroke-miterlimit:4;stroke-dasharray:none;stroke-opacity:1"
         id="path130"
         inkscape:connector-curvature="0" /><path
         d="M 5316.38,1.41797 5954.18,1277.01 6166.77,1.41797 6804.57,1277.01"
         style="fill:none;stroke:#0000ff;stroke-width:22.50000056;stroke-linecap:round;stroke-linejoin:round;stroke-miterlimit:4;stroke-dasharray:none;stroke-opacity:1"
         id="path132"
         inkscape:connector-curvature="0" /><path
         d="m 7973.86,1064.41 -106.3,212.6 h -425.2 l -318.9,-212.6 -425.19,-850.394 106.3,-212.59803 h 425.2 l 318.89,212.59803 212.6,425.195 h -637.8"
         style="fill:none;stroke:#0000ff;stroke-width:22.50000056;stroke-linecap:round;stroke-linejoin:round;stroke-miterlimit:4;stroke-dasharray:none;stroke-opacity:1"
         id="path134"
         inkscape:connector-curvature="0" /><path
         d="M 10099.8,214.016 9780.95,1.41797 h -425.2 l -106.3,212.59803 425.2,850.394 318.89,212.6 h 425.16 l 106.3,-212.6"
         style="fill:none;stroke:#0000ff;stroke-width:22.50000056;stroke-linecap:round;stroke-linejoin:round;stroke-miterlimit:4;stroke-dasharray:none;stroke-opacity:1"
         id="path136"
         inkscape:connector-curvature="0" /><path
         d="M 10631.3,1.41797 10525,214.016 l 425.2,850.394 318.9,212.6 h 425.2 l 106.3,-212.6 -425.2,-850.394 -318.9,-212.59803 h -425.2"
         style="fill:none;stroke:#0000ff;stroke-width:22.50000056;stroke-linecap:round;stroke-linejoin:round;stroke-miterlimit:4;stroke-dasharray:none;stroke-opacity:1"
         id="path138"
         inkscape:connector-curvature="0" /><path
         d="M 12332.1,1277.01 11694.3,1.41797 h 850.4"
         style="fill:none;stroke:#0000ff;stroke-width:22.50000056;stroke-linecap:round;stroke-linejoin:round;stroke-miterlimit:4;stroke-dasharray:none;stroke-opacity:1"
         id="path140"
         inkscape:connector-curvature="0" /><path
         d="m 13182.5,1.41797 -106.3,212.59803 425.2,850.394 318.9,212.6 h 425.2 l 106.3,-212.6 -425.2,-850.394 -318.9,-212.59803 h -425.2"
         style="fill:none;stroke:#0000ff;stroke-width:22.50000056;stroke-linecap:round;stroke-linejoin:round;stroke-miterlimit:4;stroke-dasharray:none;stroke-opacity:1"
         id="path142"
         inkscape:connector-curvature="0" /><path
         d="M 14245.5,1.41797 14883.3,1277.01 h 637.8 l 106.3,-212.6 -106.3,-212.597 -318.9,-212.602 h -637.8 212.6 L 15095.9,1.41797"
         style="fill:none;stroke:#0000ff;stroke-width:22.50000056;stroke-linecap:round;stroke-linejoin:round;stroke-miterlimit:4;stroke-dasharray:none;stroke-opacity:1"
         id="path144"
         inkscape:connector-curvature="0" /><g
         id="g146"
         transform="scale(1.03699)"
         style="stroke-width:21.69741325;stroke-miterlimit:4;stroke-dasharray:none"><path
           d="M 15069.9,206.381 15172.4,1.36738 h 410 L 15890,206.381 15992.5,411.394 15890,616.408 h -410.1 l -102.5,205.017 102.5,205.015 307.6,205.01 h 410 l 102.5,-205.01"
           style="fill:none;stroke:#0000ff;stroke-width:21.69741325;stroke-linecap:round;stroke-linejoin:round;stroke-miterlimit:4;stroke-dasharray:none;stroke-opacity:1"
           id="path148"
           inkscape:connector-curvature="0" /></g></g></g></svg>