%!PS-Adobe-2.0 EPSF-2.0
%%Title: /home/gijs/.chiplotle/output/20180423_151516.eps
%%Creator: hp2xx 3.4.4 (c) 1991-1994 by H. Werntges, 1999-2003 by M. Kroeker
%%CreationDate: Mon Apr 23 15:15:16 2018
%%Pages: 1
%%BoundingBox: 0 0 482 619
%%EndComments

%%BeginProcSet:
/PSSave save def
/PSDict 200 dict def
PSDict begin
/@restore /restore load def
/restore
   {vmstatus pop
    dup @VMused lt {pop @VMused} if
    exch pop exch @restore /@VMused exch def
   } def
/@pri
   {
    ( ) print
    (                                       ) cvs print
   } def
/@start
   {
    vmstatus pop /@VMused exch def pop
   } def
/@end
   {(VM Used: ) print @VMused @pri
    (. Unused: ) print vmstatus @VMused sub @pri pop pop
    (\n) print flush
    end
    PSSave restore
   } def
/bop
   {
    /SaveImage save def
   } def
/eop
   {
    showpage
    SaveImage restore
   } def
/@line
   {
%%    1 setlinejoin      %% now set from LA command
%%    1 setmiterlimit    %% now set from LA command
   } def
/@SetPlot
   {
    2.834646 2.834646 scale
      0.050   0.050 translate
     0.100 setlinewidth
   } def
/C {setrgbcolor} def
/D {lineto} def
/M {moveto} def
/S {stroke} def
/W {setlinewidth} def
/Z {stroke newpath} def
end
%%EndProcSet

%%BeginSetup
/#copies 1 def
%%EndSetup
%%Page: 1 1
%%BeginPageSetup
PSDict begin
@start
@line
@SetPlot

bop
%%EndPageSetup
  0.100 W
 S
178.00 -20.00 M  0.100 W
 S
178.00 -20.00 M 1 setlinecap
 S
178.00 -20.00 M 1 setlinejoin
 S
178.00 -20.00 M  0.000  0.000  0.000 C
 S
158.00  48.15 M 156.01  50.00 D S
158.00  46.28 M 154.01  50.00 D S
158.00  44.42 M 152.01  50.00 D S
158.00  42.55 M 150.01  50.00 D S
158.00  40.69 M 148.01  50.00 D S
158.00  38.82 M 146.01  50.00 D S
158.00  36.96 M 144.01  50.00 D S
158.00  35.09 M 142.01  50.00 D S
158.00  33.23 M 140.01  50.00 D S
158.00  31.36 M 138.01  50.00 D S
158.00  29.50 M 136.01  50.00 D S
158.00  27.63 M 134.01  50.00 D S
158.00  25.77 M 132.01  50.00 D S
158.00  23.90 M 130.01  50.00 D S
158.00  22.04 M 128.01  50.00 D S
158.00  20.17 M 126.01  50.00 D S
158.00  18.31 M 124.01  50.00 D S
158.00  16.44 M 122.01  50.00 D S
158.00  14.58 M 120.01  50.00 D S
158.00  12.71 M 118.01  50.00 D S
158.00  10.85 M 116.01  50.00 D S
158.00   8.98 M 114.01  50.00 D S
158.00   7.12 M 112.01  50.00 D S
158.00   5.25 M 110.01  50.00 D S
158.00   3.39 M 108.01  50.00 D S
158.00   1.52 M 108.00  48.15 D S
157.63   0.00 M 108.00  46.28 D S
155.63   0.00 M 108.00  44.42 D S
153.63   0.00 M 108.00  42.55 D S
151.63   0.00 M 108.00  40.69 D S
149.63   0.00 M 108.00  38.82 D S
147.63   0.00 M 108.00  36.96 D S
145.63   0.00 M 108.00  35.09 D S
143.63   0.00 M 108.00  33.23 D S
141.63   0.00 M 108.00  31.36 D S
139.63   0.00 M 108.00  29.50 D S
137.63   0.00 M 108.00  27.63 D S
135.63   0.00 M 108.00  25.77 D S
133.63   0.00 M 108.00  23.90 D S
131.63   0.00 M 108.00  22.04 D S
129.63   0.00 M 108.00  20.17 D S
127.63   0.00 M 108.00  18.31 D S
125.63   0.00 M 108.00  16.44 D S
123.63   0.00 M 108.00  14.58 D S
121.63   0.00 M 108.00  12.71 D S
119.63   0.00 M 108.00  10.85 D S
117.63   0.00 M 108.00   8.98 D S
115.63   0.00 M 108.00   7.12 D S
113.63   0.00 M 108.00   5.25 D S
111.63   0.00 M 108.00   3.39 D S
109.63   0.00 M 108.00   1.52 D S
169.88   1.05 M 169.88   3.15 D S
169.88   2.10 M 160.97   2.10 D 162.46   1.05 D S
158.00 104.15 M 156.01 106.00 D S
158.00 102.28 M 154.01 106.00 D S
158.00 100.42 M 152.01 106.00 D S
158.00  98.55 M 150.01 106.00 D S
158.00  96.69 M 148.01 106.00 D S
158.00  94.82 M 146.01 106.00 D S
158.00  92.96 M 144.01 106.00 D S
158.00  91.09 M 142.01 106.00 D S
158.00  89.23 M 140.01 106.00 D S
158.00  87.36 M 138.01 106.00 D S
158.00  85.50 M 136.01 106.00 D S
158.00  83.63 M 134.01 106.00 D S
158.00  81.77 M 132.01 106.00 D S
158.00  79.90 M 130.01 106.00 D S
158.00  78.04 M 128.01 106.00 D S
158.00  76.17 M 126.01 106.00 D S
158.00  74.31 M 124.01 106.00 D S
158.00  72.44 M 122.01 106.00 D S
158.00  70.58 M 120.01 106.00 D S
158.00  68.71 M 118.01 106.00 D S
158.00  66.85 M 116.01 106.00 D S
158.00  64.98 M 114.01 106.00 D S
158.00  63.12 M 112.01 106.00 D S
158.00  61.25 M 110.01 106.00 D S
158.00  59.39 M 108.01 106.00 D S
158.00  57.52 M 108.00 104.15 D S
157.63  56.00 M 108.00 102.28 D S
155.63  56.00 M 108.00 100.42 D S
153.63  56.00 M 108.00  98.55 D S
151.63  56.00 M 108.00  96.69 D S
149.63  56.00 M 108.00  94.82 D S
147.63  56.00 M 108.00  92.96 D S
145.63  56.00 M 108.00  91.09 D S
143.63  56.00 M 108.00  89.23 D S
141.63  56.00 M 108.00  87.36 D S
139.63  56.00 M 108.00  85.50 D S
137.63  56.00 M 108.00  83.63 D S
135.63  56.00 M 108.00  81.77 D S
133.63  56.00 M 108.00  79.90 D S
131.63  56.00 M 108.00  78.04 D S
129.63  56.00 M 108.00  76.17 D S
127.63  56.00 M 108.00  74.31 D S
125.63  56.00 M 108.00  72.44 D S
123.63  56.00 M 108.00  70.58 D S
121.63  56.00 M 108.00  68.71 D S
119.63  56.00 M 108.00  66.85 D S
117.63  56.00 M 108.00  64.98 D S
115.63  56.00 M 108.00  63.12 D S
113.63  56.00 M 108.00  61.25 D S
111.63  56.00 M 108.00  59.39 D S
109.63  56.00 M 108.00  57.52 D S
169.88  57.05 M 169.88  59.15 D S
169.88  58.10 M 160.97  58.10 D 162.46  57.05 D S
158.00 160.15 M 156.01 162.00 D S
158.00 158.28 M 154.01 162.00 D S
158.00 156.42 M 152.01 162.00 D S
158.00 154.55 M 150.01 162.00 D S
158.00 152.69 M 148.01 162.00 D S
158.00 150.82 M 146.01 162.00 D S
158.00 148.96 M 144.01 162.00 D S
158.00 147.09 M 142.01 162.00 D S
158.00 145.23 M 140.01 162.00 D S
158.00 143.36 M 138.01 162.00 D S
158.00 141.50 M 136.01 162.00 D S
158.00 139.63 M 134.01 162.00 D S
158.00 137.77 M 132.01 162.00 D S
158.00 135.90 M 130.01 162.00 D S
158.00 134.04 M 128.01 162.00 D S
158.00 132.17 M 126.01 162.00 D S
158.00 130.31 M 124.01 162.00 D S
158.00 128.44 M 122.01 162.00 D S
158.00 126.58 M 120.01 162.00 D S
158.00 124.71 M 118.01 162.00 D S
158.00 122.85 M 116.01 162.00 D S
158.00 120.98 M 114.01 162.00 D S
158.00 119.12 M 112.01 162.00 D S
158.00 117.25 M 110.01 162.00 D S
158.00 115.39 M 108.01 162.00 D S
158.00 113.52 M 108.00 160.15 D S
157.63 112.00 M 108.00 158.28 D S
155.63 112.00 M 108.00 156.42 D S
153.63 112.00 M 108.00 154.55 D S
151.63 112.00 M 108.00 152.69 D S
149.63 112.00 M 108.00 150.82 D S
147.63 112.00 M 108.00 148.96 D S
145.63 112.00 M 108.00 147.09 D S
143.63 112.00 M 108.00 145.23 D S
141.63 112.00 M 108.00 143.36 D S
139.63 112.00 M 108.00 141.50 D S
137.63 112.00 M 108.00 139.63 D S
135.63 112.00 M 108.00 137.77 D S
133.63 112.00 M 108.00 135.90 D S
131.63 112.00 M 108.00 134.04 D S
129.63 112.00 M 108.00 132.17 D S
127.63 112.00 M 108.00 130.31 D S
125.63 112.00 M 108.00 128.44 D S
123.63 112.00 M 108.00 126.58 D S
121.63 112.00 M 108.00 124.71 D S
119.63 112.00 M 108.00 122.85 D S
117.63 112.00 M 108.00 120.98 D S
115.63 112.00 M 108.00 119.12 D S
113.63 112.00 M 108.00 117.25 D S
111.63 112.00 M 108.00 115.39 D S
109.63 112.00 M 108.00 113.52 D S
169.88 113.05 M 169.88 115.15 D S
169.88 114.10 M 160.97 114.10 D 162.46 113.05 D S
158.00 216.15 M 156.01 218.00 D S
158.00 214.28 M 154.01 218.00 D S
158.00 212.42 M 152.01 218.00 D S
158.00 210.55 M 150.01 218.00 D S
158.00 208.69 M 148.01 218.00 D S
158.00 206.82 M 146.01 218.00 D S
158.00 204.96 M 144.01 218.00 D S
158.00 203.09 M 142.01 218.00 D S
158.00 201.23 M 140.01 218.00 D S
158.00 199.36 M 138.01 218.00 D S
158.00 197.50 M 136.01 218.00 D S
158.00 195.63 M 134.01 218.00 D S
158.00 193.77 M 132.01 218.00 D S
158.00 191.90 M 130.01 218.00 D S
158.00 190.04 M 128.01 218.00 D S
158.00 188.17 M 126.01 218.00 D S
158.00 186.31 M 124.01 218.00 D S
158.00 184.44 M 122.01 218.00 D S
158.00 182.58 M 120.01 218.00 D S
158.00 180.71 M 118.01 218.00 D S
158.00 178.85 M 116.01 218.00 D S
158.00 176.98 M 114.01 218.00 D S
158.00 175.12 M 112.01 218.00 D S
158.00 173.25 M 110.01 218.00 D S
158.00 171.39 M 108.01 218.00 D S
158.00 169.52 M 108.00 216.15 D S
157.63 168.00 M 108.00 214.28 D S
155.63 168.00 M 108.00 212.42 D S
153.63 168.00 M 108.00 210.55 D S
151.63 168.00 M 108.00 208.69 D S
149.63 168.00 M 108.00 206.82 D S
147.63 168.00 M 108.00 204.96 D S
145.63 168.00 M 108.00 203.09 D S
143.63 168.00 M 108.00 201.23 D S
141.63 168.00 M 108.00 199.36 D S
139.63 168.00 M 108.00 197.50 D S
137.63 168.00 M 108.00 195.63 D S
135.63 168.00 M 108.00 193.77 D S
133.63 168.00 M 108.00 191.90 D S
131.63 168.00 M 108.00 190.04 D S
129.63 168.00 M 108.00 188.17 D S
127.63 168.00 M 108.00 186.31 D S
125.63 168.00 M 108.00 184.44 D S
123.63 168.00 M 108.00 182.58 D S
121.63 168.00 M 108.00 180.71 D S
119.63 168.00 M 108.00 178.85 D S
117.63 168.00 M 108.00 176.98 D S
115.63 168.00 M 108.00 175.12 D S
113.63 168.00 M 108.00 173.25 D S
111.63 168.00 M 108.00 171.39 D S
109.63 168.00 M 108.00 169.52 D S
169.88 169.05 M 169.88 171.15 D S
169.88 170.10 M 160.97 170.10 D 162.46 169.05 D S
104.00  48.15 M 102.01  50.00 D S
104.00  46.28 M 100.01  50.00 D S
104.00  44.42 M  98.01  50.00 D S
104.00  42.55 M  96.01  50.00 D S
104.00  40.69 M  94.01  50.00 D S
104.00  38.82 M  92.01  50.00 D S
104.00  36.96 M  90.01  50.00 D S
104.00  35.09 M  88.01  50.00 D S
104.00  33.23 M  86.01  50.00 D S
104.00  31.36 M  84.01  50.00 D S
104.00  29.50 M  82.01  50.00 D S
104.00  27.63 M  80.01  50.00 D S
104.00  25.77 M  78.01  50.00 D S
104.00  23.90 M  76.01  50.00 D S
104.00  22.04 M  74.01  50.00 D S
104.00  20.17 M  72.01  50.00 D S
104.00  18.31 M  70.01  50.00 D S
104.00  16.44 M  68.01  50.00 D S
104.00  14.58 M  66.01  50.00 D S
104.00  12.71 M  64.01  50.00 D S
104.00  10.85 M  62.01  50.00 D S
104.00   8.98 M  60.01  50.00 D S
104.00   7.12 M  58.01  50.00 D S
104.00   5.25 M  56.01  50.00 D S
104.00   3.39 M  54.01  50.00 D S
104.00   1.52 M  54.00  48.15 D S
103.63   0.00 M  54.00  46.28 D S
101.63   0.00 M  54.00  44.42 D S
 99.63   0.00 M  54.00  42.55 D S
 97.63   0.00 M  54.00  40.69 D S
 95.63   0.00 M  54.00  38.82 D S
 93.63   0.00 M  54.00  36.96 D S
 91.63   0.00 M  54.00  35.09 D S
 89.63   0.00 M  54.00  33.23 D S
 87.63   0.00 M  54.00  31.36 D S
 85.63   0.00 M  54.00  29.50 D S
 83.63   0.00 M  54.00  27.63 D S
 81.63   0.00 M  54.00  25.77 D S
 79.63   0.00 M  54.00  23.90 D S
 77.63   0.00 M  54.00  22.04 D S
 75.63   0.00 M  54.00  20.17 D S
 73.63   0.00 M  54.00  18.31 D S
 71.63   0.00 M  54.00  16.44 D S
 69.63   0.00 M  54.00  14.58 D S
 67.63   0.00 M  54.00  12.71 D S
 65.63   0.00 M  54.00  10.85 D S
 63.63   0.00 M  54.00   8.98 D S
 61.63   0.00 M  54.00   7.12 D S
 59.63   0.00 M  54.00   5.25 D S
 57.63   0.00 M  54.00   3.39 D S
 55.63   0.00 M  54.00   1.52 D S
115.88   1.05 M 115.88   3.15 D S
115.88   2.10 M 106.97   2.10 D 108.46   1.05 D S
104.00 104.15 M 102.01 106.00 D S
104.00 102.28 M 100.01 106.00 D S
104.00 100.42 M  98.01 106.00 D S
104.00  98.55 M  96.01 106.00 D S
104.00  96.69 M  94.01 106.00 D S
104.00  94.82 M  92.01 106.00 D S
104.00  92.96 M  90.01 106.00 D S
104.00  91.09 M  88.01 106.00 D S
104.00  89.23 M  86.01 106.00 D S
104.00  87.36 M  84.01 106.00 D S
104.00  85.50 M  82.01 106.00 D S
104.00  83.63 M  80.01 106.00 D S
104.00  81.77 M  78.01 106.00 D S
104.00  79.90 M  76.01 106.00 D S
104.00  78.04 M  74.01 106.00 D S
104.00  76.17 M  72.01 106.00 D S
104.00  74.31 M  70.01 106.00 D S
104.00  72.44 M  68.01 106.00 D S
104.00  70.58 M  66.01 106.00 D S
104.00  68.71 M  64.01 106.00 D S
104.00  66.85 M  62.01 106.00 D S
104.00  64.98 M  60.01 106.00 D S
104.00  63.12 M  58.01 106.00 D S
104.00  61.25 M  56.01 106.00 D S
104.00  59.39 M  54.01 106.00 D S
104.00  57.52 M  54.00 104.15 D S
103.63  56.00 M  54.00 102.28 D S
101.63  56.00 M  54.00 100.42 D S
 99.63  56.00 M  54.00  98.55 D S
 97.63  56.00 M  54.00  96.69 D S
 95.63  56.00 M  54.00  94.82 D S
 93.63  56.00 M  54.00  92.96 D S
 91.63  56.00 M  54.00  91.09 D S
 89.63  56.00 M  54.00  89.23 D S
 87.63  56.00 M  54.00  87.36 D S
 85.63  56.00 M  54.00  85.50 D S
 83.63  56.00 M  54.00  83.63 D S
 81.63  56.00 M  54.00  81.77 D S
 79.63  56.00 M  54.00  79.90 D S
 77.63  56.00 M  54.00  78.04 D S
 75.63  56.00 M  54.00  76.17 D S
 73.63  56.00 M  54.00  74.31 D S
 71.63  56.00 M  54.00  72.44 D S
 69.63  56.00 M  54.00  70.58 D S
 67.63  56.00 M  54.00  68.71 D S
 65.63  56.00 M  54.00  66.85 D S
 63.63  56.00 M  54.00  64.98 D S
 61.63  56.00 M  54.00  63.12 D S
 59.63  56.00 M  54.00  61.25 D S
 57.63  56.00 M  54.00  59.39 D S
 55.63  56.00 M  54.00  57.52 D S
115.88  57.05 M 115.88  59.15 D S
115.88  58.10 M 106.97  58.10 D 108.46  57.05 D S
104.00 160.15 M 102.01 162.00 D S
104.00 158.28 M 100.01 162.00 D S
104.00 156.42 M  98.01 162.00 D S
104.00 154.55 M  96.01 162.00 D S
104.00 152.69 M  94.01 162.00 D S
104.00 150.82 M  92.01 162.00 D S
104.00 148.96 M  90.01 162.00 D S
104.00 147.09 M  88.01 162.00 D S
104.00 145.23 M  86.01 162.00 D S
104.00 143.36 M  84.01 162.00 D S
104.00 141.50 M  82.01 162.00 D S
104.00 139.63 M  80.01 162.00 D S
104.00 137.77 M  78.01 162.00 D S
104.00 135.90 M  76.01 162.00 D S
104.00 134.04 M  74.01 162.00 D S
104.00 132.17 M  72.01 162.00 D S
104.00 130.31 M  70.01 162.00 D S
104.00 128.44 M  68.01 162.00 D S
104.00 126.58 M  66.01 162.00 D S
104.00 124.71 M  64.01 162.00 D S
104.00 122.85 M  62.01 162.00 D S
104.00 120.98 M  60.01 162.00 D S
104.00 119.12 M  58.01 162.00 D S
104.00 117.25 M  56.01 162.00 D S
104.00 115.39 M  54.01 162.00 D S
104.00 113.52 M  54.00 160.15 D S
103.63 112.00 M  54.00 158.28 D S
101.63 112.00 M  54.00 156.42 D S
 99.63 112.00 M  54.00 154.55 D S
 97.63 112.00 M  54.00 152.69 D S
 95.63 112.00 M  54.00 150.82 D S
 93.63 112.00 M  54.00 148.96 D S
 91.63 112.00 M  54.00 147.09 D S
 89.63 112.00 M  54.00 145.23 D S
 87.63 112.00 M  54.00 143.36 D S
 85.63 112.00 M  54.00 141.50 D S
 83.63 112.00 M  54.00 139.63 D S
 81.63 112.00 M  54.00 137.77 D S
 79.63 112.00 M  54.00 135.90 D S
 77.63 112.00 M  54.00 134.04 D S
 75.63 112.00 M  54.00 132.17 D S
 73.63 112.00 M  54.00 130.31 D S
 71.63 112.00 M  54.00 128.44 D S
 69.63 112.00 M  54.00 126.58 D S
 67.63 112.00 M  54.00 124.71 D S
 65.63 112.00 M  54.00 122.85 D S
 63.63 112.00 M  54.00 120.98 D S
 61.63 112.00 M  54.00 119.12 D S
 59.63 112.00 M  54.00 117.25 D S
 57.63 112.00 M  54.00 115.39 D S
 55.63 112.00 M  54.00 113.52 D S
115.88 113.05 M 115.88 115.15 D S
115.88 114.10 M 106.97 114.10 D 108.46 113.05 D S
104.00 216.15 M 102.01 218.00 D S
104.00 214.28 M 100.01 218.00 D S
104.00 212.42 M  98.01 218.00 D S
104.00 210.55 M  96.01 218.00 D S
104.00 208.69 M  94.01 218.00 D S
104.00 206.82 M  92.01 218.00 D S
104.00 204.96 M  90.01 218.00 D S
104.00 203.09 M  88.01 218.00 D S
104.00 201.23 M  86.01 218.00 D S
104.00 199.36 M  84.01 218.00 D S
104.00 197.50 M  82.01 218.00 D S
104.00 195.63 M  80.01 218.00 D S
104.00 193.77 M  78.01 218.00 D S
104.00 191.90 M  76.01 218.00 D S
104.00 190.04 M  74.01 218.00 D S
104.00 188.17 M  72.01 218.00 D S
104.00 186.31 M  70.01 218.00 D S
104.00 184.44 M  68.01 218.00 D S
104.00 182.58 M  66.01 218.00 D S
104.00 180.71 M  64.01 218.00 D S
104.00 178.85 M  62.01 218.00 D S
104.00 176.98 M  60.01 218.00 D S
104.00 175.12 M  58.01 218.00 D S
104.00 173.25 M  56.01 218.00 D S
104.00 171.39 M  54.01 218.00 D S
104.00 169.52 M  54.00 216.15 D S
103.63 168.00 M  54.00 214.28 D S
101.63 168.00 M  54.00 212.42 D S
 99.63 168.00 M  54.00 210.55 D S
 97.63 168.00 M  54.00 208.69 D S
 95.63 168.00 M  54.00 206.82 D S
 93.63 168.00 M  54.00 204.96 D S
 91.63 168.00 M  54.00 203.09 D S
 89.63 168.00 M  54.00 201.23 D S
 87.63 168.00 M  54.00 199.36 D S
 85.63 168.00 M  54.00 197.50 D S
 83.63 168.00 M  54.00 195.63 D S
 81.63 168.00 M  54.00 193.77 D S
 79.63 168.00 M  54.00 191.90 D S
 77.63 168.00 M  54.00 190.04 D S
 75.63 168.00 M  54.00 188.17 D S
 73.63 168.00 M  54.00 186.31 D S
 71.63 168.00 M  54.00 184.44 D S
 69.63 168.00 M  54.00 182.58 D S
 67.63 168.00 M  54.00 180.71 D S
 65.63 168.00 M  54.00 178.85 D S
 63.63 168.00 M  54.00 176.98 D S
 61.63 168.00 M  54.00 175.12 D S
 59.63 168.00 M  54.00 173.25 D S
 57.63 168.00 M  54.00 171.39 D S
 55.63 168.00 M  54.00 169.52 D S
115.88 169.05 M 115.88 171.15 D S
115.88 170.10 M 106.97 170.10 D 108.46 169.05 D S
 50.00  48.15 M  48.01  50.00 D S
 50.00  46.28 M  46.01  50.00 D S
 50.00  44.42 M  44.01  50.00 D S
 50.00  42.55 M  42.01  50.00 D S
 50.00  40.69 M  40.01  50.00 D S
 50.00  38.82 M  38.01  50.00 D S
 50.00  36.96 M  36.01  50.00 D S
 50.00  35.09 M  34.01  50.00 D S
 50.00  33.23 M  32.01  50.00 D S
 50.00  31.36 M  30.01  50.00 D S
 50.00  29.50 M  28.01  50.00 D S
 50.00  27.63 M  26.01  50.00 D S
 50.00  25.77 M  24.01  50.00 D S
 50.00  23.90 M  22.01  50.00 D S
 50.00  22.04 M  20.01  50.00 D S
 50.00  20.17 M  18.01  50.00 D S
 50.00  18.31 M  16.01  50.00 D S
 50.00  16.44 M  14.01  50.00 D S
 50.00  14.58 M  12.01  50.00 D S
 50.00  12.71 M  10.01  50.00 D S
 50.00  10.85 M   8.01  50.00 D S
 50.00   8.98 M   6.01  50.00 D S
 50.00   7.12 M   4.01  50.00 D S
 50.00   5.25 M   2.01  50.00 D S
 50.00   3.39 M   0.01  50.00 D S
 50.00   1.52 M   0.00  48.15 D S
 49.63   0.00 M   0.00  46.28 D S
 47.63   0.00 M   0.00  44.42 D S
 45.63   0.00 M   0.00  42.55 D S
 43.63   0.00 M   0.00  40.69 D S
 41.63   0.00 M   0.00  38.82 D S
 39.63   0.00 M   0.00  36.96 D S
 37.63   0.00 M   0.00  35.09 D S
 35.63   0.00 M   0.00  33.23 D S
 33.63   0.00 M   0.00  31.36 D S
 31.63   0.00 M   0.00  29.50 D S
 29.63   0.00 M   0.00  27.63 D S
 27.63   0.00 M   0.00  25.77 D S
 25.63   0.00 M   0.00  23.90 D S
 23.63   0.00 M   0.00  22.04 D S
 21.63   0.00 M   0.00  20.17 D S
 19.63   0.00 M   0.00  18.31 D S
 17.63   0.00 M   0.00  16.44 D S
 15.63   0.00 M   0.00  14.58 D S
 13.63   0.00 M   0.00  12.71 D S
 11.63   0.00 M   0.00  10.85 D S
  9.63   0.00 M   0.00   8.98 D S
  7.63   0.00 M   0.00   7.12 D S
  5.63   0.00 M   0.00   5.25 D S
  3.63   0.00 M   0.00   3.39 D S
  1.63   0.00 M   0.00   1.52 D S
 61.88   1.05 M  61.88   3.15 D S
 61.88   2.10 M  52.97   2.10 D  54.46   1.05 D S
 50.00 104.15 M  48.01 106.00 D S
 50.00 102.28 M  46.01 106.00 D S
 50.00 100.42 M  44.01 106.00 D S
 50.00  98.55 M  42.01 106.00 D S
 50.00  96.69 M  40.01 106.00 D S
 50.00  94.82 M  38.01 106.00 D S
 50.00  92.96 M  36.01 106.00 D S
 50.00  91.09 M  34.01 106.00 D S
 50.00  89.23 M  32.01 106.00 D S
 50.00  87.36 M  30.01 106.00 D S
 50.00  85.50 M  28.01 106.00 D S
 50.00  83.63 M  26.01 106.00 D S
 50.00  81.77 M  24.01 106.00 D S
 50.00  79.90 M  22.01 106.00 D S
 50.00  78.04 M  20.01 106.00 D S
 50.00  76.17 M  18.01 106.00 D S
 50.00  74.31 M  16.01 106.00 D S
 50.00  72.44 M  14.01 106.00 D S
 50.00  70.58 M  12.01 106.00 D S
 50.00  68.71 M  10.01 106.00 D S
 50.00  66.85 M   8.01 106.00 D S
 50.00  64.98 M   6.01 106.00 D S
 50.00  63.12 M   4.01 106.00 D S
 50.00  61.25 M   2.01 106.00 D S
 50.00  59.39 M   0.01 106.00 D S
 50.00  57.52 M   0.00 104.15 D S
 49.63  56.00 M   0.00 102.28 D S
 47.63  56.00 M   0.00 100.42 D S
 45.63  56.00 M   0.00  98.55 D S
 43.63  56.00 M   0.00  96.69 D S
 41.63  56.00 M   0.00  94.82 D S
 39.63  56.00 M   0.00  92.96 D S
 37.63  56.00 M   0.00  91.09 D S
 35.63  56.00 M   0.00  89.23 D S
 33.63  56.00 M   0.00  87.36 D S
 31.63  56.00 M   0.00  85.50 D S
 29.63  56.00 M   0.00  83.63 D S
 27.63  56.00 M   0.00  81.77 D S
 25.63  56.00 M   0.00  79.90 D S
 23.63  56.00 M   0.00  78.04 D S
 21.63  56.00 M   0.00  76.17 D S
 19.63  56.00 M   0.00  74.31 D S
 17.63  56.00 M   0.00  72.44 D S
 15.63  56.00 M   0.00  70.58 D S
 13.63  56.00 M   0.00  68.71 D S
 11.63  56.00 M   0.00  66.85 D S
  9.63  56.00 M   0.00  64.98 D S
  7.63  56.00 M   0.00  63.12 D S
  5.63  56.00 M   0.00  61.25 D S
  3.63  56.00 M   0.00  59.39 D S
  1.63  56.00 M   0.00  57.52 D S
 61.88  57.05 M  61.88  59.15 D S
 61.88  58.10 M  52.97  58.10 D  54.46  57.05 D S
 50.00 160.15 M  48.01 162.00 D S
 50.00 158.28 M  46.01 162.00 D S
 50.00 156.42 M  44.01 162.00 D S
 50.00 154.55 M  42.01 162.00 D S
 50.00 152.69 M  40.01 162.00 D S
 50.00 150.82 M  38.01 162.00 D S
 50.00 148.96 M  36.01 162.00 D S
 50.00 147.09 M  34.01 162.00 D S
 50.00 145.23 M  32.01 162.00 D S
 50.00 143.36 M  30.01 162.00 D S
 50.00 141.50 M  28.01 162.00 D S
 50.00 139.63 M  26.01 162.00 D S
 50.00 137.77 M  24.01 162.00 D S
 50.00 135.90 M  22.01 162.00 D S
 50.00 134.04 M  20.01 162.00 D S
 50.00 132.17 M  18.01 162.00 D S
 50.00 130.31 M  16.01 162.00 D S
 50.00 128.44 M  14.01 162.00 D S
 50.00 126.58 M  12.01 162.00 D S
 50.00 124.71 M  10.01 162.00 D S
 50.00 122.85 M   8.01 162.00 D S
 50.00 120.98 M   6.01 162.00 D S
 50.00 119.12 M   4.01 162.00 D S
 50.00 117.25 M   2.01 162.00 D S
 50.00 115.39 M   0.01 162.00 D S
 50.00 113.52 M   0.00 160.15 D S
 49.63 112.00 M   0.00 158.28 D S
 47.63 112.00 M   0.00 156.42 D S
 45.63 112.00 M   0.00 154.55 D S
 43.63 112.00 M   0.00 152.69 D S
 41.63 112.00 M   0.00 150.82 D S
 39.63 112.00 M   0.00 148.96 D S
 37.63 112.00 M   0.00 147.09 D S
 35.63 112.00 M   0.00 145.23 D S
 33.63 112.00 M   0.00 143.36 D S
 31.63 112.00 M   0.00 141.50 D S
 29.63 112.00 M   0.00 139.63 D S
 27.63 112.00 M   0.00 137.77 D S
 25.63 112.00 M   0.00 135.90 D S
 23.63 112.00 M   0.00 134.04 D S
 21.63 112.00 M   0.00 132.17 D S
 19.63 112.00 M   0.00 130.31 D S
 17.63 112.00 M   0.00 128.44 D S
 15.63 112.00 M   0.00 126.58 D S
 13.63 112.00 M   0.00 124.71 D S
 11.63 112.00 M   0.00 122.85 D S
  9.63 112.00 M   0.00 120.98 D S
  7.63 112.00 M   0.00 119.12 D S
  5.63 112.00 M   0.00 117.25 D S
  3.63 112.00 M   0.00 115.39 D S
  1.63 112.00 M   0.00 113.52 D S
 61.88 113.05 M  61.88 115.15 D S
 61.88 114.10 M  52.97 114.10 D  54.46 113.05 D S
 50.00 216.15 M  48.01 218.00 D S
 50.00 214.28 M  46.01 218.00 D S
 50.00 212.42 M  44.01 218.00 D S
 50.00 210.55 M  42.01 218.00 D S
 50.00 208.69 M  40.01 218.00 D S
 50.00 206.82 M  38.01 218.00 D S
 50.00 204.96 M  36.01 218.00 D S
 50.00 203.09 M  34.01 218.00 D S
 50.00 201.23 M  32.01 218.00 D S
 50.00 199.36 M  30.01 218.00 D S
 50.00 197.50 M  28.01 218.00 D S
 50.00 195.63 M  26.01 218.00 D S
 50.00 193.77 M  24.01 218.00 D S
 50.00 191.90 M  22.01 218.00 D S
 50.00 190.04 M  20.01 218.00 D S
 50.00 188.17 M  18.01 218.00 D S
 50.00 186.31 M  16.01 218.00 D S
 50.00 184.44 M  14.01 218.00 D S
 50.00 182.58 M  12.01 218.00 D S
 50.00 180.71 M  10.01 218.00 D S
 50.00 178.85 M   8.01 218.00 D S
 50.00 176.98 M   6.01 218.00 D S
 50.00 175.12 M   4.01 218.00 D S
 50.00 173.25 M   2.01 218.00 D S
 50.00 171.39 M   0.01 218.00 D S
 50.00 169.52 M   0.00 216.15 D S
 49.63 168.00 M   0.00 214.28 D S
 47.63 168.00 M   0.00 212.42 D S
 45.63 168.00 M   0.00 210.55 D S
 43.63 168.00 M   0.00 208.69 D S
 41.63 168.00 M   0.00 206.82 D S
 39.63 168.00 M   0.00 204.96 D S
 37.63 168.00 M   0.00 203.09 D S
 35.63 168.00 M   0.00 201.23 D S
 33.63 168.00 M   0.00 199.36 D S
 31.63 168.00 M   0.00 197.50 D S
 29.63 168.00 M   0.00 195.63 D S
 27.63 168.00 M   0.00 193.77 D S
 25.63 168.00 M   0.00 191.90 D S
 23.63 168.00 M   0.00 190.04 D S
 21.63 168.00 M   0.00 188.17 D S
 19.63 168.00 M   0.00 186.31 D S
 17.63 168.00 M   0.00 184.44 D S
 15.63 168.00 M   0.00 182.58 D S
 13.63 168.00 M   0.00 180.71 D S
 11.63 168.00 M   0.00 178.85 D S
  9.63 168.00 M   0.00 176.98 D S
  7.63 168.00 M   0.00 175.12 D S
  5.63 168.00 M   0.00 173.25 D S
  3.63 168.00 M   0.00 171.39 D S
  1.63 168.00 M   0.00 169.52 D S
 61.88 169.05 M  61.88 171.15 D S
 61.88 170.10 M  52.97 170.10 D  54.46 169.05 D S
 54.46 169.05 M  1.000  0.000  0.000 C
 S
158.00  48.27 M 156.01  50.00 D S
158.00  46.53 M 154.01  50.00 D S
158.00  44.80 M 152.01  50.00 D S
158.00  43.06 M 150.01  50.00 D S
158.00  41.32 M 148.01  50.00 D S
158.00  39.58 M 146.01  50.00 D S
158.00  37.84 M 144.01  50.00 D S
158.00  36.10 M 142.01  50.00 D S
158.00  34.36 M 140.01  50.00 D S
158.00  32.63 M 138.01  50.00 D S
158.00  30.89 M 136.01  50.00 D S
158.00  29.15 M 134.01  50.00 D S
158.00  27.41 M 132.01  50.00 D S
158.00  25.67 M 130.01  50.00 D S
158.00  23.93 M 128.01  50.00 D S
158.00  22.19 M 126.01  50.00 D S
158.00  20.46 M 124.01  50.00 D S
158.00  18.72 M 122.01  50.00 D S
158.00  16.98 M 120.01  50.00 D S
158.00  15.24 M 118.01  50.00 D S
158.00  13.50 M 116.01  50.00 D S
158.00  11.76 M 114.01  50.00 D S
158.00  10.02 M 112.01  50.00 D S
158.00   8.29 M 110.01  50.00 D S
158.00   6.55 M 108.01  50.00 D S
158.00   4.81 M 108.00  48.27 D S
158.00   3.07 M 108.00  46.53 D S
158.00   1.33 M 108.00  44.80 D S
157.53   0.00 M 108.00  43.06 D S
155.53   0.00 M 108.00  41.32 D S
153.53   0.00 M 108.00  39.58 D S
151.53   0.00 M 108.00  37.84 D S
149.53   0.00 M 108.00  36.10 D S
147.53   0.00 M 108.00  34.36 D S
145.53   0.00 M 108.00  32.63 D S
143.53   0.00 M 108.00  30.89 D S
141.53   0.00 M 108.00  29.15 D S
139.53   0.00 M 108.00  27.41 D S
137.53   0.00 M 108.00  25.67 D S
135.53   0.00 M 108.00  23.93 D S
133.53   0.00 M 108.00  22.19 D S
131.53   0.00 M 108.00  20.46 D S
129.53   0.00 M 108.00  18.72 D S
127.53   0.00 M 108.00  16.98 D S
125.53   0.00 M 108.00  15.24 D S
123.53   0.00 M 108.00  13.50 D S
121.53   0.00 M 108.00  11.76 D S
119.53   0.00 M 108.00  10.02 D S
117.53   0.00 M 108.00   8.29 D S
115.53   0.00 M 108.00   6.55 D S
113.53   0.00 M 108.00   4.81 D S
111.53   0.00 M 108.00   3.07 D S
109.53   0.00 M 108.00   1.33 D S
162.46  10.00 M 160.97  11.05 D 160.97  13.15 D 162.46  14.20 D 163.94  14.20 D
168.40  10.00 D 169.88  10.00 D 169.88  14.20 D S
158.00 104.27 M 156.01 106.00 D S
158.00 102.53 M 154.01 106.00 D S
158.00 100.80 M 152.01 106.00 D S
158.00  99.06 M 150.01 106.00 D S
158.00  97.32 M 148.01 106.00 D S
158.00  95.58 M 146.01 106.00 D S
158.00  93.84 M 144.01 106.00 D S
158.00  92.10 M 142.01 106.00 D S
158.00  90.36 M 140.01 106.00 D S
158.00  88.63 M 138.01 106.00 D S
158.00  86.89 M 136.01 106.00 D S
158.00  85.15 M 134.01 106.00 D S
158.00  83.41 M 132.01 106.00 D S
158.00  81.67 M 130.01 106.00 D S
158.00  79.93 M 128.01 106.00 D S
158.00  78.19 M 126.01 106.00 D S
158.00  76.46 M 124.01 106.00 D S
158.00  74.72 M 122.01 106.00 D S
158.00  72.98 M 120.01 106.00 D S
158.00  71.24 M 118.01 106.00 D S
158.00  69.50 M 116.01 106.00 D S
158.00  67.76 M 114.01 106.00 D S
158.00  66.02 M 112.01 106.00 D S
158.00  64.29 M 110.01 106.00 D S
158.00  62.55 M 108.01 106.00 D S
158.00  60.81 M 108.00 104.27 D S
158.00  59.07 M 108.00 102.53 D S
158.00  57.33 M 108.00 100.80 D S
157.53  56.00 M 108.00  99.06 D S
155.53  56.00 M 108.00  97.32 D S
153.53  56.00 M 108.00  95.58 D S
151.53  56.00 M 108.00  93.84 D S
149.53  56.00 M 108.00  92.10 D S
147.53  56.00 M 108.00  90.36 D S
145.53  56.00 M 108.00  88.63 D S
143.53  56.00 M 108.00  86.89 D S
141.53  56.00 M 108.00  85.15 D S
139.53  56.00 M 108.00  83.41 D S
137.53  56.00 M 108.00  81.67 D S
135.53  56.00 M 108.00  79.93 D S
133.53  56.00 M 108.00  78.19 D S
131.53  56.00 M 108.00  76.46 D S
129.53  56.00 M 108.00  74.72 D S
127.53  56.00 M 108.00  72.98 D S
125.53  56.00 M 108.00  71.24 D S
123.53  56.00 M 108.00  69.50 D S
121.53  56.00 M 108.00  67.76 D S
119.53  56.00 M 108.00  66.02 D S
117.53  56.00 M 108.00  64.29 D S
115.53  56.00 M 108.00  62.55 D S
113.53  56.00 M 108.00  60.81 D S
111.53  56.00 M 108.00  59.07 D S
109.53  56.00 M 108.00  57.33 D S
162.46  66.00 M 160.97  67.05 D 160.97  69.15 D 162.46  70.20 D 163.94  70.20 D
168.40  66.00 D 169.88  66.00 D 169.88  70.20 D S
158.00 160.27 M 156.01 162.00 D S
158.00 158.53 M 154.01 162.00 D S
158.00 156.80 M 152.01 162.00 D S
158.00 155.06 M 150.01 162.00 D S
158.00 153.32 M 148.01 162.00 D S
158.00 151.58 M 146.01 162.00 D S
158.00 149.84 M 144.01 162.00 D S
158.00 148.10 M 142.01 162.00 D S
158.00 146.36 M 140.01 162.00 D S
158.00 144.63 M 138.01 162.00 D S
158.00 142.89 M 136.01 162.00 D S
158.00 141.15 M 134.01 162.00 D S
158.00 139.41 M 132.01 162.00 D S
158.00 137.67 M 130.01 162.00 D S
158.00 135.93 M 128.01 162.00 D S
158.00 134.19 M 126.01 162.00 D S
158.00 132.46 M 124.01 162.00 D S
158.00 130.72 M 122.01 162.00 D S
158.00 128.98 M 120.01 162.00 D S
158.00 127.24 M 118.01 162.00 D S
158.00 125.50 M 116.01 162.00 D S
158.00 123.76 M 114.01 162.00 D S
158.00 122.02 M 112.01 162.00 D S
158.00 120.29 M 110.01 162.00 D S
158.00 118.55 M 108.01 162.00 D S
158.00 116.81 M 108.00 160.27 D S
158.00 115.07 M 108.00 158.53 D S
158.00 113.33 M 108.00 156.80 D S
157.53 112.00 M 108.00 155.06 D S
155.53 112.00 M 108.00 153.32 D S
153.53 112.00 M 108.00 151.58 D S
151.53 112.00 M 108.00 149.84 D S
149.53 112.00 M 108.00 148.10 D S
147.53 112.00 M 108.00 146.36 D S
145.53 112.00 M 108.00 144.63 D S
143.53 112.00 M 108.00 142.89 D S
141.53 112.00 M 108.00 141.15 D S
139.53 112.00 M 108.00 139.41 D S
137.53 112.00 M 108.00 137.67 D S
135.53 112.00 M 108.00 135.93 D S
133.53 112.00 M 108.00 134.19 D S
131.53 112.00 M 108.00 132.46 D S
129.53 112.00 M 108.00 130.72 D S
127.53 112.00 M 108.00 128.98 D S
125.53 112.00 M 108.00 127.24 D S
123.53 112.00 M 108.00 125.50 D S
121.53 112.00 M 108.00 123.76 D S
119.53 112.00 M 108.00 122.02 D S
117.53 112.00 M 108.00 120.29 D S
115.53 112.00 M 108.00 118.55 D S
113.53 112.00 M 108.00 116.81 D S
111.53 112.00 M 108.00 115.07 D S
109.53 112.00 M 108.00 113.33 D S
162.46 122.00 M 160.97 123.05 D 160.97 125.15 D 162.46 126.20 D 163.94 126.20 D
168.40 122.00 D 169.88 122.00 D 169.88 126.20 D S
158.00 216.27 M 156.01 218.00 D S
158.00 214.53 M 154.01 218.00 D S
158.00 212.80 M 152.01 218.00 D S
158.00 211.06 M 150.01 218.00 D S
158.00 209.32 M 148.01 218.00 D S
158.00 207.58 M 146.01 218.00 D S
158.00 205.84 M 144.01 218.00 D S
158.00 204.10 M 142.01 218.00 D S
158.00 202.36 M 140.01 218.00 D S
158.00 200.63 M 138.01 218.00 D S
158.00 198.89 M 136.01 218.00 D S
158.00 197.15 M 134.01 218.00 D S
158.00 195.41 M 132.01 218.00 D S
158.00 193.67 M 130.01 218.00 D S
158.00 191.93 M 128.01 218.00 D S
158.00 190.19 M 126.01 218.00 D S
158.00 188.46 M 124.01 218.00 D S
158.00 186.72 M 122.01 218.00 D S
158.00 184.98 M 120.01 218.00 D S
158.00 183.24 M 118.01 218.00 D S
158.00 181.50 M 116.01 218.00 D S
158.00 179.76 M 114.01 218.00 D S
158.00 178.02 M 112.01 218.00 D S
158.00 176.29 M 110.01 218.00 D S
158.00 174.55 M 108.01 218.00 D S
158.00 172.81 M 108.00 216.27 D S
158.00 171.07 M 108.00 214.53 D S
158.00 169.33 M 108.00 212.80 D S
157.53 168.00 M 108.00 211.06 D S
155.53 168.00 M 108.00 209.32 D S
153.53 168.00 M 108.00 207.58 D S
151.53 168.00 M 108.00 205.84 D S
149.53 168.00 M 108.00 204.10 D S
147.53 168.00 M 108.00 202.36 D S
145.53 168.00 M 108.00 200.63 D S
143.53 168.00 M 108.00 198.89 D S
141.53 168.00 M 108.00 197.15 D S
139.53 168.00 M 108.00 195.41 D S
137.53 168.00 M 108.00 193.67 D S
135.53 168.00 M 108.00 191.93 D S
133.53 168.00 M 108.00 190.19 D S
131.53 168.00 M 108.00 188.46 D S
129.53 168.00 M 108.00 186.72 D S
127.53 168.00 M 108.00 184.98 D S
125.53 168.00 M 108.00 183.24 D S
123.53 168.00 M 108.00 181.50 D S
121.53 168.00 M 108.00 179.76 D S
119.53 168.00 M 108.00 178.02 D S
117.53 168.00 M 108.00 176.29 D S
115.53 168.00 M 108.00 174.55 D S
113.53 168.00 M 108.00 172.81 D S
111.53 168.00 M 108.00 171.07 D S
109.53 168.00 M 108.00 169.33 D S
162.46 178.00 M 160.97 179.05 D 160.97 181.15 D 162.46 182.20 D 163.94 182.20 D
168.40 178.00 D 169.88 178.00 D 169.88 182.20 D S
104.00  48.27 M 102.01  50.00 D S
104.00  46.53 M 100.01  50.00 D S
104.00  44.80 M  98.01  50.00 D S
104.00  43.06 M  96.01  50.00 D S
104.00  41.32 M  94.01  50.00 D S
104.00  39.58 M  92.01  50.00 D S
104.00  37.84 M  90.01  50.00 D S
104.00  36.10 M  88.01  50.00 D S
104.00  34.36 M  86.01  50.00 D S
104.00  32.63 M  84.01  50.00 D S
104.00  30.89 M  82.01  50.00 D S
104.00  29.15 M  80.01  50.00 D S
104.00  27.41 M  78.01  50.00 D S
104.00  25.67 M  76.01  50.00 D S
104.00  23.93 M  74.01  50.00 D S
104.00  22.19 M  72.01  50.00 D S
104.00  20.46 M  70.01  50.00 D S
104.00  18.72 M  68.01  50.00 D S
104.00  16.98 M  66.01  50.00 D S
104.00  15.24 M  64.01  50.00 D S
104.00  13.50 M  62.01  50.00 D S
104.00  11.76 M  60.01  50.00 D S
104.00  10.02 M  58.01  50.00 D S
104.00   8.29 M  56.01  50.00 D S
104.00   6.55 M  54.01  50.00 D S
104.00   4.81 M  54.00  48.27 D S
104.00   3.07 M  54.00  46.53 D S
104.00   1.33 M  54.00  44.80 D S
103.53   0.00 M  54.00  43.06 D S
101.53   0.00 M  54.00  41.32 D S
 99.53   0.00 M  54.00  39.58 D S
 97.53   0.00 M  54.00  37.84 D S
 95.53   0.00 M  54.00  36.10 D S
 93.53   0.00 M  54.00  34.36 D S
 91.53   0.00 M  54.00  32.63 D S
 89.53   0.00 M  54.00  30.89 D S
 87.53   0.00 M  54.00  29.15 D S
 85.53   0.00 M  54.00  27.41 D S
 83.53   0.00 M  54.00  25.67 D S
 81.53   0.00 M  54.00  23.93 D S
 79.53   0.00 M  54.00  22.19 D S
 77.53   0.00 M  54.00  20.46 D S
 75.53   0.00 M  54.00  18.72 D S
 73.53   0.00 M  54.00  16.98 D S
 71.53   0.00 M  54.00  15.24 D S
 69.53   0.00 M  54.00  13.50 D S
 67.53   0.00 M  54.00  11.76 D S
 65.53   0.00 M  54.00  10.02 D S
 63.53   0.00 M  54.00   8.29 D S
 61.53   0.00 M  54.00   6.55 D S
 59.53   0.00 M  54.00   4.81 D S
 57.53   0.00 M  54.00   3.07 D S
 55.53   0.00 M  54.00   1.33 D S
108.46  10.00 M 106.97  11.05 D 106.97  13.15 D 108.46  14.20 D 109.94  14.20 D
114.39  10.00 D 115.88  10.00 D 115.88  14.20 D S
104.00 104.27 M 102.01 106.00 D S
104.00 102.53 M 100.01 106.00 D S
104.00 100.80 M  98.01 106.00 D S
104.00  99.06 M  96.01 106.00 D S
104.00  97.32 M  94.01 106.00 D S
104.00  95.58 M  92.01 106.00 D S
104.00  93.84 M  90.01 106.00 D S
104.00  92.10 M  88.01 106.00 D S
104.00  90.36 M  86.01 106.00 D S
104.00  88.63 M  84.01 106.00 D S
104.00  86.89 M  82.01 106.00 D S
104.00  85.15 M  80.01 106.00 D S
104.00  83.41 M  78.01 106.00 D S
104.00  81.67 M  76.01 106.00 D S
104.00  79.93 M  74.01 106.00 D S
104.00  78.19 M  72.01 106.00 D S
104.00  76.46 M  70.01 106.00 D S
104.00  74.72 M  68.01 106.00 D S
104.00  72.98 M  66.01 106.00 D S
104.00  71.24 M  64.01 106.00 D S
104.00  69.50 M  62.01 106.00 D S
104.00  67.76 M  60.01 106.00 D S
104.00  66.02 M  58.01 106.00 D S
104.00  64.29 M  56.01 106.00 D S
104.00  62.55 M  54.01 106.00 D S
104.00  60.81 M  54.00 104.27 D S
104.00  59.07 M  54.00 102.53 D S
104.00  57.33 M  54.00 100.80 D S
103.53  56.00 M  54.00  99.06 D S
101.53  56.00 M  54.00  97.32 D S
 99.53  56.00 M  54.00  95.58 D S
 97.53  56.00 M  54.00  93.84 D S
 95.53  56.00 M  54.00  92.10 D S
 93.53  56.00 M  54.00  90.36 D S
 91.53  56.00 M  54.00  88.63 D S
 89.53  56.00 M  54.00  86.89 D S
 87.53  56.00 M  54.00  85.15 D S
 85.53  56.00 M  54.00  83.41 D S
 83.53  56.00 M  54.00  81.67 D S
 81.53  56.00 M  54.00  79.93 D S
 79.53  56.00 M  54.00  78.19 D S
 77.53  56.00 M  54.00  76.46 D S
 75.53  56.00 M  54.00  74.72 D S
 73.53  56.00 M  54.00  72.98 D S
 71.53  56.00 M  54.00  71.24 D S
 69.53  56.00 M  54.00  69.50 D S
 67.53  56.00 M  54.00  67.76 D S
 65.53  56.00 M  54.00  66.02 D S
 63.53  56.00 M  54.00  64.29 D S
 61.53  56.00 M  54.00  62.55 D S
 59.53  56.00 M  54.00  60.81 D S
 57.53  56.00 M  54.00  59.07 D S
 55.53  56.00 M  54.00  57.33 D S
108.46  66.00 M 106.97  67.05 D 106.97  69.15 D 108.46  70.20 D 109.94  70.20 D
114.39  66.00 D 115.88  66.00 D 115.88  70.20 D S
104.00 160.27 M 102.01 162.00 D S
104.00 158.53 M 100.01 162.00 D S
104.00 156.80 M  98.01 162.00 D S
104.00 155.06 M  96.01 162.00 D S
104.00 153.32 M  94.01 162.00 D S
104.00 151.58 M  92.01 162.00 D S
104.00 149.84 M  90.01 162.00 D S
104.00 148.10 M  88.01 162.00 D S
104.00 146.36 M  86.01 162.00 D S
104.00 144.63 M  84.01 162.00 D S
104.00 142.89 M  82.01 162.00 D S
104.00 141.15 M  80.01 162.00 D S
104.00 139.41 M  78.01 162.00 D S
104.00 137.67 M  76.01 162.00 D S
104.00 135.93 M  74.01 162.00 D S
104.00 134.19 M  72.01 162.00 D S
104.00 132.46 M  70.01 162.00 D S
104.00 130.72 M  68.01 162.00 D S
104.00 128.98 M  66.01 162.00 D S
104.00 127.24 M  64.01 162.00 D S
104.00 125.50 M  62.01 162.00 D S
104.00 123.76 M  60.01 162.00 D S
104.00 122.02 M  58.01 162.00 D S
104.00 120.29 M  56.01 162.00 D S
104.00 118.55 M  54.01 162.00 D S
104.00 116.81 M  54.00 160.27 D S
104.00 115.07 M  54.00 158.53 D S
104.00 113.33 M  54.00 156.80 D S
103.53 112.00 M  54.00 155.06 D S
101.53 112.00 M  54.00 153.32 D S
 99.53 112.00 M  54.00 151.58 D S
 97.53 112.00 M  54.00 149.84 D S
 95.53 112.00 M  54.00 148.10 D S
 93.53 112.00 M  54.00 146.36 D S
 91.53 112.00 M  54.00 144.63 D S
 89.53 112.00 M  54.00 142.89 D S
 87.53 112.00 M  54.00 141.15 D S
 85.53 112.00 M  54.00 139.41 D S
 83.53 112.00 M  54.00 137.67 D S
 81.53 112.00 M  54.00 135.93 D S
 79.53 112.00 M  54.00 134.19 D S
 77.53 112.00 M  54.00 132.46 D S
 75.53 112.00 M  54.00 130.72 D S
 73.53 112.00 M  54.00 128.98 D S
 71.53 112.00 M  54.00 127.24 D S
 69.53 112.00 M  54.00 125.50 D S
 67.53 112.00 M  54.00 123.76 D S
 65.53 112.00 M  54.00 122.02 D S
 63.53 112.00 M  54.00 120.29 D S
 61.53 112.00 M  54.00 118.55 D S
 59.53 112.00 M  54.00 116.81 D S
 57.53 112.00 M  54.00 115.07 D S
 55.53 112.00 M  54.00 113.33 D S
108.46 122.00 M 106.97 123.05 D 106.97 125.15 D 108.46 126.20 D 109.94 126.20 D
114.39 122.00 D 115.88 122.00 D 115.88 126.20 D S
104.00 216.27 M 102.01 218.00 D S
104.00 214.53 M 100.01 218.00 D S
104.00 212.80 M  98.01 218.00 D S
104.00 211.06 M  96.01 218.00 D S
104.00 209.32 M  94.01 218.00 D S
104.00 207.58 M  92.01 218.00 D S
104.00 205.84 M  90.01 218.00 D S
104.00 204.10 M  88.01 218.00 D S
104.00 202.36 M  86.01 218.00 D S
104.00 200.63 M  84.01 218.00 D S
104.00 198.89 M  82.01 218.00 D S
104.00 197.15 M  80.01 218.00 D S
104.00 195.41 M  78.01 218.00 D S
104.00 193.67 M  76.01 218.00 D S
104.00 191.93 M  74.01 218.00 D S
104.00 190.19 M  72.01 218.00 D S
104.00 188.46 M  70.01 218.00 D S
104.00 186.72 M  68.01 218.00 D S
104.00 184.98 M  66.01 218.00 D S
104.00 183.24 M  64.01 218.00 D S
104.00 181.50 M  62.01 218.00 D S
104.00 179.76 M  60.01 218.00 D S
104.00 178.02 M  58.01 218.00 D S
104.00 176.29 M  56.01 218.00 D S
104.00 174.55 M  54.01 218.00 D S
104.00 172.81 M  54.00 216.27 D S
104.00 171.07 M  54.00 214.53 D S
104.00 169.33 M  54.00 212.80 D S
103.53 168.00 M  54.00 211.06 D S
101.53 168.00 M  54.00 209.32 D S
 99.53 168.00 M  54.00 207.58 D S
 97.53 168.00 M  54.00 205.84 D S
 95.53 168.00 M  54.00 204.10 D S
 93.53 168.00 M  54.00 202.36 D S
 91.53 168.00 M  54.00 200.63 D S
 89.53 168.00 M  54.00 198.89 D S
 87.53 168.00 M  54.00 197.15 D S
 85.53 168.00 M  54.00 195.41 D S
 83.53 168.00 M  54.00 193.67 D S
 81.53 168.00 M  54.00 191.93 D S
 79.53 168.00 M  54.00 190.19 D S
 77.53 168.00 M  54.00 188.46 D S
 75.53 168.00 M  54.00 186.72 D S
 73.53 168.00 M  54.00 184.98 D S
 71.53 168.00 M  54.00 183.24 D S
 69.53 168.00 M  54.00 181.50 D S
 67.53 168.00 M  54.00 179.76 D S
 65.53 168.00 M  54.00 178.02 D S
 63.53 168.00 M  54.00 176.29 D S
 61.53 168.00 M  54.00 174.55 D S
 59.53 168.00 M  54.00 172.81 D S
 57.53 168.00 M  54.00 171.07 D S
 55.53 168.00 M  54.00 169.33 D S
108.46 178.00 M 106.97 179.05 D 106.97 181.15 D 108.46 182.20 D 109.94 182.20 D
114.39 178.00 D 115.88 178.00 D 115.88 182.20 D S
115.88 182.20 M  0.000  1.000  0.000 C
 S
158.00  48.39 M 156.01  50.00 D S
158.00  46.77 M 154.01  50.00 D S
158.00  45.15 M 152.01  50.00 D S
158.00  43.53 M 150.01  50.00 D S
158.00  41.91 M 148.01  50.00 D S
158.00  40.29 M 146.01  50.00 D S
158.00  38.67 M 144.01  50.00 D S
158.00  37.05 M 142.01  50.00 D S
158.00  35.43 M 140.01  50.00 D S
158.00  33.81 M 138.01  50.00 D S
158.00  32.19 M 136.01  50.00 D S
158.00  30.58 M 134.01  50.00 D S
158.00  28.96 M 132.01  50.00 D S
158.00  27.34 M 130.01  50.00 D S
158.00  25.72 M 128.01  50.00 D S
158.00  24.10 M 126.01  50.00 D S
158.00  22.48 M 124.01  50.00 D S
158.00  20.86 M 122.01  50.00 D S
158.00  19.24 M 120.01  50.00 D S
158.00  17.62 M 118.01  50.00 D S
158.00  16.00 M 116.01  50.00 D S
158.00  14.38 M 114.01  50.00 D S
158.00  12.76 M 112.01  50.00 D S
158.00  11.14 M 110.01  50.00 D S
158.00   9.52 M 108.01  50.00 D S
158.00   7.90 M 108.00  48.39 D S
158.00   6.28 M 108.00  46.77 D S
158.00   4.66 M 108.00  45.15 D S
158.00   3.04 M 108.00  43.53 D S
158.00   1.42 M 108.00  41.91 D S
157.76   0.00 M 108.00  40.29 D S
155.76   0.00 M 108.00  38.67 D S
153.76   0.00 M 108.00  37.05 D S
151.76   0.00 M 108.00  35.43 D S
149.76   0.00 M 108.00  33.81 D S
147.76   0.00 M 108.00  32.19 D S
145.76   0.00 M 108.00  30.58 D S
143.76   0.00 M 108.00  28.96 D S
141.76   0.00 M 108.00  27.34 D S
139.76   0.00 M 108.00  25.72 D S
137.76   0.00 M 108.00  24.10 D S
135.76   0.00 M 108.00  22.48 D S
133.76   0.00 M 108.00  20.86 D S
131.76   0.00 M 108.00  19.24 D S
129.76   0.00 M 108.00  17.62 D S
127.76   0.00 M 108.00  16.00 D S
125.76   0.00 M 108.00  14.38 D S
123.76   0.00 M 108.00  12.76 D S
121.76   0.00 M 108.00  11.14 D S
119.76   0.00 M 108.00   9.52 D S
117.76   0.00 M 108.00   7.90 D S
115.76   0.00 M 108.00   6.28 D S
113.76   0.00 M 108.00   4.66 D S
111.76   0.00 M 108.00   3.04 D S
109.76   0.00 M 108.00   1.42 D S
168.40  20.00 M 169.88  21.05 D 169.88  23.15 D 168.40  24.20 D 166.91  24.20 D
165.43  23.15 D 165.43  22.10 D 160.97  24.20 D 160.97  20.00 D S
158.00 104.39 M 156.01 106.00 D S
158.00 102.77 M 154.01 106.00 D S
158.00 101.15 M 152.01 106.00 D S
158.00  99.53 M 150.01 106.00 D S
158.00  97.91 M 148.01 106.00 D S
158.00  96.29 M 146.01 106.00 D S
158.00  94.67 M 144.01 106.00 D S
158.00  93.05 M 142.01 106.00 D S
158.00  91.43 M 140.01 106.00 D S
158.00  89.81 M 138.01 106.00 D S
158.00  88.19 M 136.01 106.00 D S
158.00  86.58 M 134.01 106.00 D S
158.00  84.96 M 132.01 106.00 D S
158.00  83.34 M 130.01 106.00 D S
158.00  81.72 M 128.01 106.00 D S
158.00  80.10 M 126.01 106.00 D S
158.00  78.48 M 124.01 106.00 D S
158.00  76.86 M 122.01 106.00 D S
158.00  75.24 M 120.01 106.00 D S
158.00  73.62 M 118.01 106.00 D S
158.00  72.00 M 116.01 106.00 D S
158.00  70.38 M 114.01 106.00 D S
158.00  68.76 M 112.01 106.00 D S
158.00  67.14 M 110.01 106.00 D S
158.00  65.52 M 108.01 106.00 D S
158.00  63.90 M 108.00 104.39 D S
158.00  62.28 M 108.00 102.77 D S
158.00  60.66 M 108.00 101.15 D S
158.00  59.04 M 108.00  99.53 D S
158.00  57.42 M 108.00  97.91 D S
157.76  56.00 M 108.00  96.29 D S
155.76  56.00 M 108.00  94.67 D S
153.76  56.00 M 108.00  93.05 D S
151.76  56.00 M 108.00  91.43 D S
149.76  56.00 M 108.00  89.81 D S
147.76  56.00 M 108.00  88.19 D S
145.76  56.00 M 108.00  86.58 D S
143.76  56.00 M 108.00  84.96 D S
141.76  56.00 M 108.00  83.34 D S
139.76  56.00 M 108.00  81.72 D S
137.76  56.00 M 108.00  80.10 D S
135.76  56.00 M 108.00  78.48 D S
133.76  56.00 M 108.00  76.86 D S
131.76  56.00 M 108.00  75.24 D S
129.76  56.00 M 108.00  73.62 D S
127.76  56.00 M 108.00  72.00 D S
125.76  56.00 M 108.00  70.38 D S
123.76  56.00 M 108.00  68.76 D S
121.76  56.00 M 108.00  67.14 D S
119.76  56.00 M 108.00  65.52 D S
117.76  56.00 M 108.00  63.90 D S
115.76  56.00 M 108.00  62.28 D S
113.76  56.00 M 108.00  60.66 D S
111.76  56.00 M 108.00  59.04 D S
109.76  56.00 M 108.00  57.42 D S
168.40  76.00 M 169.88  77.05 D 169.88  79.15 D 168.40  80.20 D 166.91  80.20 D
165.43  79.15 D 165.43  78.10 D 160.97  80.20 D 160.97  76.00 D S
158.00 160.39 M 156.01 162.00 D S
158.00 158.77 M 154.01 162.00 D S
158.00 157.15 M 152.01 162.00 D S
158.00 155.53 M 150.01 162.00 D S
158.00 153.91 M 148.01 162.00 D S
158.00 152.29 M 146.01 162.00 D S
158.00 150.67 M 144.01 162.00 D S
158.00 149.05 M 142.01 162.00 D S
158.00 147.43 M 140.01 162.00 D S
158.00 145.81 M 138.01 162.00 D S
158.00 144.19 M 136.01 162.00 D S
158.00 142.58 M 134.01 162.00 D S
158.00 140.96 M 132.01 162.00 D S
158.00 139.34 M 130.01 162.00 D S
158.00 137.72 M 128.01 162.00 D S
158.00 136.10 M 126.01 162.00 D S
158.00 134.48 M 124.01 162.00 D S
158.00 132.86 M 122.01 162.00 D S
158.00 131.24 M 120.01 162.00 D S
158.00 129.62 M 118.01 162.00 D S
158.00 128.00 M 116.01 162.00 D S
158.00 126.38 M 114.01 162.00 D S
158.00 124.76 M 112.01 162.00 D S
158.00 123.14 M 110.01 162.00 D S
158.00 121.52 M 108.01 162.00 D S
158.00 119.90 M 108.00 160.39 D S
158.00 118.28 M 108.00 158.77 D S
158.00 116.66 M 108.00 157.15 D S
158.00 115.04 M 108.00 155.53 D S
158.00 113.42 M 108.00 153.91 D S
157.76 112.00 M 108.00 152.29 D S
155.76 112.00 M 108.00 150.67 D S
153.76 112.00 M 108.00 149.05 D S
151.76 112.00 M 108.00 147.43 D S
149.76 112.00 M 108.00 145.81 D S
147.76 112.00 M 108.00 144.19 D S
145.76 112.00 M 108.00 142.58 D S
143.76 112.00 M 108.00 140.96 D S
141.76 112.00 M 108.00 139.34 D S
139.76 112.00 M 108.00 137.72 D S
137.76 112.00 M 108.00 136.10 D S
135.76 112.00 M 108.00 134.48 D S
133.76 112.00 M 108.00 132.86 D S
131.76 112.00 M 108.00 131.24 D S
129.76 112.00 M 108.00 129.62 D S
127.76 112.00 M 108.00 128.00 D S
125.76 112.00 M 108.00 126.38 D S
123.76 112.00 M 108.00 124.76 D S
121.76 112.00 M 108.00 123.14 D S
119.76 112.00 M 108.00 121.52 D S
117.76 112.00 M 108.00 119.90 D S
115.76 112.00 M 108.00 118.28 D S
113.76 112.00 M 108.00 116.66 D S
111.76 112.00 M 108.00 115.04 D S
109.76 112.00 M 108.00 113.42 D S
168.40 132.00 M 169.88 133.05 D 169.88 135.15 D 168.40 136.20 D 166.91 136.20 D
165.43 135.15 D 165.43 134.10 D 160.97 136.20 D 160.97 132.00 D S
158.00 216.39 M 156.01 218.00 D S
158.00 214.77 M 154.01 218.00 D S
158.00 213.15 M 152.01 218.00 D S
158.00 211.53 M 150.01 218.00 D S
158.00 209.91 M 148.01 218.00 D S
158.00 208.29 M 146.01 218.00 D S
158.00 206.67 M 144.01 218.00 D S
158.00 205.05 M 142.01 218.00 D S
158.00 203.43 M 140.01 218.00 D S
158.00 201.81 M 138.01 218.00 D S
158.00 200.19 M 136.01 218.00 D S
158.00 198.58 M 134.01 218.00 D S
158.00 196.96 M 132.01 218.00 D S
158.00 195.34 M 130.01 218.00 D S
158.00 193.72 M 128.01 218.00 D S
158.00 192.10 M 126.01 218.00 D S
158.00 190.48 M 124.01 218.00 D S
158.00 188.86 M 122.01 218.00 D S
158.00 187.24 M 120.01 218.00 D S
158.00 185.62 M 118.01 218.00 D S
158.00 184.00 M 116.01 218.00 D S
158.00 182.38 M 114.01 218.00 D S
158.00 180.76 M 112.01 218.00 D S
158.00 179.14 M 110.01 218.00 D S
158.00 177.52 M 108.01 218.00 D S
158.00 175.90 M 108.00 216.39 D S
158.00 174.28 M 108.00 214.77 D S
158.00 172.66 M 108.00 213.15 D S
158.00 171.04 M 108.00 211.53 D S
158.00 169.42 M 108.00 209.91 D S
157.76 168.00 M 108.00 208.29 D S
155.76 168.00 M 108.00 206.67 D S
153.76 168.00 M 108.00 205.05 D S
151.76 168.00 M 108.00 203.43 D S
149.76 168.00 M 108.00 201.81 D S
147.76 168.00 M 108.00 200.19 D S
145.76 168.00 M 108.00 198.58 D S
143.76 168.00 M 108.00 196.96 D S
141.76 168.00 M 108.00 195.34 D S
139.76 168.00 M 108.00 193.72 D S
137.76 168.00 M 108.00 192.10 D S
135.76 168.00 M 108.00 190.48 D S
133.76 168.00 M 108.00 188.86 D S
131.76 168.00 M 108.00 187.24 D S
129.76 168.00 M 108.00 185.62 D S
127.76 168.00 M 108.00 184.00 D S
125.76 168.00 M 108.00 182.38 D S
123.76 168.00 M 108.00 180.76 D S
121.76 168.00 M 108.00 179.14 D S
119.76 168.00 M 108.00 177.52 D S
117.76 168.00 M 108.00 175.90 D S
115.76 168.00 M 108.00 174.28 D S
113.76 168.00 M 108.00 172.66 D S
111.76 168.00 M 108.00 171.04 D S
109.76 168.00 M 108.00 169.42 D S
168.40 188.00 M 169.88 189.05 D 169.88 191.15 D 168.40 192.20 D 166.91 192.20 D
165.43 191.15 D 165.43 190.10 D 160.97 192.20 D 160.97 188.00 D S
 50.00  48.39 M  48.01  50.00 D S
 50.00  46.77 M  46.01  50.00 D S
 50.00  45.15 M  44.01  50.00 D S
 50.00  43.53 M  42.01  50.00 D S
 50.00  41.91 M  40.01  50.00 D S
 50.00  40.29 M  38.01  50.00 D S
 50.00  38.67 M  36.01  50.00 D S
 50.00  37.05 M  34.01  50.00 D S
 50.00  35.43 M  32.01  50.00 D S
 50.00  33.81 M  30.01  50.00 D S
 50.00  32.19 M  28.01  50.00 D S
 50.00  30.58 M  26.01  50.00 D S
 50.00  28.96 M  24.01  50.00 D S
 50.00  27.34 M  22.01  50.00 D S
 50.00  25.72 M  20.01  50.00 D S
 50.00  24.10 M  18.01  50.00 D S
 50.00  22.48 M  16.01  50.00 D S
 50.00  20.86 M  14.01  50.00 D S
 50.00  19.24 M  12.01  50.00 D S
 50.00  17.62 M  10.01  50.00 D S
 50.00  16.00 M   8.01  50.00 D S
 50.00  14.38 M   6.01  50.00 D S
 50.00  12.76 M   4.01  50.00 D S
 50.00  11.14 M   2.01  50.00 D S
 50.00   9.52 M   0.01  50.00 D S
 50.00   7.90 M   0.00  48.39 D S
 50.00   6.28 M   0.00  46.77 D S
 50.00   4.66 M   0.00  45.15 D S
 50.00   3.04 M   0.00  43.53 D S
 50.00   1.42 M   0.00  41.91 D S
 49.76   0.00 M   0.00  40.29 D S
 47.76   0.00 M   0.00  38.67 D S
 45.76   0.00 M   0.00  37.05 D S
 43.76   0.00 M   0.00  35.43 D S
 41.76   0.00 M   0.00  33.81 D S
 39.76   0.00 M   0.00  32.19 D S
 37.76   0.00 M   0.00  30.58 D S
 35.76   0.00 M   0.00  28.96 D S
 33.76   0.00 M   0.00  27.34 D S
 31.76   0.00 M   0.00  25.72 D S
 29.76   0.00 M   0.00  24.10 D S
 27.76   0.00 M   0.00  22.48 D S
 25.76   0.00 M   0.00  20.86 D S
 23.76   0.00 M   0.00  19.24 D S
 21.76   0.00 M   0.00  17.62 D S
 19.76   0.00 M   0.00  16.00 D S
 17.76   0.00 M   0.00  14.38 D S
 15.76   0.00 M   0.00  12.76 D S
 13.76   0.00 M   0.00  11.14 D S
 11.76   0.00 M   0.00   9.52 D S
  9.76   0.00 M   0.00   7.90 D S
  7.76   0.00 M   0.00   6.28 D S
  5.76   0.00 M   0.00   4.66 D S
  3.76   0.00 M   0.00   3.04 D S
  1.76   0.00 M   0.00   1.42 D S
 60.39  10.00 M  61.88  11.05 D  61.88  13.15 D  60.39  14.20 D  58.91  14.20 D
 57.42  13.15 D  57.42  12.10 D  52.97  14.20 D  52.97  10.00 D S
 50.00 104.39 M  48.01 106.00 D S
 50.00 102.77 M  46.01 106.00 D S
 50.00 101.15 M  44.01 106.00 D S
 50.00  99.53 M  42.01 106.00 D S
 50.00  97.91 M  40.01 106.00 D S
 50.00  96.29 M  38.01 106.00 D S
 50.00  94.67 M  36.01 106.00 D S
 50.00  93.05 M  34.01 106.00 D S
 50.00  91.43 M  32.01 106.00 D S
 50.00  89.81 M  30.01 106.00 D S
 50.00  88.19 M  28.01 106.00 D S
 50.00  86.58 M  26.01 106.00 D S
 50.00  84.96 M  24.01 106.00 D S
 50.00  83.34 M  22.01 106.00 D S
 50.00  81.72 M  20.01 106.00 D S
 50.00  80.10 M  18.01 106.00 D S
 50.00  78.48 M  16.01 106.00 D S
 50.00  76.86 M  14.01 106.00 D S
 50.00  75.24 M  12.01 106.00 D S
 50.00  73.62 M  10.01 106.00 D S
 50.00  72.00 M   8.01 106.00 D S
 50.00  70.38 M   6.01 106.00 D S
 50.00  68.76 M   4.01 106.00 D S
 50.00  67.14 M   2.01 106.00 D S
 50.00  65.52 M   0.01 106.00 D S
 50.00  63.90 M   0.00 104.39 D S
 50.00  62.28 M   0.00 102.77 D S
 50.00  60.66 M   0.00 101.15 D S
 50.00  59.04 M   0.00  99.53 D S
 50.00  57.42 M   0.00  97.91 D S
 49.76  56.00 M   0.00  96.29 D S
 47.76  56.00 M   0.00  94.67 D S
 45.76  56.00 M   0.00  93.05 D S
 43.76  56.00 M   0.00  91.43 D S
 41.76  56.00 M   0.00  89.81 D S
 39.76  56.00 M   0.00  88.19 D S
 37.76  56.00 M   0.00  86.58 D S
 35.76  56.00 M   0.00  84.96 D S
 33.76  56.00 M   0.00  83.34 D S
 31.76  56.00 M   0.00  81.72 D S
 29.76  56.00 M   0.00  80.10 D S
 27.76  56.00 M   0.00  78.48 D S
 25.76  56.00 M   0.00  76.86 D S
 23.76  56.00 M   0.00  75.24 D S
 21.76  56.00 M   0.00  73.62 D S
 19.76  56.00 M   0.00  72.00 D S
 17.76  56.00 M   0.00  70.38 D S
 15.76  56.00 M   0.00  68.76 D S
 13.76  56.00 M   0.00  67.14 D S
 11.76  56.00 M   0.00  65.52 D S
  9.76  56.00 M   0.00  63.90 D S
  7.76  56.00 M   0.00  62.28 D S
  5.76  56.00 M   0.00  60.66 D S
  3.76  56.00 M   0.00  59.04 D S
  1.76  56.00 M   0.00  57.42 D S
 60.39  66.00 M  61.88  67.05 D  61.88  69.15 D  60.39  70.20 D  58.91  70.20 D
 57.42  69.15 D  57.42  68.10 D  52.97  70.20 D  52.97  66.00 D S
 50.00 160.39 M  48.01 162.00 D S
 50.00 158.77 M  46.01 162.00 D S
 50.00 157.15 M  44.01 162.00 D S
 50.00 155.53 M  42.01 162.00 D S
 50.00 153.91 M  40.01 162.00 D S
 50.00 152.29 M  38.01 162.00 D S
 50.00 150.67 M  36.01 162.00 D S
 50.00 149.05 M  34.01 162.00 D S
 50.00 147.43 M  32.01 162.00 D S
 50.00 145.81 M  30.01 162.00 D S
 50.00 144.19 M  28.01 162.00 D S
 50.00 142.58 M  26.01 162.00 D S
 50.00 140.96 M  24.01 162.00 D S
 50.00 139.34 M  22.01 162.00 D S
 50.00 137.72 M  20.01 162.00 D S
 50.00 136.10 M  18.01 162.00 D S
 50.00 134.48 M  16.01 162.00 D S
 50.00 132.86 M  14.01 162.00 D S
 50.00 131.24 M  12.01 162.00 D S
 50.00 129.62 M  10.01 162.00 D S
 50.00 128.00 M   8.01 162.00 D S
 50.00 126.38 M   6.01 162.00 D S
 50.00 124.76 M   4.01 162.00 D S
 50.00 123.14 M   2.01 162.00 D S
 50.00 121.52 M   0.01 162.00 D S
 50.00 119.90 M   0.00 160.39 D S
 50.00 118.28 M   0.00 158.77 D S
 50.00 116.66 M   0.00 157.15 D S
 50.00 115.04 M   0.00 155.53 D S
 50.00 113.42 M   0.00 153.91 D S
 49.76 112.00 M   0.00 152.29 D S
 47.76 112.00 M   0.00 150.67 D S
 45.76 112.00 M   0.00 149.05 D S
 43.76 112.00 M   0.00 147.43 D S
 41.76 112.00 M   0.00 145.81 D S
 39.76 112.00 M   0.00 144.19 D S
 37.76 112.00 M   0.00 142.58 D S
 35.76 112.00 M   0.00 140.96 D S
 33.76 112.00 M   0.00 139.34 D S
 31.76 112.00 M   0.00 137.72 D S
 29.76 112.00 M   0.00 136.10 D S
 27.76 112.00 M   0.00 134.48 D S
 25.76 112.00 M   0.00 132.86 D S
 23.76 112.00 M   0.00 131.24 D S
 21.76 112.00 M   0.00 129.62 D S
 19.76 112.00 M   0.00 128.00 D S
 17.76 112.00 M   0.00 126.38 D S
 15.76 112.00 M   0.00 124.76 D S
 13.76 112.00 M   0.00 123.14 D S
 11.76 112.00 M   0.00 121.52 D S
  9.76 112.00 M   0.00 119.90 D S
  7.76 112.00 M   0.00 118.28 D S
  5.76 112.00 M   0.00 116.66 D S
  3.76 112.00 M   0.00 115.04 D S
  1.76 112.00 M   0.00 113.42 D S
 60.39 122.00 M  61.88 123.05 D  61.88 125.15 D  60.39 126.20 D  58.91 126.20 D
 57.42 125.15 D  57.42 124.10 D  52.97 126.20 D  52.97 122.00 D S
 50.00 216.39 M  48.01 218.00 D S
 50.00 214.77 M  46.01 218.00 D S
 50.00 213.15 M  44.01 218.00 D S
 50.00 211.53 M  42.01 218.00 D S
 50.00 209.91 M  40.01 218.00 D S
 50.00 208.29 M  38.01 218.00 D S
 50.00 206.67 M  36.01 218.00 D S
 50.00 205.05 M  34.01 218.00 D S
 50.00 203.43 M  32.01 218.00 D S
 50.00 201.81 M  30.01 218.00 D S
 50.00 200.19 M  28.01 218.00 D S
 50.00 198.58 M  26.01 218.00 D S
 50.00 196.96 M  24.01 218.00 D S
 50.00 195.34 M  22.01 218.00 D S
 50.00 193.72 M  20.01 218.00 D S
 50.00 192.10 M  18.01 218.00 D S
 50.00 190.48 M  16.01 218.00 D S
 50.00 188.86 M  14.01 218.00 D S
 50.00 187.24 M  12.01 218.00 D S
 50.00 185.62 M  10.01 218.00 D S
 50.00 184.00 M   8.01 218.00 D S
 50.00 182.38 M   6.01 218.00 D S
 50.00 180.76 M   4.01 218.00 D S
 50.00 179.14 M   2.01 218.00 D S
 50.00 177.52 M   0.01 218.00 D S
 50.00 175.90 M   0.00 216.39 D S
 50.00 174.28 M   0.00 214.77 D S
 50.00 172.66 M   0.00 213.15 D S
 50.00 171.04 M   0.00 211.53 D S
 50.00 169.42 M   0.00 209.91 D S
 49.76 168.00 M   0.00 208.29 D S
 47.76 168.00 M   0.00 206.67 D S
 45.76 168.00 M   0.00 205.05 D S
 43.76 168.00 M   0.00 203.43 D S
 41.76 168.00 M   0.00 201.81 D S
 39.76 168.00 M   0.00 200.19 D S
 37.76 168.00 M   0.00 198.58 D S
 35.76 168.00 M   0.00 196.96 D S
 33.76 168.00 M   0.00 195.34 D S
 31.76 168.00 M   0.00 193.72 D S
 29.76 168.00 M   0.00 192.10 D S
 27.76 168.00 M   0.00 190.48 D S
 25.76 168.00 M   0.00 188.86 D S
 23.76 168.00 M   0.00 187.24 D S
 21.76 168.00 M   0.00 185.62 D S
 19.76 168.00 M   0.00 184.00 D S
 17.76 168.00 M   0.00 182.38 D S
 15.76 168.00 M   0.00 180.76 D S
 13.76 168.00 M   0.00 179.14 D S
 11.76 168.00 M   0.00 177.52 D S
  9.76 168.00 M   0.00 175.90 D S
  7.76 168.00 M   0.00 174.28 D S
  5.76 168.00 M   0.00 172.66 D S
  3.76 168.00 M   0.00 171.04 D S
  1.76 168.00 M   0.00 169.42 D S
 60.39 178.00 M  61.88 179.05 D  61.88 181.15 D  60.39 182.20 D  58.91 182.20 D
 57.42 181.15 D  57.42 180.10 D  52.97 182.20 D  52.97 178.00 D S
 52.97 178.00 M  0.000  0.000  1.000 C
 S
158.00  48.50 M 156.01  50.00 D S
158.00  47.00 M 154.01  50.00 D S
158.00  45.49 M 152.01  50.00 D S
158.00  43.98 M 150.01  50.00 D S
158.00  42.47 M 148.01  50.00 D S
158.00  40.97 M 146.01  50.00 D S
158.00  39.46 M 144.01  50.00 D S
158.00  37.95 M 142.01  50.00 D S
158.00  36.45 M 140.01  50.00 D S
158.00  34.94 M 138.01  50.00 D S
158.00  33.43 M 136.01  50.00 D S
158.00  31.92 M 134.01  50.00 D S
158.00  30.42 M 132.01  50.00 D S
158.00  28.91 M 130.01  50.00 D S
158.00  27.40 M 128.01  50.00 D S
158.00  25.90 M 126.01  50.00 D S
158.00  24.39 M 124.01  50.00 D S
158.00  22.88 M 122.01  50.00 D S
158.00  21.37 M 120.01  50.00 D S
158.00  19.87 M 118.01  50.00 D S
158.00  18.36 M 116.01  50.00 D S
158.00  16.85 M 114.01  50.00 D S
158.00  15.35 M 112.01  50.00 D S
158.00  13.84 M 110.01  50.00 D S
158.00  12.33 M 108.01  50.00 D S
158.00  10.82 M 108.00  48.50 D S
158.00   9.32 M 108.00  47.00 D S
158.00   7.81 M 108.00  45.49 D S
158.00   6.30 M 108.00  43.98 D S
158.00   4.80 M 108.00  42.47 D S
158.00   3.29 M 108.00  40.97 D S
158.00   1.78 M 108.00  39.46 D S
158.00   0.27 M 108.00  37.95 D S
156.36   0.00 M 108.00  36.45 D S
154.36   0.00 M 108.00  34.94 D S
152.36   0.00 M 108.00  33.43 D S
150.36   0.00 M 108.00  31.92 D S
148.36   0.00 M 108.00  30.42 D S
146.36   0.00 M 108.00  28.91 D S
144.36   0.00 M 108.00  27.40 D S
142.36   0.00 M 108.00  25.90 D S
140.36   0.00 M 108.00  24.39 D S
138.36   0.00 M 108.00  22.88 D S
136.36   0.00 M 108.00  21.37 D S
134.36   0.00 M 108.00  19.87 D S
132.36   0.00 M 108.00  18.36 D S
130.36   0.00 M 108.00  16.85 D S
128.36   0.00 M 108.00  15.35 D S
126.36   0.00 M 108.00  13.84 D S
124.36   0.00 M 108.00  12.33 D S
122.36   0.00 M 108.00  10.82 D S
120.36   0.00 M 108.00   9.32 D S
118.36   0.00 M 108.00   7.81 D S
116.36   0.00 M 108.00   6.30 D S
114.36   0.00 M 108.00   4.80 D S
112.36   0.00 M 108.00   3.29 D S
110.36   0.00 M 108.00   1.78 D S
108.36   0.00 M 108.00   0.27 D S
160.97  33.15 M 165.43  30.00 D 166.91  30.00 D 166.91  34.20 D S
165.43  33.15 M 169.88  33.15 D S
158.00 104.50 M 156.01 106.00 D S
158.00 103.00 M 154.01 106.00 D S
158.00 101.49 M 152.01 106.00 D S
158.00  99.98 M 150.01 106.00 D S
158.00  98.47 M 148.01 106.00 D S
158.00  96.97 M 146.01 106.00 D S
158.00  95.46 M 144.01 106.00 D S
158.00  93.95 M 142.01 106.00 D S
158.00  92.45 M 140.01 106.00 D S
158.00  90.94 M 138.01 106.00 D S
158.00  89.43 M 136.01 106.00 D S
158.00  87.92 M 134.01 106.00 D S
158.00  86.42 M 132.01 106.00 D S
158.00  84.91 M 130.01 106.00 D S
158.00  83.40 M 128.01 106.00 D S
158.00  81.90 M 126.01 106.00 D S
158.00  80.39 M 124.01 106.00 D S
158.00  78.88 M 122.01 106.00 D S
158.00  77.37 M 120.01 106.00 D S
158.00  75.87 M 118.01 106.00 D S
158.00  74.36 M 116.01 106.00 D S
158.00  72.85 M 114.01 106.00 D S
158.00  71.35 M 112.01 106.00 D S
158.00  69.84 M 110.01 106.00 D S
158.00  68.33 M 108.01 106.00 D S
158.00  66.82 M 108.00 104.50 D S
158.00  65.32 M 108.00 103.00 D S
158.00  63.81 M 108.00 101.49 D S
158.00  62.30 M 108.00  99.98 D S
158.00  60.80 M 108.00  98.47 D S
158.00  59.29 M 108.00  96.97 D S
158.00  57.78 M 108.00  95.46 D S
158.00  56.27 M 108.00  93.95 D S
156.36  56.00 M 108.00  92.45 D S
154.36  56.00 M 108.00  90.94 D S
152.36  56.00 M 108.00  89.43 D S
150.36  56.00 M 108.00  87.92 D S
148.36  56.00 M 108.00  86.42 D S
146.36  56.00 M 108.00  84.91 D S
144.36  56.00 M 108.00  83.40 D S
142.36  56.00 M 108.00  81.90 D S
140.36  56.00 M 108.00  80.39 D S
138.36  56.00 M 108.00  78.88 D S
136.36  56.00 M 108.00  77.37 D S
134.36  56.00 M 108.00  75.87 D S
132.36  56.00 M 108.00  74.36 D S
130.36  56.00 M 108.00  72.85 D S
128.36  56.00 M 108.00  71.35 D S
126.36  56.00 M 108.00  69.84 D S
124.36  56.00 M 108.00  68.33 D S
122.36  56.00 M 108.00  66.82 D S
120.36  56.00 M 108.00  65.32 D S
118.36  56.00 M 108.00  63.81 D S
116.36  56.00 M 108.00  62.30 D S
114.36  56.00 M 108.00  60.80 D S
112.36  56.00 M 108.00  59.29 D S
110.36  56.00 M 108.00  57.78 D S
108.36  56.00 M 108.00  56.27 D S
160.97  89.15 M 165.43  86.00 D 166.91  86.00 D 166.91  90.20 D S
165.43  89.15 M 169.88  89.15 D S
104.00  48.50 M 102.01  50.00 D S
104.00  47.00 M 100.01  50.00 D S
104.00  45.49 M  98.01  50.00 D S
104.00  43.98 M  96.01  50.00 D S
104.00  42.47 M  94.01  50.00 D S
104.00  40.97 M  92.01  50.00 D S
104.00  39.46 M  90.01  50.00 D S
104.00  37.95 M  88.01  50.00 D S
104.00  36.45 M  86.01  50.00 D S
104.00  34.94 M  84.01  50.00 D S
104.00  33.43 M  82.01  50.00 D S
104.00  31.92 M  80.01  50.00 D S
104.00  30.42 M  78.01  50.00 D S
104.00  28.91 M  76.01  50.00 D S
104.00  27.40 M  74.01  50.00 D S
104.00  25.90 M  72.01  50.00 D S
104.00  24.39 M  70.01  50.00 D S
104.00  22.88 M  68.01  50.00 D S
104.00  21.37 M  66.01  50.00 D S
104.00  19.87 M  64.01  50.00 D S
104.00  18.36 M  62.01  50.00 D S
104.00  16.85 M  60.01  50.00 D S
104.00  15.35 M  58.01  50.00 D S
104.00  13.84 M  56.01  50.00 D S
104.00  12.33 M  54.01  50.00 D S
104.00  10.82 M  54.00  48.50 D S
104.00   9.32 M  54.00  47.00 D S
104.00   7.81 M  54.00  45.49 D S
104.00   6.30 M  54.00  43.98 D S
104.00   4.80 M  54.00  42.47 D S
104.00   3.29 M  54.00  40.97 D S
104.00   1.78 M  54.00  39.46 D S
104.00   0.27 M  54.00  37.95 D S
102.36   0.00 M  54.00  36.45 D S
100.36   0.00 M  54.00  34.94 D S
 98.36   0.00 M  54.00  33.43 D S
 96.36   0.00 M  54.00  31.92 D S
 94.36   0.00 M  54.00  30.42 D S
 92.36   0.00 M  54.00  28.91 D S
 90.36   0.00 M  54.00  27.40 D S
 88.36   0.00 M  54.00  25.90 D S
 86.36   0.00 M  54.00  24.39 D S
 84.36   0.00 M  54.00  22.88 D S
 82.36   0.00 M  54.00  21.37 D S
 80.36   0.00 M  54.00  19.87 D S
 78.36   0.00 M  54.00  18.36 D S
 76.36   0.00 M  54.00  16.85 D S
 74.36   0.00 M  54.00  15.35 D S
 72.36   0.00 M  54.00  13.84 D S
 70.36   0.00 M  54.00  12.33 D S
 68.36   0.00 M  54.00  10.82 D S
 66.36   0.00 M  54.00   9.32 D S
 64.36   0.00 M  54.00   7.81 D S
 62.36   0.00 M  54.00   6.30 D S
 60.36   0.00 M  54.00   4.80 D S
 58.36   0.00 M  54.00   3.29 D S
 56.36   0.00 M  54.00   1.78 D S
 54.36   0.00 M  54.00   0.27 D S
106.97  23.15 M 111.43  20.00 D 112.91  20.00 D 112.91  24.20 D S
111.43  23.15 M 115.88  23.15 D S
104.00 104.50 M 102.01 106.00 D S
104.00 103.00 M 100.01 106.00 D S
104.00 101.49 M  98.01 106.00 D S
104.00  99.98 M  96.01 106.00 D S
104.00  98.47 M  94.01 106.00 D S
104.00  96.97 M  92.01 106.00 D S
104.00  95.46 M  90.01 106.00 D S
104.00  93.95 M  88.01 106.00 D S
104.00  92.45 M  86.01 106.00 D S
104.00  90.94 M  84.01 106.00 D S
104.00  89.43 M  82.01 106.00 D S
104.00  87.92 M  80.01 106.00 D S
104.00  86.42 M  78.01 106.00 D S
104.00  84.91 M  76.01 106.00 D S
104.00  83.40 M  74.01 106.00 D S
104.00  81.90 M  72.01 106.00 D S
104.00  80.39 M  70.01 106.00 D S
104.00  78.88 M  68.01 106.00 D S
104.00  77.37 M  66.01 106.00 D S
104.00  75.87 M  64.01 106.00 D S
104.00  74.36 M  62.01 106.00 D S
104.00  72.85 M  60.01 106.00 D S
104.00  71.35 M  58.01 106.00 D S
104.00  69.84 M  56.01 106.00 D S
104.00  68.33 M  54.01 106.00 D S
104.00  66.82 M  54.00 104.50 D S
104.00  65.32 M  54.00 103.00 D S
104.00  63.81 M  54.00 101.49 D S
104.00  62.30 M  54.00  99.98 D S
104.00  60.80 M  54.00  98.47 D S
104.00  59.29 M  54.00  96.97 D S
104.00  57.78 M  54.00  95.46 D S
104.00  56.27 M  54.00  93.95 D S
102.36  56.00 M  54.00  92.45 D S
100.36  56.00 M  54.00  90.94 D S
 98.36  56.00 M  54.00  89.43 D S
 96.36  56.00 M  54.00  87.92 D S
 94.36  56.00 M  54.00  86.42 D S
 92.36  56.00 M  54.00  84.91 D S
 90.36  56.00 M  54.00  83.40 D S
 88.36  56.00 M  54.00  81.90 D S
 86.36  56.00 M  54.00  80.39 D S
 84.36  56.00 M  54.00  78.88 D S
 82.36  56.00 M  54.00  77.37 D S
 80.36  56.00 M  54.00  75.87 D S
 78.36  56.00 M  54.00  74.36 D S
 76.36  56.00 M  54.00  72.85 D S
 74.36  56.00 M  54.00  71.35 D S
 72.36  56.00 M  54.00  69.84 D S
 70.36  56.00 M  54.00  68.33 D S
 68.36  56.00 M  54.00  66.82 D S
 66.36  56.00 M  54.00  65.32 D S
 64.36  56.00 M  54.00  63.81 D S
 62.36  56.00 M  54.00  62.30 D S
 60.36  56.00 M  54.00  60.80 D S
 58.36  56.00 M  54.00  59.29 D S
 56.36  56.00 M  54.00  57.78 D S
 54.36  56.00 M  54.00  56.27 D S
106.97  79.15 M 111.43  76.00 D 112.91  76.00 D 112.91  80.20 D S
111.43  79.15 M 115.88  79.15 D S
 50.00  48.50 M  48.01  50.00 D S
 50.00  47.00 M  46.01  50.00 D S
 50.00  45.49 M  44.01  50.00 D S
 50.00  43.98 M  42.01  50.00 D S
 50.00  42.47 M  40.01  50.00 D S
 50.00  40.97 M  38.01  50.00 D S
 50.00  39.46 M  36.01  50.00 D S
 50.00  37.95 M  34.01  50.00 D S
 50.00  36.45 M  32.01  50.00 D S
 50.00  34.94 M  30.01  50.00 D S
 50.00  33.43 M  28.01  50.00 D S
 50.00  31.92 M  26.01  50.00 D S
 50.00  30.42 M  24.01  50.00 D S
 50.00  28.91 M  22.01  50.00 D S
 50.00  27.40 M  20.01  50.00 D S
 50.00  25.90 M  18.01  50.00 D S
 50.00  24.39 M  16.01  50.00 D S
 50.00  22.88 M  14.01  50.00 D S
 50.00  21.37 M  12.01  50.00 D S
 50.00  19.87 M  10.01  50.00 D S
 50.00  18.36 M   8.01  50.00 D S
 50.00  16.85 M   6.01  50.00 D S
 50.00  15.35 M   4.01  50.00 D S
 50.00  13.84 M   2.01  50.00 D S
 50.00  12.33 M   0.01  50.00 D S
 50.00  10.82 M   0.00  48.50 D S
 50.00   9.32 M   0.00  47.00 D S
 50.00   7.81 M   0.00  45.49 D S
 50.00   6.30 M   0.00  43.98 D S
 50.00   4.80 M   0.00  42.47 D S
 50.00   3.29 M   0.00  40.97 D S
 50.00   1.78 M   0.00  39.46 D S
 50.00   0.27 M   0.00  37.95 D S
 48.36   0.00 M   0.00  36.45 D S
 46.36   0.00 M   0.00  34.94 D S
 44.36   0.00 M   0.00  33.43 D S
 42.36   0.00 M   0.00  31.92 D S
 40.36   0.00 M   0.00  30.42 D S
 38.36   0.00 M   0.00  28.91 D S
 36.36   0.00 M   0.00  27.40 D S
 34.36   0.00 M   0.00  25.90 D S
 32.36   0.00 M   0.00  24.39 D S
 30.36   0.00 M   0.00  22.88 D S
 28.36   0.00 M   0.00  21.37 D S
 26.36   0.00 M   0.00  19.87 D S
 24.36   0.00 M   0.00  18.36 D S
 22.36   0.00 M   0.00  16.85 D S
 20.36   0.00 M   0.00  15.35 D S
 18.36   0.00 M   0.00  13.84 D S
 16.36   0.00 M   0.00  12.33 D S
 14.36   0.00 M   0.00  10.82 D S
 12.36   0.00 M   0.00   9.32 D S
 10.36   0.00 M   0.00   7.81 D S
  8.36   0.00 M   0.00   6.30 D S
  6.36   0.00 M   0.00   4.80 D S
  4.36   0.00 M   0.00   3.29 D S
  2.36   0.00 M   0.00   1.78 D S
  0.36   0.00 M   0.00   0.27 D S
 52.97  23.15 M  57.42  20.00 D  58.91  20.00 D  58.91  24.20 D S
 57.42  23.15 M  61.88  23.15 D S
 50.00 104.50 M  48.01 106.00 D S
 50.00 103.00 M  46.01 106.00 D S
 50.00 101.49 M  44.01 106.00 D S
 50.00  99.98 M  42.01 106.00 D S
 50.00  98.47 M  40.01 106.00 D S
 50.00  96.97 M  38.01 106.00 D S
 50.00  95.46 M  36.01 106.00 D S
 50.00  93.95 M  34.01 106.00 D S
 50.00  92.45 M  32.01 106.00 D S
 50.00  90.94 M  30.01 106.00 D S
 50.00  89.43 M  28.01 106.00 D S
 50.00  87.92 M  26.01 106.00 D S
 50.00  86.42 M  24.01 106.00 D S
 50.00  84.91 M  22.01 106.00 D S
 50.00  83.40 M  20.01 106.00 D S
 50.00  81.90 M  18.01 106.00 D S
 50.00  80.39 M  16.01 106.00 D S
 50.00  78.88 M  14.01 106.00 D S
 50.00  77.37 M  12.01 106.00 D S
 50.00  75.87 M  10.01 106.00 D S
 50.00  74.36 M   8.01 106.00 D S
 50.00  72.85 M   6.01 106.00 D S
 50.00  71.35 M   4.01 106.00 D S
 50.00  69.84 M   2.01 106.00 D S
 50.00  68.33 M   0.01 106.00 D S
 50.00  66.82 M   0.00 104.50 D S
 50.00  65.32 M   0.00 103.00 D S
 50.00  63.81 M   0.00 101.49 D S
 50.00  62.30 M   0.00  99.98 D S
 50.00  60.80 M   0.00  98.47 D S
 50.00  59.29 M   0.00  96.97 D S
 50.00  57.78 M   0.00  95.46 D S
 50.00  56.27 M   0.00  93.95 D S
 48.36  56.00 M   0.00  92.45 D S
 46.36  56.00 M   0.00  90.94 D S
 44.36  56.00 M   0.00  89.43 D S
 42.36  56.00 M   0.00  87.92 D S
 40.36  56.00 M   0.00  86.42 D S
 38.36  56.00 M   0.00  84.91 D S
 36.36  56.00 M   0.00  83.40 D S
 34.36  56.00 M   0.00  81.90 D S
 32.36  56.00 M   0.00  80.39 D S
 30.36  56.00 M   0.00  78.88 D S
 28.36  56.00 M   0.00  77.37 D S
 26.36  56.00 M   0.00  75.87 D S
 24.36  56.00 M   0.00  74.36 D S
 22.36  56.00 M   0.00  72.85 D S
 20.36  56.00 M   0.00  71.35 D S
 18.36  56.00 M   0.00  69.84 D S
 16.36  56.00 M   0.00  68.33 D S
 14.36  56.00 M   0.00  66.82 D S
 12.36  56.00 M   0.00  65.32 D S
 10.36  56.00 M   0.00  63.81 D S
  8.36  56.00 M   0.00  62.30 D S
  6.36  56.00 M   0.00  60.80 D S
  4.36  56.00 M   0.00  59.29 D S
  2.36  56.00 M   0.00  57.78 D S
  0.36  56.00 M   0.00  56.27 D S
 52.97  79.15 M  57.42  76.00 D  58.91  76.00 D  58.91  80.20 D S
 57.42  79.15 M  61.88  79.15 D S
 61.88  79.15 M  0.000  1.000  1.000 C
 S
158.00  48.61 M 156.01  50.00 D S
158.00  47.21 M 154.01  50.00 D S
158.00  45.81 M 152.01  50.00 D S
158.00  44.41 M 150.01  50.00 D S
158.00  43.01 M 148.01  50.00 D S
158.00  41.61 M 146.01  50.00 D S
158.00  40.21 M 144.01  50.00 D S
158.00  38.81 M 142.01  50.00 D S
158.00  37.41 M 140.01  50.00 D S
158.00  36.00 M 138.01  50.00 D S
158.00  34.60 M 136.01  50.00 D S
158.00  33.20 M 134.01  50.00 D S
158.00  31.80 M 132.01  50.00 D S
158.00  30.40 M 130.01  50.00 D S
158.00  29.00 M 128.01  50.00 D S
158.00  27.60 M 126.01  50.00 D S
158.00  26.20 M 124.01  50.00 D S
158.00  24.80 M 122.01  50.00 D S
158.00  23.40 M 120.01  50.00 D S
158.00  22.00 M 118.01  50.00 D S
158.00  20.60 M 116.01  50.00 D S
158.00  19.20 M 114.01  50.00 D S
158.00  17.80 M 112.01  50.00 D S
158.00  16.40 M 110.01  50.00 D S
158.00  15.00 M 108.01  50.00 D S
158.00  13.60 M 108.00  48.61 D S
158.00  12.20 M 108.00  47.21 D S
158.00  10.80 M 108.00  45.81 D S
158.00   9.40 M 108.00  44.41 D S
158.00   8.00 M 108.00  43.01 D S
158.00   6.60 M 108.00  41.61 D S
158.00   5.20 M 108.00  40.21 D S
158.00   3.80 M 108.00  38.81 D S
158.00   2.39 M 108.00  37.41 D S
158.00   0.99 M 108.00  36.00 D S
157.42   0.00 M 108.00  34.60 D S
155.42   0.00 M 108.00  33.20 D S
153.42   0.00 M 108.00  31.80 D S
151.42   0.00 M 108.00  30.40 D S
149.42   0.00 M 108.00  29.00 D S
147.42   0.00 M 108.00  27.60 D S
145.42   0.00 M 108.00  26.20 D S
143.42   0.00 M 108.00  24.80 D S
141.42   0.00 M 108.00  23.40 D S
139.42   0.00 M 108.00  22.00 D S
137.42   0.00 M 108.00  20.60 D S
135.42   0.00 M 108.00  19.20 D S
133.42   0.00 M 108.00  17.80 D S
131.42   0.00 M 108.00  16.40 D S
129.42   0.00 M 108.00  15.00 D S
127.42   0.00 M 108.00  13.60 D S
125.42   0.00 M 108.00  12.20 D S
123.42   0.00 M 108.00  10.80 D S
121.42   0.00 M 108.00   9.40 D S
119.42   0.00 M 108.00   8.00 D S
117.42   0.00 M 108.00   6.60 D S
115.42   0.00 M 108.00   5.20 D S
113.42   0.00 M 108.00   3.80 D S
111.42   0.00 M 108.00   2.39 D S
109.42   0.00 M 108.00   0.99 D S
160.97  44.20 M 160.97  40.00 D 163.94  40.00 D 163.94  43.15 D 165.43  44.20 D
168.40  44.20 D 169.88  43.15 D 169.88  41.05 D 168.40  40.00 D S
158.00 160.61 M 156.01 162.00 D S
158.00 159.21 M 154.01 162.00 D S
158.00 157.81 M 152.01 162.00 D S
158.00 156.41 M 150.01 162.00 D S
158.00 155.01 M 148.01 162.00 D S
158.00 153.61 M 146.01 162.00 D S
158.00 152.21 M 144.01 162.00 D S
158.00 150.81 M 142.01 162.00 D S
158.00 149.41 M 140.01 162.00 D S
158.00 148.00 M 138.01 162.00 D S
158.00 146.60 M 136.01 162.00 D S
158.00 145.20 M 134.01 162.00 D S
158.00 143.80 M 132.01 162.00 D S
158.00 142.40 M 130.01 162.00 D S
158.00 141.00 M 128.01 162.00 D S
158.00 139.60 M 126.01 162.00 D S
158.00 138.20 M 124.01 162.00 D S
158.00 136.80 M 122.01 162.00 D S
158.00 135.40 M 120.01 162.00 D S
158.00 134.00 M 118.01 162.00 D S
158.00 132.60 M 116.01 162.00 D S
158.00 131.20 M 114.01 162.00 D S
158.00 129.80 M 112.01 162.00 D S
158.00 128.40 M 110.01 162.00 D S
158.00 127.00 M 108.01 162.00 D S
158.00 125.60 M 108.00 160.61 D S
158.00 124.20 M 108.00 159.21 D S
158.00 122.80 M 108.00 157.81 D S
158.00 121.40 M 108.00 156.41 D S
158.00 120.00 M 108.00 155.01 D S
158.00 118.60 M 108.00 153.61 D S
158.00 117.20 M 108.00 152.21 D S
158.00 115.80 M 108.00 150.81 D S
158.00 114.39 M 108.00 149.41 D S
158.00 112.99 M 108.00 148.00 D S
157.42 112.00 M 108.00 146.60 D S
155.42 112.00 M 108.00 145.20 D S
153.42 112.00 M 108.00 143.80 D S
151.42 112.00 M 108.00 142.40 D S
149.42 112.00 M 108.00 141.00 D S
147.42 112.00 M 108.00 139.60 D S
145.42 112.00 M 108.00 138.20 D S
143.42 112.00 M 108.00 136.80 D S
141.42 112.00 M 108.00 135.40 D S
139.42 112.00 M 108.00 134.00 D S
137.42 112.00 M 108.00 132.60 D S
135.42 112.00 M 108.00 131.20 D S
133.42 112.00 M 108.00 129.80 D S
131.42 112.00 M 108.00 128.40 D S
129.42 112.00 M 108.00 127.00 D S
127.42 112.00 M 108.00 125.60 D S
125.42 112.00 M 108.00 124.20 D S
123.42 112.00 M 108.00 122.80 D S
121.42 112.00 M 108.00 121.40 D S
119.42 112.00 M 108.00 120.00 D S
117.42 112.00 M 108.00 118.60 D S
115.42 112.00 M 108.00 117.20 D S
113.42 112.00 M 108.00 115.80 D S
111.42 112.00 M 108.00 114.39 D S
109.42 112.00 M 108.00 112.99 D S
160.97 146.20 M 160.97 142.00 D 163.94 142.00 D 163.94 145.15 D 165.43 146.20 D
168.40 146.20 D 169.88 145.15 D 169.88 143.05 D 168.40 142.00 D S
104.00  48.61 M 102.01  50.00 D S
104.00  47.21 M 100.01  50.00 D S
104.00  45.81 M  98.01  50.00 D S
104.00  44.41 M  96.01  50.00 D S
104.00  43.01 M  94.01  50.00 D S
104.00  41.61 M  92.01  50.00 D S
104.00  40.21 M  90.01  50.00 D S
104.00  38.81 M  88.01  50.00 D S
104.00  37.41 M  86.01  50.00 D S
104.00  36.00 M  84.01  50.00 D S
104.00  34.60 M  82.01  50.00 D S
104.00  33.20 M  80.01  50.00 D S
104.00  31.80 M  78.01  50.00 D S
104.00  30.40 M  76.01  50.00 D S
104.00  29.00 M  74.01  50.00 D S
104.00  27.60 M  72.01  50.00 D S
104.00  26.20 M  70.01  50.00 D S
104.00  24.80 M  68.01  50.00 D S
104.00  23.40 M  66.01  50.00 D S
104.00  22.00 M  64.01  50.00 D S
104.00  20.60 M  62.01  50.00 D S
104.00  19.20 M  60.01  50.00 D S
104.00  17.80 M  58.01  50.00 D S
104.00  16.40 M  56.01  50.00 D S
104.00  15.00 M  54.01  50.00 D S
104.00  13.60 M  54.00  48.61 D S
104.00  12.20 M  54.00  47.21 D S
104.00  10.80 M  54.00  45.81 D S
104.00   9.40 M  54.00  44.41 D S
104.00   8.00 M  54.00  43.01 D S
104.00   6.60 M  54.00  41.61 D S
104.00   5.20 M  54.00  40.21 D S
104.00   3.80 M  54.00  38.81 D S
104.00   2.39 M  54.00  37.41 D S
104.00   0.99 M  54.00  36.00 D S
103.42   0.00 M  54.00  34.60 D S
101.42   0.00 M  54.00  33.20 D S
 99.42   0.00 M  54.00  31.80 D S
 97.42   0.00 M  54.00  30.40 D S
 95.42   0.00 M  54.00  29.00 D S
 93.42   0.00 M  54.00  27.60 D S
 91.42   0.00 M  54.00  26.20 D S
 89.42   0.00 M  54.00  24.80 D S
 87.42   0.00 M  54.00  23.40 D S
 85.42   0.00 M  54.00  22.00 D S
 83.42   0.00 M  54.00  20.60 D S
 81.42   0.00 M  54.00  19.20 D S
 79.42   0.00 M  54.00  17.80 D S
 77.42   0.00 M  54.00  16.40 D S
 75.42   0.00 M  54.00  15.00 D S
 73.42   0.00 M  54.00  13.60 D S
 71.42   0.00 M  54.00  12.20 D S
 69.42   0.00 M  54.00  10.80 D S
 67.42   0.00 M  54.00   9.40 D S
 65.42   0.00 M  54.00   8.00 D S
 63.42   0.00 M  54.00   6.60 D S
 61.42   0.00 M  54.00   5.20 D S
 59.42   0.00 M  54.00   3.80 D S
 57.42   0.00 M  54.00   2.39 D S
 55.42   0.00 M  54.00   0.99 D S
106.97  34.20 M 106.97  30.00 D 109.94  30.00 D 109.94  33.15 D 111.43  34.20 D
114.39  34.20 D 115.88  33.15 D 115.88  31.05 D 114.39  30.00 D S
104.00 160.61 M 102.01 162.00 D S
104.00 159.21 M 100.01 162.00 D S
104.00 157.81 M  98.01 162.00 D S
104.00 156.41 M  96.01 162.00 D S
104.00 155.01 M  94.01 162.00 D S
104.00 153.61 M  92.01 162.00 D S
104.00 152.21 M  90.01 162.00 D S
104.00 150.81 M  88.01 162.00 D S
104.00 149.41 M  86.01 162.00 D S
104.00 148.00 M  84.01 162.00 D S
104.00 146.60 M  82.01 162.00 D S
104.00 145.20 M  80.01 162.00 D S
104.00 143.80 M  78.01 162.00 D S
104.00 142.40 M  76.01 162.00 D S
104.00 141.00 M  74.01 162.00 D S
104.00 139.60 M  72.01 162.00 D S
104.00 138.20 M  70.01 162.00 D S
104.00 136.80 M  68.01 162.00 D S
104.00 135.40 M  66.01 162.00 D S
104.00 134.00 M  64.01 162.00 D S
104.00 132.60 M  62.01 162.00 D S
104.00 131.20 M  60.01 162.00 D S
104.00 129.80 M  58.01 162.00 D S
104.00 128.40 M  56.01 162.00 D S
104.00 127.00 M  54.01 162.00 D S
104.00 125.60 M  54.00 160.61 D S
104.00 124.20 M  54.00 159.21 D S
104.00 122.80 M  54.00 157.81 D S
104.00 121.40 M  54.00 156.41 D S
104.00 120.00 M  54.00 155.01 D S
104.00 118.60 M  54.00 153.61 D S
104.00 117.20 M  54.00 152.21 D S
104.00 115.80 M  54.00 150.81 D S
104.00 114.39 M  54.00 149.41 D S
104.00 112.99 M  54.00 148.00 D S
103.42 112.00 M  54.00 146.60 D S
101.42 112.00 M  54.00 145.20 D S
 99.42 112.00 M  54.00 143.80 D S
 97.42 112.00 M  54.00 142.40 D S
 95.42 112.00 M  54.00 141.00 D S
 93.42 112.00 M  54.00 139.60 D S
 91.42 112.00 M  54.00 138.20 D S
 89.42 112.00 M  54.00 136.80 D S
 87.42 112.00 M  54.00 135.40 D S
 85.42 112.00 M  54.00 134.00 D S
 83.42 112.00 M  54.00 132.60 D S
 81.42 112.00 M  54.00 131.20 D S
 79.42 112.00 M  54.00 129.80 D S
 77.42 112.00 M  54.00 128.40 D S
 75.42 112.00 M  54.00 127.00 D S
 73.42 112.00 M  54.00 125.60 D S
 71.42 112.00 M  54.00 124.20 D S
 69.42 112.00 M  54.00 122.80 D S
 67.42 112.00 M  54.00 121.40 D S
 65.42 112.00 M  54.00 120.00 D S
 63.42 112.00 M  54.00 118.60 D S
 61.42 112.00 M  54.00 117.20 D S
 59.42 112.00 M  54.00 115.80 D S
 57.42 112.00 M  54.00 114.39 D S
 55.42 112.00 M  54.00 112.99 D S
106.97 136.20 M 106.97 132.00 D 109.94 132.00 D 109.94 135.15 D 111.43 136.20 D
114.39 136.20 D 115.88 135.15 D 115.88 133.05 D 114.39 132.00 D S
 50.00  48.61 M  48.01  50.00 D S
 50.00  47.21 M  46.01  50.00 D S
 50.00  45.81 M  44.01  50.00 D S
 50.00  44.41 M  42.01  50.00 D S
 50.00  43.01 M  40.01  50.00 D S
 50.00  41.61 M  38.01  50.00 D S
 50.00  40.21 M  36.01  50.00 D S
 50.00  38.81 M  34.01  50.00 D S
 50.00  37.41 M  32.01  50.00 D S
 50.00  36.00 M  30.01  50.00 D S
 50.00  34.60 M  28.01  50.00 D S
 50.00  33.20 M  26.01  50.00 D S
 50.00  31.80 M  24.01  50.00 D S
 50.00  30.40 M  22.01  50.00 D S
 50.00  29.00 M  20.01  50.00 D S
 50.00  27.60 M  18.01  50.00 D S
 50.00  26.20 M  16.01  50.00 D S
 50.00  24.80 M  14.01  50.00 D S
 50.00  23.40 M  12.01  50.00 D S
 50.00  22.00 M  10.01  50.00 D S
 50.00  20.60 M   8.01  50.00 D S
 50.00  19.20 M   6.01  50.00 D S
 50.00  17.80 M   4.01  50.00 D S
 50.00  16.40 M   2.01  50.00 D S
 50.00  15.00 M   0.01  50.00 D S
 50.00  13.60 M   0.00  48.61 D S
 50.00  12.20 M   0.00  47.21 D S
 50.00  10.80 M   0.00  45.81 D S
 50.00   9.40 M   0.00  44.41 D S
 50.00   8.00 M   0.00  43.01 D S
 50.00   6.60 M   0.00  41.61 D S
 50.00   5.20 M   0.00  40.21 D S
 50.00   3.80 M   0.00  38.81 D S
 50.00   2.39 M   0.00  37.41 D S
 50.00   0.99 M   0.00  36.00 D S
 49.42   0.00 M   0.00  34.60 D S
 47.42   0.00 M   0.00  33.20 D S
 45.42   0.00 M   0.00  31.80 D S
 43.42   0.00 M   0.00  30.40 D S
 41.42   0.00 M   0.00  29.00 D S
 39.42   0.00 M   0.00  27.60 D S
 37.42   0.00 M   0.00  26.20 D S
 35.42   0.00 M   0.00  24.80 D S
 33.42   0.00 M   0.00  23.40 D S
 31.42   0.00 M   0.00  22.00 D S
 29.42   0.00 M   0.00  20.60 D S
 27.42   0.00 M   0.00  19.20 D S
 25.42   0.00 M   0.00  17.80 D S
 23.42   0.00 M   0.00  16.40 D S
 21.42   0.00 M   0.00  15.00 D S
 19.42   0.00 M   0.00  13.60 D S
 17.42   0.00 M   0.00  12.20 D S
 15.42   0.00 M   0.00  10.80 D S
 13.42   0.00 M   0.00   9.40 D S
 11.42   0.00 M   0.00   8.00 D S
  9.42   0.00 M   0.00   6.60 D S
  7.42   0.00 M   0.00   5.20 D S
  5.42   0.00 M   0.00   3.80 D S
  3.42   0.00 M   0.00   2.39 D S
  1.42   0.00 M   0.00   0.99 D S
 52.97  34.20 M  52.97  30.00 D  55.94  30.00 D  55.94  33.15 D  57.42  34.20 D
 60.39  34.20 D  61.88  33.15 D  61.88  31.05 D  60.39  30.00 D S
 50.00 160.61 M  48.01 162.00 D S
 50.00 159.21 M  46.01 162.00 D S
 50.00 157.81 M  44.01 162.00 D S
 50.00 156.41 M  42.01 162.00 D S
 50.00 155.01 M  40.01 162.00 D S
 50.00 153.61 M  38.01 162.00 D S
 50.00 152.21 M  36.01 162.00 D S
 50.00 150.81 M  34.01 162.00 D S
 50.00 149.41 M  32.01 162.00 D S
 50.00 148.00 M  30.01 162.00 D S
 50.00 146.60 M  28.01 162.00 D S
 50.00 145.20 M  26.01 162.00 D S
 50.00 143.80 M  24.01 162.00 D S
 50.00 142.40 M  22.01 162.00 D S
 50.00 141.00 M  20.01 162.00 D S
 50.00 139.60 M  18.01 162.00 D S
 50.00 138.20 M  16.01 162.00 D S
 50.00 136.80 M  14.01 162.00 D S
 50.00 135.40 M  12.01 162.00 D S
 50.00 134.00 M  10.01 162.00 D S
 50.00 132.60 M   8.01 162.00 D S
 50.00 131.20 M   6.01 162.00 D S
 50.00 129.80 M   4.01 162.00 D S
 50.00 128.40 M   2.01 162.00 D S
 50.00 127.00 M   0.01 162.00 D S
 50.00 125.60 M   0.00 160.61 D S
 50.00 124.20 M   0.00 159.21 D S
 50.00 122.80 M   0.00 157.81 D S
 50.00 121.40 M   0.00 156.41 D S
 50.00 120.00 M   0.00 155.01 D S
 50.00 118.60 M   0.00 153.61 D S
 50.00 117.20 M   0.00 152.21 D S
 50.00 115.80 M   0.00 150.81 D S
 50.00 114.39 M   0.00 149.41 D S
 50.00 112.99 M   0.00 148.00 D S
 49.42 112.00 M   0.00 146.60 D S
 47.42 112.00 M   0.00 145.20 D S
 45.42 112.00 M   0.00 143.80 D S
 43.42 112.00 M   0.00 142.40 D S
 41.42 112.00 M   0.00 141.00 D S
 39.42 112.00 M   0.00 139.60 D S
 37.42 112.00 M   0.00 138.20 D S
 35.42 112.00 M   0.00 136.80 D S
 33.42 112.00 M   0.00 135.40 D S
 31.42 112.00 M   0.00 134.00 D S
 29.42 112.00 M   0.00 132.60 D S
 27.42 112.00 M   0.00 131.20 D S
 25.42 112.00 M   0.00 129.80 D S
 23.42 112.00 M   0.00 128.40 D S
 21.42 112.00 M   0.00 127.00 D S
 19.42 112.00 M   0.00 125.60 D S
 17.42 112.00 M   0.00 124.20 D S
 15.42 112.00 M   0.00 122.80 D S
 13.42 112.00 M   0.00 121.40 D S
 11.42 112.00 M   0.00 120.00 D S
  9.42 112.00 M   0.00 118.60 D S
  7.42 112.00 M   0.00 117.20 D S
  5.42 112.00 M   0.00 115.80 D S
  3.42 112.00 M   0.00 114.39 D S
  1.42 112.00 M   0.00 112.99 D S
 52.97 136.20 M  52.97 132.00 D  55.94 132.00 D  55.94 135.15 D  57.42 136.20 D
 60.39 136.20 D  61.88 135.15 D  61.88 133.05 D  60.39 132.00 D S
eop
@end
%%PageTrailer
%%Trailer
%%EOF
