%!PS-Adobe-2.0 EPSF-2.0
%%Title: /home/gijs/.chiplotle/output/20180115_204302.eps
%%Creator: hp2xx 3.4.4 (c) 1991-1994 by H. Werntges, 1999-2003 by M. Kroeker
%%CreationDate: Mon Jan 15 20:43:02 2018
%%Pages: 1
%%BoundingBox: 0 0 457 615
%%EndComments

%%BeginProcSet:
/PSSave save def
/PSDict 200 dict def
PSDict begin
/@restore /restore load def
/restore
   {vmstatus pop
    dup @VMused lt {pop @VMused} if
    exch pop exch @restore /@VMused exch def
   } def
/@pri
   {
    ( ) print
    (                                       ) cvs print
   } def
/@start
   {
    vmstatus pop /@VMused exch def pop
   } def
/@end
   {(VM Used: ) print @VMused @pri
    (. Unused: ) print vmstatus @VMused sub @pri pop pop
    (\n) print flush
    end
    PSSave restore
   } def
/bop
   {
    /SaveImage save def
   } def
/eop
   {
    showpage
    SaveImage restore
   } def
/@line
   {
%%    1 setlinejoin      %% now set from LA command
%%    1 setmiterlimit    %% now set from LA command
   } def
/@SetPlot
   {
    2.834646 2.834646 scale
      0.050   0.050 translate
     0.100 setlinewidth
   } def
/C {setrgbcolor} def
/D {lineto} def
/M {moveto} def
/S {stroke} def
/W {setlinewidth} def
/Z {stroke newpath} def
end
%%EndProcSet

%%BeginSetup
/#copies 1 def
%%EndSetup
%%Page: 1 1
%%BeginPageSetup
PSDict begin
@start
@line
@SetPlot

bop
%%EndPageSetup
  0.100 W
 S
169.18 -20.00 M  0.100 W
 S
169.18 -20.00 M 1 setlinecap
 S
169.18 -20.00 M 1 setlinejoin
 S
169.18 -20.00 M  0.000  0.000  0.000 C
 S
144.05  16.79 M 143.19  17.65 D S
144.05  15.79 M 142.19  17.65 D S
144.05  14.79 M 141.19  17.65 D S
143.66  14.18 M 140.19  17.65 D S
142.66  14.18 M 139.19  17.65 D S
141.66  14.18 M 138.19  17.65 D S
140.66  14.18 M 137.19  17.65 D S
139.66  14.18 M 136.19  17.65 D S
138.66  14.18 M 135.19  17.65 D S
137.66  14.18 M 134.19  17.65 D S
136.66  14.18 M 133.19  17.65 D S
135.66  14.18 M 132.19  17.65 D S
134.66  14.18 M 131.90  16.94 D S
133.66  14.18 M 131.90  15.94 D S
132.66  14.18 M 131.90  14.94 D S
161.06   1.05 M 161.06   3.15 D S
161.06   2.10 M 152.15   2.10 D 153.63   1.05 D S
143.73  81.11 M 143.19  81.65 D S
143.73  80.11 M 142.19  81.65 D S
143.73  79.11 M 141.80  81.04 D S
143.73  78.11 M 141.80  80.04 D S
143.73  77.11 M 141.80  79.04 D S
143.73  76.11 M 141.80  78.04 D S
143.73  75.11 M 141.80  77.04 D S
143.73  74.11 M 141.80  76.04 D S
143.73  73.11 M 141.80  75.04 D S
143.73  72.11 M 141.80  74.04 D S
143.73  71.11 M 141.80  73.04 D S
143.73  70.11 M 141.80  72.04 D S
143.73  69.11 M 141.80  71.04 D S
143.73  68.11 M 141.80  70.04 D S
143.73  67.11 M 141.80  69.04 D S
143.73  66.11 M 141.80  68.04 D S
143.73  65.11 M 141.80  67.04 D S
143.73  64.11 M 141.80  66.04 D S
143.73  63.11 M 141.80  65.04 D S
143.73  62.11 M 141.80  64.04 D S
143.73  61.11 M 141.80  63.04 D S
143.73  60.11 M 141.80  62.04 D S
143.73  59.11 M 141.80  61.04 D S
143.73  58.11 M 141.80  60.04 D S
143.73  57.11 M 141.80  59.04 D S
143.73  56.11 M 141.80  58.04 D S
143.73  55.11 M 141.80  57.04 D S
143.73  54.11 M 141.80  56.04 D S
143.73  53.11 M 141.80  55.04 D S
143.73  52.11 M 141.80  54.04 D S
143.73  51.11 M 141.80  53.04 D S
143.73  50.11 M 141.80  52.04 D S
143.73  49.11 M 141.80  51.04 D S
143.73  48.11 M 141.80  50.04 D S
143.73  47.11 M 141.80  49.04 D S
143.51  46.33 M 141.80  48.04 D S
142.51  46.33 M 141.80  47.04 D S
161.06  45.55 M 161.06  47.65 D S
161.06  46.60 M 152.15  46.60 D 153.63  45.55 D S
137.53 124.99 M 137.19 125.33 D S
137.53 123.99 M 136.19 125.33 D S
137.53 122.99 M 135.19 125.33 D S
137.53 121.99 M 134.19 125.33 D S
137.53 120.99 M 133.19 125.33 D S
137.53 119.99 M 132.19 125.33 D S
137.53 118.99 M 131.19 125.33 D S
137.53 117.99 M 130.19 125.33 D S
137.53 116.99 M 129.19 125.33 D S
137.53 115.99 M 128.19 125.33 D S
137.53 114.99 M 127.19 125.33 D S
137.53 113.99 M 126.55 124.96 D S
137.53 112.99 M 126.55 123.96 D S
137.53 111.99 M 126.55 122.96 D S
137.53 110.99 M 126.55 121.96 D S
137.53 109.99 M 126.55 120.96 D S
137.53 108.99 M 126.55 119.96 D S
137.53 107.99 M 126.55 118.96 D S
137.53 106.99 M 126.55 117.96 D S
137.53 105.99 M 126.55 116.96 D S
137.53 104.99 M 126.55 115.96 D S
137.53 103.99 M 126.55 114.96 D S
137.53 102.99 M 126.55 113.96 D S
137.53 101.99 M 126.55 112.96 D S
137.53 100.99 M 126.55 111.96 D S
137.53  99.99 M 126.55 110.96 D S
137.53  98.99 M 126.55 109.96 D S
137.53  97.99 M 126.55 108.96 D S
137.53  96.99 M 126.55 107.96 D S
137.53  95.99 M 126.55 106.96 D S
137.53  94.99 M 126.55 105.96 D S
137.53  93.99 M 126.55 104.96 D S
137.53  92.99 M 126.55 103.96 D S
137.53  91.99 M 126.55 102.96 D S
137.53  90.99 M 126.55 101.96 D S
137.21  90.30 M 126.55 100.96 D S
136.21  90.30 M 126.55  99.96 D S
135.21  90.30 M 126.55  98.96 D S
134.21  90.30 M 126.55  97.96 D S
133.21  90.30 M 126.55  96.96 D S
132.21  90.30 M 126.55  95.96 D S
131.21  90.30 M 126.55  94.96 D S
130.21  90.30 M 126.55  93.96 D S
129.21  90.30 M 126.55  92.96 D S
128.21  90.30 M 126.55  91.96 D S
127.21  90.30 M 126.55  90.96 D S
161.06  90.05 M 161.06  92.15 D S
161.06  91.10 M 152.15  91.10 D 153.63  90.05 D S
148.50 155.86 M 148.19 156.18 D S
148.50 154.86 M 147.19 156.18 D S
148.50 153.86 M 146.19 156.18 D S
148.50 152.86 M 145.19 156.18 D S
148.50 151.86 M 144.19 156.18 D S
148.50 150.86 M 143.19 156.18 D S
148.50 149.86 M 142.19 156.18 D S
148.50 148.86 M 141.19 156.18 D S
148.14 148.23 M 140.19 156.18 D S
147.14 148.23 M 139.19 156.18 D S
146.14 148.23 M 138.19 156.18 D S
145.14 148.23 M 137.19 156.18 D S
144.14 148.23 M 136.19 156.18 D S
143.14 148.23 M 135.19 156.18 D S
142.14 148.23 M 134.19 156.18 D S
141.14 148.23 M 133.19 156.18 D S
140.14 148.23 M 132.19 156.18 D S
139.14 148.23 M 131.19 156.18 D S
138.14 148.23 M 130.19 156.18 D S
137.14 148.23 M 129.19 156.18 D S
136.14 148.23 M 128.19 156.18 D S
135.14 148.23 M 127.19 156.18 D S
134.14 148.23 M 126.19 156.18 D S
133.14 148.23 M 125.19 156.18 D S
132.14 148.23 M 124.19 156.18 D S
131.14 148.23 M 123.19 156.18 D S
130.14 148.23 M 122.19 156.18 D S
129.14 148.23 M 121.75 155.61 D S
128.14 148.23 M 121.75 154.61 D S
127.14 148.23 M 121.75 153.61 D S
126.14 148.23 M 121.75 152.61 D S
125.14 148.23 M 121.75 151.61 D S
124.14 148.23 M 121.75 150.61 D S
123.14 148.23 M 121.75 149.61 D S
122.14 148.23 M 121.75 148.61 D S
161.06 134.55 M 161.06 136.65 D S
161.06 135.60 M 152.15 135.60 D 153.63 134.55 D S
142.57 212.29 M 142.19 212.68 D S
142.57 211.29 M 141.19 212.68 D S
142.57 210.29 M 140.19 212.68 D S
142.57 209.29 M 140.15 211.71 D S
142.57 208.29 M 140.15 210.71 D S
142.57 207.29 M 140.15 209.71 D S
142.57 206.29 M 140.15 208.71 D S
142.57 205.29 M 140.15 207.71 D S
142.57 204.29 M 140.15 206.71 D S
142.57 203.29 M 140.15 205.71 D S
142.57 202.29 M 140.15 204.71 D S
142.57 201.29 M 140.15 203.71 D S
142.57 200.29 M 140.15 202.71 D S
142.57 199.29 M 140.15 201.71 D S
142.57 198.29 M 140.15 200.71 D S
142.57 197.29 M 140.15 199.71 D S
142.57 196.29 M 140.15 198.71 D S
142.57 195.29 M 140.15 197.71 D S
142.57 194.29 M 140.15 196.71 D S
142.57 193.29 M 140.15 195.71 D S
142.57 192.29 M 140.15 194.71 D S
142.57 191.29 M 140.15 193.71 D S
142.57 190.29 M 140.15 192.71 D S
142.57 189.29 M 140.15 191.71 D S
142.57 188.29 M 140.15 190.71 D S
142.57 187.29 M 140.15 189.71 D S
142.57 186.29 M 140.15 188.71 D S
142.57 185.29 M 140.15 187.71 D S
142.57 184.29 M 140.15 186.71 D S
142.57 183.29 M 140.15 185.71 D S
142.57 182.29 M 140.15 184.71 D S
142.57 181.29 M 140.15 183.71 D S
142.57 180.29 M 140.15 182.71 D S
141.79 180.07 M 140.15 181.71 D S
140.79 180.07 M 140.15 180.71 D S
161.06 179.05 M 161.06 181.15 D S
161.06 180.10 M 152.15 180.10 D 153.63 179.05 D S
 88.22  26.39 M  88.19  26.43 D S
 88.22  25.39 M  87.19  26.43 D S
 88.22  24.39 M  86.19  26.43 D S
 88.22  23.39 M  85.19  26.43 D S
 88.22  22.39 M  84.19  26.43 D S
 88.22  21.39 M  83.19  26.43 D S
 88.22  20.39 M  82.19  26.43 D S
 88.22  19.39 M  81.19  26.43 D S
 88.22  18.39 M  80.19  26.43 D S
 88.22  17.39 M  79.19  26.43 D S
 88.22  16.39 M  78.19  26.43 D S
 88.22  15.39 M  77.19  26.43 D S
 88.22  14.39 M  76.19  26.43 D S
 88.22  13.39 M  75.19  26.43 D S
 88.22  12.39 M  74.19  26.43 D S
 88.22  11.39 M  73.19  26.43 D S
 88.22  10.39 M  72.19  26.43 D S
 88.22   9.39 M  71.19  26.43 D S
 87.26   9.35 M  70.72  25.89 D S
 86.26   9.35 M  70.72  24.89 D S
 85.26   9.35 M  70.72  23.89 D S
 84.26   9.35 M  70.72  22.89 D S
 83.26   9.35 M  70.72  21.89 D S
 82.26   9.35 M  70.72  20.89 D S
 81.26   9.35 M  70.72  19.89 D S
 80.26   9.35 M  70.72  18.89 D S
 79.26   9.35 M  70.72  17.89 D S
 78.26   9.35 M  70.72  16.89 D S
 77.26   9.35 M  70.72  15.89 D S
 76.26   9.35 M  70.72  14.89 D S
 75.26   9.35 M  70.72  13.89 D S
 74.26   9.35 M  70.72  12.89 D S
 73.26   9.35 M  70.72  11.89 D S
 72.26   9.35 M  70.72  10.89 D S
 71.26   9.35 M  70.72   9.89 D S
102.06   1.05 M 102.06   3.15 D S
102.06   2.10 M  93.15   2.10 D  94.63   1.05 D S
 89.43  58.61 M  89.19  58.85 D S
 89.43  57.61 M  88.19  58.85 D S
 89.43  56.61 M  87.19  58.85 D S
 89.43  55.61 M  86.19  58.85 D S
 89.43  54.61 M  85.19  58.85 D S
 89.43  53.61 M  84.19  58.85 D S
 89.43  52.61 M  83.19  58.85 D S
 88.94  52.10 M  82.19  58.85 D S
 87.94  52.10 M  81.19  58.85 D S
 86.94  52.10 M  80.19  58.85 D S
 85.94  52.10 M  79.19  58.85 D S
 84.94  52.10 M  78.19  58.85 D S
 83.94  52.10 M  77.19  58.85 D S
 82.94  52.10 M  76.19  58.85 D S
 81.94  52.10 M  75.19  58.85 D S
 80.94  52.10 M  74.19  58.85 D S
 79.94  52.10 M  73.55  58.49 D S
 78.94  52.10 M  73.55  57.49 D S
 77.94  52.10 M  73.55  56.49 D S
 76.94  52.10 M  73.55  55.49 D S
 75.94  52.10 M  73.55  54.49 D S
 74.94  52.10 M  73.55  53.49 D S
 73.94  52.10 M  73.55  52.49 D S
102.06  45.55 M 102.06  47.65 D S
102.06  46.60 M  93.15  46.60 D  94.63  45.55 D S
 88.09 107.30 M  87.19 108.20 D S
 87.09 107.30 M  86.19 108.20 D S
 86.09 107.30 M  85.19 108.20 D S
 85.09 107.30 M  84.19 108.20 D S
 84.09 107.30 M  83.19 108.20 D S
 83.09 107.30 M  82.19 108.20 D S
 82.09 107.30 M  81.19 108.20 D S
 81.09 107.30 M  80.19 108.20 D S
 80.09 107.30 M  79.19 108.20 D S
 79.09 107.30 M  78.19 108.20 D S
 78.09 107.30 M  77.19 108.20 D S
 77.09 107.30 M  76.19 108.20 D S
 76.09 107.30 M  75.19 108.20 D S
 75.09 107.30 M  74.19 108.20 D S
 74.09 107.30 M  73.19 108.20 D S
 73.09 107.30 M  72.19 108.20 D S
 72.09 107.30 M  71.19 108.20 D S
 71.09 107.30 M  70.19 108.20 D S
 70.09 107.30 M  69.19 108.20 D S
 69.09 107.30 M  68.19 108.20 D S
 68.09 107.30 M  67.19 108.20 D S
 67.09 107.30 M  66.19 108.20 D S
 66.09 107.30 M  65.19 108.20 D S
 65.09 107.30 M  64.19 108.20 D S
 64.09 107.30 M  63.19 108.20 D S
 63.09 107.30 M  62.19 108.20 D S
 62.09 107.30 M  61.19 108.20 D S
 61.09 107.30 M  60.19 108.20 D S
 60.09 107.30 M  59.19 108.20 D S
 59.09 107.30 M  58.19 108.20 D S
 58.09 107.30 M  57.53 107.86 D S
102.06  90.05 M 102.06  92.15 D S
102.06  91.10 M  93.15  91.10 D  94.63  90.05 D S
 94.63  90.05 M  1.000  0.000  0.000 C
 S
147.88   1.00 M 145.68   1.00 D S
147.88   2.00 M 145.68   2.00 D S
147.88   3.00 M 145.68   3.00 D S
147.88   4.00 M 145.68   4.00 D S
147.88   5.00 M 145.68   5.00 D S
147.88   6.00 M 145.68   6.00 D S
147.88   7.00 M 145.68   7.00 D S
147.88   8.00 M 145.68   8.00 D S
147.88   9.00 M 145.68   9.00 D S
147.88  10.00 M 145.68  10.00 D S
147.88  11.00 M 145.68  11.00 D S
147.88  12.00 M 145.68  12.00 D S
147.88  13.00 M 145.68  13.00 D S
147.88  14.00 M 145.68  14.00 D S
147.88  15.00 M 145.68  15.00 D S
147.88  16.00 M 145.68  16.00 D S
147.88  17.00 M 145.68  17.00 D S
147.88  18.00 M 145.68  18.00 D S
147.88  19.00 M 145.68  19.00 D S
147.88  20.00 M 145.68  20.00 D S
147.88  21.00 M 145.68  21.00 D S
147.88  22.00 M 145.68  22.00 D S
147.88  23.00 M 145.68  23.00 D S
147.88  24.00 M 145.68  24.00 D S
147.88  25.00 M 145.68  25.00 D S
147.88  26.00 M 145.68  26.00 D S
147.88  27.00 M 145.68  27.00 D S
147.88  28.00 M 145.68  28.00 D S
147.88  29.00 M 145.68  29.00 D S
147.88  30.00 M 145.68  30.00 D S
147.88  31.00 M 145.68  31.00 D S
147.88  32.00 M 145.68  32.00 D S
147.88  33.00 M 145.68  33.00 D S
147.88  34.00 M 145.68  34.00 D S
147.88  35.00 M 145.68  35.00 D S
147.88  36.00 M 145.68  36.00 D S
153.63  10.00 M 152.15  11.05 D 152.15  13.15 D 153.63  14.20 D 155.12  14.20 D
159.57  10.00 D 161.06  10.00 D 161.06  14.20 D S
148.65  51.00 M 146.68  51.00 D S
148.65  52.00 M 146.68  52.00 D S
148.65  53.00 M 146.68  53.00 D S
148.65  54.00 M 146.68  54.00 D S
148.65  55.00 M 146.68  55.00 D S
148.65  56.00 M 146.68  56.00 D S
148.65  57.00 M 146.68  57.00 D S
148.65  58.00 M 146.68  58.00 D S
148.65  59.00 M 146.68  59.00 D S
148.65  60.00 M 146.68  60.00 D S
148.65  61.00 M 146.68  61.00 D S
148.65  62.00 M 146.68  62.00 D S
148.65  63.00 M 146.68  63.00 D S
148.65  64.00 M 146.68  64.00 D S
148.65  65.00 M 146.68  65.00 D S
148.65  66.00 M 146.68  66.00 D S
148.65  67.00 M 146.68  67.00 D S
148.65  68.00 M 146.68  68.00 D S
148.65  69.00 M 146.68  69.00 D S
148.65  70.00 M 146.68  70.00 D S
148.65  71.00 M 146.68  71.00 D S
148.65  72.00 M 146.68  72.00 D S
148.65  73.00 M 146.68  73.00 D S
148.65  74.00 M 146.68  74.00 D S
148.65  75.00 M 146.68  75.00 D S
148.65  76.00 M 146.68  76.00 D S
153.63  54.50 M 152.15  55.55 D 152.15  57.65 D 153.63  58.70 D 155.12  58.70 D
159.57  54.50 D 161.06  54.50 D 161.06  58.70 D S
137.93  93.00 M 120.83  93.00 D S
137.93  94.00 M 120.83  94.00 D S
137.93  95.00 M 120.83  95.00 D S
137.93  96.00 M 120.83  96.00 D S
137.93  97.00 M 120.83  97.00 D S
137.93  98.00 M 120.83  98.00 D S
137.93  99.00 M 120.83  99.00 D S
137.93 100.00 M 120.83 100.00 D S
137.93 101.00 M 120.83 101.00 D S
137.93 102.00 M 120.83 102.00 D S
137.93 103.00 M 120.83 103.00 D S
137.93 104.00 M 120.83 104.00 D S
137.93 105.00 M 120.83 105.00 D S
137.93 106.00 M 120.83 106.00 D S
137.93 107.00 M 120.83 107.00 D S
137.93 108.00 M 120.83 108.00 D S
137.93 109.00 M 120.83 109.00 D S
137.93 110.00 M 120.83 110.00 D S
137.93 111.00 M 120.83 111.00 D S
137.93 112.00 M 120.83 112.00 D S
137.93 113.00 M 120.83 113.00 D S
137.93 114.00 M 120.83 114.00 D S
137.93 115.00 M 120.83 115.00 D S
137.93 116.00 M 120.83 116.00 D S
137.93 117.00 M 120.83 117.00 D S
153.63  99.00 M 152.15 100.05 D 152.15 102.15 D 153.63 103.20 D 155.12 103.20 D
159.57  99.00 D 161.06  99.00 D 161.06 103.20 D S
133.48 135.00 M 127.15 135.00 D S
133.48 136.00 M 127.15 136.00 D S
133.48 137.00 M 127.15 137.00 D S
133.48 138.00 M 127.15 138.00 D S
133.48 139.00 M 127.15 139.00 D S
133.48 140.00 M 127.15 140.00 D S
133.48 141.00 M 127.15 141.00 D S
133.48 142.00 M 127.15 142.00 D S
133.48 143.00 M 127.15 143.00 D S
133.48 144.00 M 127.15 144.00 D S
133.48 145.00 M 127.15 145.00 D S
133.48 146.00 M 127.15 146.00 D S
133.48 147.00 M 127.15 147.00 D S
133.48 148.00 M 127.15 148.00 D S
133.48 149.00 M 127.15 149.00 D S
133.48 150.00 M 127.15 150.00 D S
133.48 151.00 M 127.15 151.00 D S
133.48 152.00 M 127.15 152.00 D S
133.48 153.00 M 127.15 153.00 D S
133.48 154.00 M 127.15 154.00 D S
133.48 155.00 M 127.15 155.00 D S
133.48 156.00 M 127.15 156.00 D S
153.63 143.50 M 152.15 144.55 D 152.15 146.65 D 153.63 147.70 D 155.12 147.70 D
159.57 143.50 D 161.06 143.50 D 161.06 147.70 D S
 81.60 141.00 M  72.78 141.00 D S
 81.60 142.00 M  72.78 142.00 D S
 81.60 143.00 M  72.78 143.00 D S
 81.60 144.00 M  72.78 144.00 D S
 81.60 145.00 M  72.78 145.00 D S
 81.60 146.00 M  72.78 146.00 D S
 81.60 147.00 M  72.78 147.00 D S
 81.60 148.00 M  72.78 148.00 D S
 81.60 149.00 M  72.78 149.00 D S
 81.60 150.00 M  72.78 150.00 D S
 81.60 151.00 M  72.78 151.00 D S
 81.60 152.00 M  72.78 152.00 D S
 81.60 153.00 M  72.78 153.00 D S
 81.60 154.00 M  72.78 154.00 D S
 81.60 155.00 M  72.78 155.00 D S
 81.60 156.00 M  72.78 156.00 D S
 81.60 157.00 M  72.78 157.00 D S
 81.60 158.00 M  72.78 158.00 D S
 81.60 159.00 M  72.78 159.00 D S
 81.60 160.00 M  72.78 160.00 D S
 81.60 161.00 M  72.78 161.00 D S
 94.63 133.50 M  93.15 134.55 D  93.15 136.65 D  94.63 137.70 D  96.12 137.70 D
100.57 133.50 D 102.06 133.50 D 102.06 137.70 D S
 84.95 187.00 M  69.72 187.00 D S
 84.95 188.00 M  69.72 188.00 D S
 84.95 189.00 M  69.72 189.00 D S
 84.95 190.00 M  69.72 190.00 D S
 84.95 191.00 M  69.72 191.00 D S
 84.95 192.00 M  69.72 192.00 D S
 84.95 193.00 M  69.72 193.00 D S
 84.95 194.00 M  69.72 194.00 D S
 84.95 195.00 M  69.72 195.00 D S
 84.95 196.00 M  69.72 196.00 D S
 84.95 197.00 M  69.72 197.00 D S
 84.95 198.00 M  69.72 198.00 D S
 84.95 199.00 M  69.72 199.00 D S
 84.95 200.00 M  69.72 200.00 D S
 84.95 201.00 M  69.72 201.00 D S
 84.95 202.00 M  69.72 202.00 D S
 94.63 178.00 M  93.15 179.05 D  93.15 181.15 D  94.63 182.20 D  96.12 182.20 D
100.57 178.00 D 102.06 178.00 D 102.06 182.20 D S
 20.93   4.00 M  10.18   4.00 D S
 20.93   5.00 M  10.18   5.00 D S
 20.93   6.00 M  10.18   6.00 D S
 20.93   7.00 M  10.18   7.00 D S
 20.93   8.00 M  10.18   8.00 D S
 20.93   9.00 M  10.18   9.00 D S
 20.93  10.00 M  10.18  10.00 D S
 20.93  11.00 M  10.18  11.00 D S
 20.93  12.00 M  10.18  12.00 D S
 20.93  13.00 M  10.18  13.00 D S
 20.93  14.00 M  10.18  14.00 D S
 20.93  15.00 M  10.18  15.00 D S
 20.93  16.00 M  10.18  16.00 D S
 20.93  17.00 M  10.18  17.00 D S
 20.93  18.00 M  10.18  18.00 D S
 20.93  19.00 M  10.18  19.00 D S
 20.93  20.00 M  10.18  20.00 D S
 20.93  21.00 M  10.18  21.00 D S
 20.93  22.00 M  10.18  22.00 D S
 20.93  23.00 M  10.18  23.00 D S
 20.93  24.00 M  10.18  24.00 D S
 20.93  25.00 M  10.18  25.00 D S
 20.93  26.00 M  10.18  26.00 D S
 20.93  27.00 M  10.18  27.00 D S
 20.93  28.00 M  10.18  28.00 D S
 20.93  29.00 M  10.18  29.00 D S
 35.63   0.00 M  34.14   1.05 D  34.14   3.15 D  35.63   4.20 D  37.12   4.20 D
 41.57   0.00 D  43.06   0.00 D  43.06   4.20 D S
 19.27  46.00 M  10.57  46.00 D S
 19.27  47.00 M  10.57  47.00 D S
 19.27  48.00 M  10.57  48.00 D S
 19.27  49.00 M  10.57  49.00 D S
 19.27  50.00 M  10.57  50.00 D S
 19.27  51.00 M  10.57  51.00 D S
 19.27  52.00 M  10.57  52.00 D S
 19.27  53.00 M  10.57  53.00 D S
 19.27  54.00 M  10.57  54.00 D S
 19.27  55.00 M  10.57  55.00 D S
 19.27  56.00 M  10.57  56.00 D S
 19.27  57.00 M  10.57  57.00 D S
 19.27  58.00 M  10.57  58.00 D S
 19.27  59.00 M  10.57  59.00 D S
 19.27  60.00 M  10.57  60.00 D S
 19.27  61.00 M  10.57  61.00 D S
 19.27  62.00 M  10.57  62.00 D S
 19.27  63.00 M  10.57  63.00 D S
 19.27  64.00 M  10.57  64.00 D S
 19.27  65.00 M  10.57  65.00 D S
 19.27  66.00 M  10.57  66.00 D S
 35.63  44.50 M  34.14  45.55 D  34.14  47.65 D  35.63  48.70 D  37.12  48.70 D
 41.57  44.50 D  43.06  44.50 D  43.06  48.70 D S
 43.06  48.70 M  0.000  1.000  0.000 C
 S
148.73  10.23 M 143.32   4.83 D S
148.73  11.23 M 142.32   4.83 D S
148.73  12.23 M 141.32   4.83 D S
148.73  14.23 M 139.32   4.83 D S
147.98  14.48 M 138.88   5.38 D S
146.98  14.48 M 138.88   6.38 D S
145.98  14.48 M 138.88   7.38 D S
144.98  14.48 M 138.88   8.38 D S
143.98  14.48 M 138.88   9.38 D S
142.98  14.48 M 138.88  10.38 D S
141.98  14.48 M 138.88  11.38 D S
140.98  14.48 M 138.88  12.38 D S
139.98  14.48 M 138.88  13.38 D S
159.57  20.00 M 161.06  21.05 D 161.06  23.15 D 159.57  24.20 D 158.09  24.20 D
156.60  23.15 D 156.60  22.10 D 152.15  24.20 D 152.15  20.00 D S
144.57  48.12 M 144.05  47.60 D S
144.57  49.12 M 143.05  47.60 D S
144.57  50.12 M 142.05  47.60 D S
144.57  51.12 M 141.05  47.60 D S
144.57  52.12 M 140.05  47.60 D S
144.57  53.12 M 139.05  47.60 D S
144.57  54.12 M 138.05  47.60 D S
144.57  55.12 M 137.05  47.60 D S
144.57  56.12 M 136.05  47.60 D S
144.57  57.12 M 135.05  47.60 D S
144.57  58.12 M 134.05  47.60 D S
144.57  59.12 M 133.05  47.60 D S
144.57  60.12 M 132.05  47.60 D S
144.57  61.12 M 131.05  47.60 D S
144.57  62.12 M 130.05  47.60 D S
144.57  63.12 M 129.05  47.60 D S
144.57  64.12 M 128.05  47.60 D S
144.57  65.12 M 127.05  47.60 D S
144.57  66.12 M 126.05  47.60 D S
144.57  67.12 M 125.05  47.60 D S
144.57  68.12 M 124.05  47.60 D S
144.57  69.12 M 123.05  47.60 D S
144.57  70.12 M 122.05  47.60 D S
144.57  71.12 M 121.05  47.60 D S
143.68  71.22 M 120.05  47.60 D S
142.68  71.22 M 119.05  47.60 D S
141.68  71.22 M 118.93  48.48 D S
140.68  71.22 M 118.93  49.48 D S
139.68  71.22 M 118.93  50.48 D S
138.68  71.22 M 118.93  51.48 D S
137.68  71.22 M 118.93  52.48 D S
136.68  71.22 M 118.93  53.48 D S
135.68  71.22 M 118.93  54.48 D S
134.68  71.22 M 118.93  55.48 D S
133.68  71.22 M 118.93  56.48 D S
132.68  71.22 M 118.93  57.48 D S
131.68  71.22 M 118.93  58.48 D S
130.68  71.22 M 118.93  59.48 D S
129.68  71.22 M 118.93  60.48 D S
128.68  71.22 M 118.93  61.48 D S
127.68  71.22 M 118.93  62.48 D S
126.68  71.22 M 118.93  63.48 D S
125.68  71.22 M 118.93  64.47 D S
124.68  71.22 M 118.93  65.47 D S
123.68  71.22 M 118.93  66.47 D S
122.68  71.22 M 118.93  67.47 D S
121.68  71.22 M 118.93  68.47 D S
120.68  71.22 M 118.93  69.47 D S
119.68  71.22 M 118.93  70.47 D S
159.57  64.50 M 161.06  65.55 D 161.06  67.65 D 159.57  68.70 D 158.09  68.70 D
156.60  67.65 D 156.60  66.60 D 152.15  68.70 D 152.15  64.50 D S
145.93 179.80 M 145.85 179.73 D S
145.93 180.80 M 144.85 179.73 D S
145.93 181.80 M 143.85 179.73 D S
145.93 182.80 M 142.85 179.73 D S
145.93 183.80 M 141.85 179.73 D S
145.93 184.80 M 140.85 179.73 D S
145.93 185.80 M 139.85 179.73 D S
145.93 186.80 M 138.85 179.73 D S
145.93 187.80 M 137.85 179.73 D S
145.93 188.80 M 136.85 179.73 D S
145.93 189.80 M 135.85 179.73 D S
145.93 190.80 M 134.85 179.73 D S
145.93 191.80 M 133.85 179.73 D S
145.93 192.80 M 132.85 179.73 D S
145.93 193.80 M 131.85 179.73 D S
145.93 194.80 M 130.85 179.73 D S
145.93 195.80 M 129.85 179.73 D S
145.93 196.80 M 128.85 179.73 D S
145.93 197.80 M 127.85 179.73 D S
145.93 198.80 M 126.85 179.73 D S
145.93 199.80 M 125.85 179.73 D S
145.93 200.80 M 124.85 179.73 D S
145.93 201.80 M 123.85 179.73 D S
145.93 202.80 M 122.85 179.73 D S
145.93 203.80 M 121.85 179.73 D S
145.93 204.80 M 120.85 179.73 D S
145.93 205.80 M 119.85 179.73 D S
145.93 206.80 M 118.85 179.73 D S
145.93 207.80 M 117.85 179.73 D S
145.93 208.80 M 116.85 179.73 D S
145.93 209.80 M 116.25 180.12 D S
145.93 210.80 M 116.25 181.12 D S
145.93 211.80 M 116.25 182.12 D S
145.93 212.80 M 116.25 183.12 D S
145.93 213.80 M 116.25 184.12 D S
145.18 214.05 M 116.25 185.12 D S
144.18 214.05 M 116.25 186.12 D S
143.18 214.05 M 116.25 187.12 D S
142.18 214.05 M 116.25 188.12 D S
141.18 214.05 M 116.25 189.12 D S
140.18 214.05 M 116.25 190.12 D S
139.18 214.05 M 116.25 191.12 D S
138.18 214.05 M 116.25 192.12 D S
137.18 214.05 M 116.25 193.12 D S
136.18 214.05 M 116.25 194.12 D S
135.18 214.05 M 116.25 195.12 D S
134.18 214.05 M 116.25 196.12 D S
133.18 214.05 M 116.25 197.12 D S
132.18 214.05 M 116.25 198.12 D S
131.18 214.05 M 116.25 199.12 D S
130.18 214.05 M 116.25 200.12 D S
129.18 214.05 M 116.25 201.12 D S
128.18 214.05 M 116.25 202.12 D S
127.18 214.05 M 116.25 203.12 D S
126.18 214.05 M 116.25 204.12 D S
125.18 214.05 M 116.25 205.12 D S
124.18 214.05 M 116.25 206.12 D S
123.18 214.05 M 116.25 207.12 D S
122.18 214.05 M 116.25 208.12 D S
121.18 214.05 M 116.25 209.12 D S
120.18 214.05 M 116.25 210.12 D S
119.18 214.05 M 116.25 211.12 D S
118.18 214.05 M 116.25 212.12 D S
117.18 214.05 M 116.25 213.12 D S
159.57 188.00 M 161.06 189.05 D 161.06 191.15 D 159.57 192.20 D 158.09 192.20 D
156.60 191.15 D 156.60 190.10 D 152.15 192.20 D 152.15 188.00 D S
 83.90   3.90 M  83.33   3.33 D S
 83.90   6.90 M  80.33   3.33 D S
 83.90   9.90 M  77.33   3.33 D S
 83.90  11.90 M  75.33   3.33 D S
 83.90  12.90 M  74.33   3.33 D S
 83.90  14.90 M  72.33   3.33 D S
 83.90  17.90 M  69.33   3.33 D S
 83.90  18.90 M  68.38   3.38 D S
 83.90  19.90 M  68.38   4.38 D S
 83.90  20.90 M  68.38   5.38 D S
 83.90  21.90 M  68.38   6.38 D S
 83.90  22.90 M  68.38   7.38 D S
 83.90  23.90 M  68.38   8.38 D S
 83.90  24.90 M  68.38   9.38 D S
 83.90  25.90 M  68.38  10.38 D S
 83.90  26.90 M  68.38  11.38 D S
 83.90  27.90 M  68.38  12.38 D S
 83.90  28.90 M  68.38  13.38 D S
 83.90  29.90 M  68.38  14.38 D S
 83.90  30.90 M  68.38  15.38 D S
 83.90  31.90 M  68.38  16.38 D S
 83.90  32.90 M  68.38  17.38 D S
 83.90  33.90 M  68.38  18.38 D S
 83.90  34.90 M  68.38  19.38 D S
 82.43  35.42 M  68.38  21.38 D S
 81.43  35.42 M  68.38  22.38 D S
 79.43  35.42 M  68.38  24.38 D S
 76.43  35.42 M  68.38  27.38 D S
 73.43  35.42 M  68.38  30.38 D S
 70.43  35.42 M  68.38  33.38 D S
100.57  10.00 M 102.06  11.05 D 102.06  13.15 D 100.57  14.20 D  99.08  14.20 D
 97.60  13.15 D  97.60  12.10 D  93.15  14.20 D  93.15  10.00 D S
 83.88 137.20 M  83.85 137.18 D S
 83.88 138.20 M  83.70 138.03 D S
 83.88 139.20 M  83.70 139.03 D S
 83.88 140.20 M  83.70 140.03 D S
 83.88 141.20 M  83.70 141.03 D S
 83.88 142.20 M  83.70 142.03 D S
 83.88 143.20 M  83.70 143.03 D S
 83.88 144.20 M  83.70 144.03 D S
 83.88 145.20 M  83.70 145.03 D S
 83.88 146.20 M  83.70 146.03 D S
 83.88 147.20 M  83.70 147.03 D S
 83.88 148.20 M  83.70 148.03 D S
 83.88 149.20 M  83.70 149.03 D S
 83.88 150.20 M  83.70 150.03 D S
 83.88 151.20 M  83.70 151.03 D S
 83.88 152.20 M  83.70 152.03 D S
 83.88 153.20 M  83.70 153.03 D S
 83.88 154.20 M  83.70 154.03 D S
 83.88 155.20 M  83.70 155.03 D S
 83.88 156.20 M  83.70 156.03 D S
 83.88 157.20 M  83.70 157.03 D S
 83.88 158.20 M  83.70 158.03 D S
 83.88 159.20 M  83.70 159.03 D S
 83.88 160.20 M  83.70 160.03 D S
 83.88 161.20 M  83.70 161.03 D S
 83.88 162.20 M  83.70 162.03 D S
 83.88 163.20 M  83.70 163.03 D S
 83.88 164.20 M  83.70 164.03 D S
 83.88 165.20 M  83.70 165.03 D S
 83.88 166.20 M  83.70 166.03 D S
100.57 143.50 M 102.06 144.55 D 102.06 146.65 D 100.57 147.70 D  99.08 147.70 D
 97.60 146.65 D  97.60 145.60 D  93.15 147.70 D  93.15 143.50 D S
 82.65 181.75 M  82.15 181.25 D S
 82.65 182.75 M  81.15 181.25 D S
 82.65 183.75 M  80.15 181.25 D S
 82.65 184.75 M  79.15 181.25 D S
 82.65 185.75 M  78.15 181.25 D S
 82.65 186.75 M  77.15 181.25 D S
 82.65 187.75 M  76.15 181.25 D S
 82.65 188.75 M  75.15 181.25 D S
 82.65 189.75 M  74.15 181.25 D S
 82.65 190.75 M  73.15 181.25 D S
 82.65 191.75 M  72.15 181.25 D S
 82.50 192.60 M  71.15 181.25 D S
 81.50 192.60 M  70.15 181.25 D S
 80.50 192.60 M  69.15 181.25 D S
 79.50 192.60 M  68.15 181.25 D S
 78.50 192.60 M  67.15 181.25 D S
 77.50 192.60 M  66.15 181.25 D S
 76.50 192.60 M  65.15 181.25 D S
 75.50 192.60 M  64.15 181.25 D S
 74.50 192.60 M  63.15 181.25 D S
 73.50 192.60 M  62.15 181.25 D S
 72.50 192.60 M  61.15 181.25 D S
 71.50 192.60 M  60.48 181.57 D S
 70.50 192.60 M  60.48 182.57 D S
 69.50 192.60 M  60.48 183.57 D S
 68.50 192.60 M  60.48 184.57 D S
 67.50 192.60 M  60.48 185.57 D S
 66.50 192.60 M  60.48 186.57 D S
 65.50 192.60 M  60.48 187.57 D S
 64.50 192.60 M  60.48 188.57 D S
 63.50 192.60 M  60.48 189.57 D S
 62.50 192.60 M  60.48 190.57 D S
 61.50 192.60 M  60.48 191.57 D S
100.57 188.00 M 102.06 189.05 D 102.06 191.15 D 100.57 192.20 D  99.08 192.20 D
 97.60 191.15 D  97.60 190.10 D  93.15 192.20 D  93.15 188.00 D S
 23.60  90.80 M  23.43  90.62 D S
 23.60  91.80 M  22.43  90.62 D S
 23.60  92.80 M  21.58  90.78 D S
 23.60  93.80 M  21.58  91.78 D S
 23.60  94.80 M  21.58  92.78 D S
 23.60  95.80 M  21.58  93.78 D S
 23.60  96.80 M  21.58  94.78 D S
 23.60  97.80 M  21.58  95.78 D S
 23.60  98.80 M  21.58  96.78 D S
 23.60  99.80 M  21.58  97.78 D S
 23.60 100.80 M  21.58  98.78 D S
 23.60 101.80 M  21.58  99.78 D S
 23.60 102.80 M  21.58 100.78 D S
 23.27 103.47 M  21.58 101.78 D S
 22.27 103.47 M  21.58 102.78 D S
 41.57  89.00 M  43.06  90.05 D  43.06  92.15 D  41.57  93.20 D  40.08  93.20 D
 38.60  92.15 D  38.60  91.10 D  34.14  93.20 D  34.14  89.00 D S
 29.73 138.07 M  29.15 137.50 D S
 29.73 139.07 M  28.15 137.50 D S
 29.73 140.07 M  27.15 137.50 D S
 29.73 141.07 M  26.15 137.50 D S
 29.73 142.07 M  25.15 137.50 D S
 29.73 143.07 M  24.15 137.50 D S
 29.73 144.07 M  23.15 137.50 D S
 29.73 145.07 M  22.15 137.50 D S
 29.73 146.07 M  21.15 137.50 D S
 29.73 147.07 M  20.15 137.50 D S
 29.73 148.07 M  19.15 137.50 D S
 29.73 149.07 M  18.15 137.50 D S
 29.73 150.07 M  17.15 137.50 D S
 29.73 151.07 M  16.15 137.50 D S
 29.73 152.07 M  15.15 137.50 D S
 29.48 152.82 M  14.15 137.50 D S
 28.48 152.82 M  13.15 137.50 D S
 27.48 152.82 M  12.15 137.50 D S
 26.48 152.82 M  11.15 137.50 D S
 25.48 152.82 M  10.15 137.50 D S
 24.48 152.82 M   9.15 137.50 D S
 23.48 152.82 M   8.15 137.50 D S
 22.48 152.82 M   7.15 137.50 D S
 21.48 152.82 M   6.15 137.50 D S
 20.48 152.82 M   5.15 137.50 D S
 19.48 152.82 M   4.15 137.50 D S
 18.48 152.82 M   3.15 137.50 D S
 17.48 152.82 M   2.73 138.07 D S
 16.48 152.82 M   2.73 139.07 D S
 15.48 152.82 M   2.73 140.07 D S
 14.48 152.82 M   2.73 141.07 D S
 13.48 152.82 M   2.73 142.07 D S
 12.48 152.82 M   2.73 143.07 D S
 11.48 152.82 M   2.73 144.07 D S
 10.48 152.82 M   2.73 145.07 D S
  9.48 152.82 M   2.73 146.07 D S
  8.48 152.82 M   2.73 147.07 D S
  7.47 152.82 M   2.73 148.07 D S
  6.47 152.82 M   2.73 149.07 D S
  5.47 152.82 M   2.73 150.07 D S
  4.47 152.82 M   2.73 151.07 D S
  3.48 152.82 M   2.73 152.07 D S
 41.57 133.50 M  43.06 134.55 D  43.06 136.65 D  41.57 137.70 D  40.08 137.70 D
 38.60 136.65 D  38.60 135.60 D  34.14 137.70 D  34.14 133.50 D S
 34.14 133.50 M  0.000  0.000  1.000 C
 S
146.19   0.53 M 146.19  12.28 D S
145.19   0.53 M 145.19  12.28 D S
144.19   0.53 M 144.19  12.28 D S
143.19   0.53 M 143.19  12.28 D S
142.19   0.53 M 142.19  12.28 D S
141.19   0.53 M 141.19  12.28 D S
152.15  33.15 M 156.60  30.00 D 158.09  30.00 D 158.09  34.20 D S
156.60  33.15 M 161.06  33.15 D S
148.19  90.47 M 148.19 126.80 D S
147.19  90.47 M 147.19 126.80 D S
146.19  90.47 M 146.19 126.80 D S
145.19  90.47 M 145.19 126.80 D S
144.19  90.47 M 144.19 126.80 D S
143.19  90.47 M 143.19 126.80 D S
142.19  90.47 M 142.19 126.80 D S
152.15 112.15 M 156.60 109.00 D 158.09 109.00 D 158.09 113.20 D S
156.60 112.15 M 161.06 112.15 D S
140.19 179.10 M 140.19 216.68 D S
139.19 179.10 M 139.19 216.68 D S
138.19 179.10 M 138.19 216.68 D S
137.19 179.10 M 137.19 216.68 D S
136.19 179.10 M 136.19 216.68 D S
152.15 201.15 M 156.60 198.00 D 158.09 198.00 D 158.09 202.20 D S
156.60 201.15 M 161.06 201.15 D S
 86.19  55.98 M  86.19  64.97 D S
 85.19  55.98 M  85.19  64.97 D S
 84.19  55.98 M  84.19  64.97 D S
 83.19  55.98 M  83.19  64.97 D S
 82.19  55.98 M  82.19  64.97 D S
 81.19  55.98 M  81.19  64.97 D S
 80.19  55.98 M  80.19  64.97 D S
 79.19  55.98 M  79.19  64.97 D S
 78.19  55.98 M  78.19  64.97 D S
 77.19  55.98 M  77.19  64.97 D S
 93.15  57.65 M  97.60  54.50 D  99.08  54.50 D  99.08  58.70 D S
 97.60  57.65 M 102.06  57.65 D S
 84.19 137.40 M  84.19 167.00 D S
 83.19 137.40 M  83.19 167.00 D S
 82.19 137.40 M  82.19 167.00 D S
 81.19 137.40 M  81.19 167.00 D S
 80.19 137.40 M  80.19 167.00 D S
 79.19 137.40 M  79.19 167.00 D S
 78.19 137.40 M  78.19 167.00 D S
 77.19 137.40 M  77.19 167.00 D S
 76.19 137.40 M  76.19 167.00 D S
 75.19 137.40 M  75.19 167.00 D S
 74.19 137.40 M  74.19 167.00 D S
 73.19 137.40 M  73.19 167.00 D S
 72.19 137.40 M  72.19 167.00 D S
 71.19 137.40 M  71.19 167.00 D S
 70.19 137.40 M  70.19 167.00 D S
 69.19 137.40 M  69.19 167.00 D S
 68.19 137.40 M  68.19 167.00 D S
 67.19 137.40 M  67.19 167.00 D S
 66.19 137.40 M  66.19 167.00 D S
 65.19 137.40 M  65.19 167.00 D S
 93.15 156.65 M  97.60 153.50 D  99.08 153.50 D  99.08 157.70 D S
 97.60 156.65 M 102.06 156.65 D S
 28.19  18.35 M  28.19  19.58 D S
 27.19  18.35 M  27.19  19.58 D S
 26.19  18.35 M  26.19  19.58 D S
 25.19  18.35 M  25.19  19.58 D S
 24.19  18.35 M  24.19  19.58 D S
 23.19  18.35 M  23.19  19.58 D S
 22.19  18.35 M  22.19  19.58 D S
 21.19  18.35 M  21.19  19.58 D S
 20.19  18.35 M  20.19  19.58 D S
 19.19  18.35 M  19.19  19.58 D S
 18.19  18.35 M  18.19  19.58 D S
 17.19  18.35 M  17.19  19.58 D S
 16.19  18.35 M  16.19  19.58 D S
 15.19  18.35 M  15.19  19.58 D S
 14.19  18.35 M  14.19  19.58 D S
 13.19  18.35 M  13.19  19.58 D S
 12.19  18.35 M  12.19  19.58 D S
 11.19  18.35 M  11.19  19.58 D S
 10.19  18.35 M  10.19  19.58 D S
  9.19  18.35 M   9.19  19.58 D S
  8.19  18.35 M   8.19  19.58 D S
  7.19  18.35 M   7.19  19.58 D S
  6.19  18.35 M   6.19  19.58 D S
  5.19  18.35 M   5.19  19.58 D S
  4.19  18.35 M   4.19  19.58 D S
  3.19  18.35 M   3.19  19.58 D S
  2.19  18.35 M   2.19  19.58 D S
  1.19  18.35 M   1.19  19.58 D S
  0.19  18.35 M   0.19  19.58 D S
 34.14  13.15 M  38.60  10.00 D  40.08  10.00 D  40.08  14.20 D S
 38.60  13.15 M  43.06  13.15 D S
 25.19  99.22 M  25.19 104.53 D S
 24.19  99.22 M  24.19 104.53 D S
 23.19  99.22 M  23.19 104.53 D S
 22.19  99.22 M  22.19 104.53 D S
 21.19  99.22 M  21.19 104.53 D S
 20.19  99.22 M  20.19 104.53 D S
 19.19  99.22 M  19.19 104.53 D S
 34.14 102.15 M  38.60  99.00 D  40.08  99.00 D  40.08 103.20 D S
 38.60 102.15 M  43.06 102.15 D S
 18.19 184.32 M  18.19 186.53 D S
 17.19 184.32 M  17.19 186.53 D S
 16.19 184.32 M  16.19 186.53 D S
 15.19 184.32 M  15.19 186.53 D S
 14.19 184.32 M  14.19 186.53 D S
 13.19 184.32 M  13.19 186.53 D S
 12.19 184.32 M  12.19 186.53 D S
 11.19 184.32 M  11.19 186.53 D S
 10.19 184.32 M  10.19 186.53 D S
  9.19 184.32 M   9.19 186.53 D S
  8.19 184.32 M   8.19 186.53 D S
 34.14 181.15 M  38.60 178.00 D  40.08 178.00 D  40.08 182.20 D S
 38.60 181.15 M  43.06 181.15 D S
eop
@end
%%PageTrailer
%%Trailer
%%EOF
