%!PS-Adobe-2.0 EPSF-2.0
%%Title: /home/gijs/.chiplotle/output/20180423_151741.eps
%%Creator: hp2xx 3.4.4 (c) 1991-1994 by H. Werntges, 1999-2003 by M. Kroeker
%%CreationDate: Mon Apr 23 15:17:41 2018
%%Pages: 1
%%BoundingBox: 0 0 482 619
%%EndComments

%%BeginProcSet:
/PSSave save def
/PSDict 200 dict def
PSDict begin
/@restore /restore load def
/restore
   {vmstatus pop
    dup @VMused lt {pop @VMused} if
    exch pop exch @restore /@VMused exch def
   } def
/@pri
   {
    ( ) print
    (                                       ) cvs print
   } def
/@start
   {
    vmstatus pop /@VMused exch def pop
   } def
/@end
   {(VM Used: ) print @VMused @pri
    (. Unused: ) print vmstatus @VMused sub @pri pop pop
    (\n) print flush
    end
    PSSave restore
   } def
/bop
   {
    /SaveImage save def
   } def
/eop
   {
    showpage
    SaveImage restore
   } def
/@line
   {
%%    1 setlinejoin      %% now set from LA command
%%    1 setmiterlimit    %% now set from LA command
   } def
/@SetPlot
   {
    2.834646 2.834646 scale
      0.050   0.050 translate
     0.100 setlinewidth
   } def
/C {setrgbcolor} def
/D {lineto} def
/M {moveto} def
/S {stroke} def
/W {setlinewidth} def
/Z {stroke newpath} def
end
%%EndProcSet

%%BeginSetup
/#copies 1 def
%%EndSetup
%%Page: 1 1
%%BeginPageSetup
PSDict begin
@start
@line
@SetPlot

bop
%%EndPageSetup
  0.100 W
 S
178.00 -20.00 M  0.100 W
 S
178.00 -20.00 M 1 setlinecap
 S
178.00 -20.00 M 1 setlinejoin
 S
178.00 -20.00 M  0.000  0.000  0.000 C
 S
158.00  42.58 M 156.01  50.00 D S
158.00  35.12 M 154.01  50.00 D S
158.00  27.65 M 152.01  50.00 D S
158.00  20.19 M 150.01  50.00 D S
158.00  12.73 M 148.01  50.00 D S
158.00   5.26 M 146.01  50.00 D S
157.41   0.00 M 144.01  50.00 D S
155.41   0.00 M 142.01  50.00 D S
153.41   0.00 M 140.01  50.00 D S
151.41   0.00 M 138.01  50.00 D S
149.41   0.00 M 136.01  50.00 D S
147.41   0.00 M 134.01  50.00 D S
145.41   0.00 M 132.01  50.00 D S
143.41   0.00 M 130.01  50.00 D S
141.41   0.00 M 128.01  50.00 D S
139.41   0.00 M 126.01  50.00 D S
137.41   0.00 M 124.01  50.00 D S
135.41   0.00 M 122.01  50.00 D S
133.41   0.00 M 120.01  50.00 D S
131.41   0.00 M 118.01  50.00 D S
129.41   0.00 M 116.01  50.00 D S
127.41   0.00 M 114.01  50.00 D S
125.41   0.00 M 112.01  50.00 D S
123.41   0.00 M 110.01  50.00 D S
121.41   0.00 M 108.01  50.00 D S
119.41   0.00 M 108.00  42.58 D S
117.41   0.00 M 108.00  35.12 D S
115.41   0.00 M 108.00  27.65 D S
113.41   0.00 M 108.00  20.19 D S
111.41   0.00 M 108.00  12.73 D S
109.41   0.00 M 108.00   5.26 D S
169.88   1.05 M 169.88   3.15 D S
169.88   2.10 M 160.97   2.10 D 162.46   1.05 D S
158.00  98.58 M 156.01 106.00 D S
158.00  91.12 M 154.01 106.00 D S
158.00  83.65 M 152.01 106.00 D S
158.00  76.19 M 150.01 106.00 D S
158.00  68.73 M 148.01 106.00 D S
158.00  61.26 M 146.01 106.00 D S
157.41  56.00 M 144.01 106.00 D S
155.41  56.00 M 142.01 106.00 D S
153.41  56.00 M 140.01 106.00 D S
151.41  56.00 M 138.01 106.00 D S
149.41  56.00 M 136.01 106.00 D S
147.41  56.00 M 134.01 106.00 D S
145.41  56.00 M 132.01 106.00 D S
143.41  56.00 M 130.01 106.00 D S
141.41  56.00 M 128.01 106.00 D S
139.41  56.00 M 126.01 106.00 D S
137.41  56.00 M 124.01 106.00 D S
135.41  56.00 M 122.01 106.00 D S
133.41  56.00 M 120.01 106.00 D S
131.41  56.00 M 118.01 106.00 D S
129.41  56.00 M 116.01 106.00 D S
127.41  56.00 M 114.01 106.00 D S
125.41  56.00 M 112.01 106.00 D S
123.41  56.00 M 110.01 106.00 D S
121.41  56.00 M 108.01 106.00 D S
119.41  56.00 M 108.00  98.58 D S
117.41  56.00 M 108.00  91.12 D S
115.41  56.00 M 108.00  83.65 D S
113.41  56.00 M 108.00  76.19 D S
111.41  56.00 M 108.00  68.73 D S
109.41  56.00 M 108.00  61.26 D S
169.88  57.05 M 169.88  59.15 D S
169.88  58.10 M 160.97  58.10 D 162.46  57.05 D S
158.00 154.58 M 156.01 162.00 D S
158.00 147.12 M 154.01 162.00 D S
158.00 139.65 M 152.01 162.00 D S
158.00 132.19 M 150.01 162.00 D S
158.00 124.73 M 148.01 162.00 D S
158.00 117.26 M 146.01 162.00 D S
157.41 112.00 M 144.01 162.00 D S
155.41 112.00 M 142.01 162.00 D S
153.41 112.00 M 140.01 162.00 D S
151.41 112.00 M 138.01 162.00 D S
149.41 112.00 M 136.01 162.00 D S
147.41 112.00 M 134.01 162.00 D S
145.41 112.00 M 132.01 162.00 D S
143.41 112.00 M 130.01 162.00 D S
141.41 112.00 M 128.01 162.00 D S
139.41 112.00 M 126.01 162.00 D S
137.41 112.00 M 124.01 162.00 D S
135.41 112.00 M 122.01 162.00 D S
133.41 112.00 M 120.01 162.00 D S
131.41 112.00 M 118.01 162.00 D S
129.41 112.00 M 116.01 162.00 D S
127.41 112.00 M 114.01 162.00 D S
125.41 112.00 M 112.01 162.00 D S
123.41 112.00 M 110.01 162.00 D S
121.41 112.00 M 108.01 162.00 D S
119.41 112.00 M 108.00 154.58 D S
117.41 112.00 M 108.00 147.12 D S
115.41 112.00 M 108.00 139.65 D S
113.41 112.00 M 108.00 132.19 D S
111.41 112.00 M 108.00 124.73 D S
109.41 112.00 M 108.00 117.26 D S
169.88 113.05 M 169.88 115.15 D S
169.88 114.10 M 160.97 114.10 D 162.46 113.05 D S
158.00 210.58 M 156.01 218.00 D S
158.00 203.12 M 154.01 218.00 D S
158.00 195.65 M 152.01 218.00 D S
158.00 188.19 M 150.01 218.00 D S
158.00 180.73 M 148.01 218.00 D S
158.00 173.26 M 146.01 218.00 D S
157.41 168.00 M 144.01 218.00 D S
155.41 168.00 M 142.01 218.00 D S
153.41 168.00 M 140.01 218.00 D S
151.41 168.00 M 138.01 218.00 D S
149.41 168.00 M 136.01 218.00 D S
147.41 168.00 M 134.01 218.00 D S
145.41 168.00 M 132.01 218.00 D S
143.41 168.00 M 130.01 218.00 D S
141.41 168.00 M 128.01 218.00 D S
139.41 168.00 M 126.01 218.00 D S
137.41 168.00 M 124.01 218.00 D S
135.41 168.00 M 122.01 218.00 D S
133.41 168.00 M 120.01 218.00 D S
131.41 168.00 M 118.01 218.00 D S
129.41 168.00 M 116.01 218.00 D S
127.41 168.00 M 114.01 218.00 D S
125.41 168.00 M 112.01 218.00 D S
123.41 168.00 M 110.01 218.00 D S
121.41 168.00 M 108.01 218.00 D S
119.41 168.00 M 108.00 210.58 D S
117.41 168.00 M 108.00 203.12 D S
115.41 168.00 M 108.00 195.65 D S
113.41 168.00 M 108.00 188.19 D S
111.41 168.00 M 108.00 180.73 D S
109.41 168.00 M 108.00 173.26 D S
169.88 169.05 M 169.88 171.15 D S
169.88 170.10 M 160.97 170.10 D 162.46 169.05 D S
104.00  42.58 M 102.01  50.00 D S
104.00  35.12 M 100.01  50.00 D S
104.00  27.65 M  98.01  50.00 D S
104.00  20.19 M  96.01  50.00 D S
104.00  12.73 M  94.01  50.00 D S
104.00   5.26 M  92.01  50.00 D S
103.41   0.00 M  90.01  50.00 D S
101.41   0.00 M  88.01  50.00 D S
 99.41   0.00 M  86.01  50.00 D S
 97.41   0.00 M  84.01  50.00 D S
 95.41   0.00 M  82.01  50.00 D S
 93.41   0.00 M  80.01  50.00 D S
 91.41   0.00 M  78.01  50.00 D S
 89.41   0.00 M  76.01  50.00 D S
 87.41   0.00 M  74.01  50.00 D S
 85.41   0.00 M  72.01  50.00 D S
 83.41   0.00 M  70.01  50.00 D S
 81.41   0.00 M  68.01  50.00 D S
 79.41   0.00 M  66.01  50.00 D S
 77.41   0.00 M  64.01  50.00 D S
 75.41   0.00 M  62.01  50.00 D S
 73.41   0.00 M  60.01  50.00 D S
 71.41   0.00 M  58.01  50.00 D S
 69.41   0.00 M  56.01  50.00 D S
 67.41   0.00 M  54.01  50.00 D S
 65.41   0.00 M  54.00  42.58 D S
 63.41   0.00 M  54.00  35.12 D S
 61.41   0.00 M  54.00  27.65 D S
 59.41   0.00 M  54.00  20.19 D S
 57.41   0.00 M  54.00  12.73 D S
 55.41   0.00 M  54.00   5.26 D S
115.88   1.05 M 115.88   3.15 D S
115.88   2.10 M 106.97   2.10 D 108.46   1.05 D S
104.00  98.58 M 102.01 106.00 D S
104.00  91.12 M 100.01 106.00 D S
104.00  83.65 M  98.01 106.00 D S
104.00  76.19 M  96.01 106.00 D S
104.00  68.73 M  94.01 106.00 D S
104.00  61.26 M  92.01 106.00 D S
103.41  56.00 M  90.01 106.00 D S
101.41  56.00 M  88.01 106.00 D S
 99.41  56.00 M  86.01 106.00 D S
 97.41  56.00 M  84.01 106.00 D S
 95.41  56.00 M  82.01 106.00 D S
 93.41  56.00 M  80.01 106.00 D S
 91.41  56.00 M  78.01 106.00 D S
 89.41  56.00 M  76.01 106.00 D S
 87.41  56.00 M  74.01 106.00 D S
 85.41  56.00 M  72.01 106.00 D S
 83.41  56.00 M  70.01 106.00 D S
 81.41  56.00 M  68.01 106.00 D S
 79.41  56.00 M  66.01 106.00 D S
 77.41  56.00 M  64.01 106.00 D S
 75.41  56.00 M  62.01 106.00 D S
 73.41  56.00 M  60.01 106.00 D S
 71.41  56.00 M  58.01 106.00 D S
 69.41  56.00 M  56.01 106.00 D S
 67.41  56.00 M  54.01 106.00 D S
 65.41  56.00 M  54.00  98.58 D S
 63.41  56.00 M  54.00  91.12 D S
 61.41  56.00 M  54.00  83.65 D S
 59.41  56.00 M  54.00  76.19 D S
 57.41  56.00 M  54.00  68.73 D S
 55.41  56.00 M  54.00  61.26 D S
115.88  57.05 M 115.88  59.15 D S
115.88  58.10 M 106.97  58.10 D 108.46  57.05 D S
104.00 154.58 M 102.01 162.00 D S
104.00 147.12 M 100.01 162.00 D S
104.00 139.65 M  98.01 162.00 D S
104.00 132.19 M  96.01 162.00 D S
104.00 124.73 M  94.01 162.00 D S
104.00 117.26 M  92.01 162.00 D S
103.41 112.00 M  90.01 162.00 D S
101.41 112.00 M  88.01 162.00 D S
 99.41 112.00 M  86.01 162.00 D S
 97.41 112.00 M  84.01 162.00 D S
 95.41 112.00 M  82.01 162.00 D S
 93.41 112.00 M  80.01 162.00 D S
 91.41 112.00 M  78.01 162.00 D S
 89.41 112.00 M  76.01 162.00 D S
 87.41 112.00 M  74.01 162.00 D S
 85.41 112.00 M  72.01 162.00 D S
 83.41 112.00 M  70.01 162.00 D S
 81.41 112.00 M  68.01 162.00 D S
 79.41 112.00 M  66.01 162.00 D S
 77.41 112.00 M  64.01 162.00 D S
 75.41 112.00 M  62.01 162.00 D S
 73.41 112.00 M  60.01 162.00 D S
 71.41 112.00 M  58.01 162.00 D S
 69.41 112.00 M  56.01 162.00 D S
 67.41 112.00 M  54.01 162.00 D S
 65.41 112.00 M  54.00 154.58 D S
 63.41 112.00 M  54.00 147.12 D S
 61.41 112.00 M  54.00 139.65 D S
 59.41 112.00 M  54.00 132.19 D S
 57.41 112.00 M  54.00 124.73 D S
 55.41 112.00 M  54.00 117.26 D S
115.88 113.05 M 115.88 115.15 D S
115.88 114.10 M 106.97 114.10 D 108.46 113.05 D S
104.00 210.58 M 102.01 218.00 D S
104.00 203.12 M 100.01 218.00 D S
104.00 195.65 M  98.01 218.00 D S
104.00 188.19 M  96.01 218.00 D S
104.00 180.73 M  94.01 218.00 D S
104.00 173.26 M  92.01 218.00 D S
103.41 168.00 M  90.01 218.00 D S
101.41 168.00 M  88.01 218.00 D S
 99.41 168.00 M  86.01 218.00 D S
 97.41 168.00 M  84.01 218.00 D S
 95.41 168.00 M  82.01 218.00 D S
 93.41 168.00 M  80.01 218.00 D S
 91.41 168.00 M  78.01 218.00 D S
 89.41 168.00 M  76.01 218.00 D S
 87.41 168.00 M  74.01 218.00 D S
 85.41 168.00 M  72.01 218.00 D S
 83.41 168.00 M  70.01 218.00 D S
 81.41 168.00 M  68.01 218.00 D S
 79.41 168.00 M  66.01 218.00 D S
 77.41 168.00 M  64.01 218.00 D S
 75.41 168.00 M  62.01 218.00 D S
 73.41 168.00 M  60.01 218.00 D S
 71.41 168.00 M  58.01 218.00 D S
 69.41 168.00 M  56.01 218.00 D S
 67.41 168.00 M  54.01 218.00 D S
 65.41 168.00 M  54.00 210.58 D S
 63.41 168.00 M  54.00 203.12 D S
 61.41 168.00 M  54.00 195.65 D S
 59.41 168.00 M  54.00 188.19 D S
 57.41 168.00 M  54.00 180.73 D S
 55.41 168.00 M  54.00 173.26 D S
115.88 169.05 M 115.88 171.15 D S
115.88 170.10 M 106.97 170.10 D 108.46 169.05 D S
 50.00  42.58 M  48.01  50.00 D S
 50.00  35.12 M  46.01  50.00 D S
 50.00  27.65 M  44.01  50.00 D S
 50.00  20.19 M  42.01  50.00 D S
 50.00  12.73 M  40.01  50.00 D S
 50.00   5.26 M  38.01  50.00 D S
 49.41   0.00 M  36.01  50.00 D S
 47.41   0.00 M  34.01  50.00 D S
 45.41   0.00 M  32.01  50.00 D S
 43.41   0.00 M  30.01  50.00 D S
 41.41   0.00 M  28.01  50.00 D S
 39.41   0.00 M  26.01  50.00 D S
 37.41   0.00 M  24.01  50.00 D S
 35.41   0.00 M  22.01  50.00 D S
 33.41   0.00 M  20.01  50.00 D S
 31.41   0.00 M  18.01  50.00 D S
 29.41   0.00 M  16.01  50.00 D S
 27.41   0.00 M  14.01  50.00 D S
 25.41   0.00 M  12.01  50.00 D S
 23.41   0.00 M  10.01  50.00 D S
 21.41   0.00 M   8.01  50.00 D S
 19.41   0.00 M   6.01  50.00 D S
 17.41   0.00 M   4.01  50.00 D S
 15.41   0.00 M   2.01  50.00 D S
 13.41   0.00 M   0.01  50.00 D S
 11.41   0.00 M   0.00  42.58 D S
  9.41   0.00 M   0.00  35.12 D S
  7.41   0.00 M   0.00  27.65 D S
  5.41   0.00 M   0.00  20.19 D S
  3.41   0.00 M   0.00  12.73 D S
  1.41   0.00 M   0.00   5.26 D S
 61.88   1.05 M  61.88   3.15 D S
 61.88   2.10 M  52.97   2.10 D  54.46   1.05 D S
 50.00  98.58 M  48.01 106.00 D S
 50.00  91.12 M  46.01 106.00 D S
 50.00  83.65 M  44.01 106.00 D S
 50.00  76.19 M  42.01 106.00 D S
 50.00  68.73 M  40.01 106.00 D S
 50.00  61.26 M  38.01 106.00 D S
 49.41  56.00 M  36.01 106.00 D S
 47.41  56.00 M  34.01 106.00 D S
 45.41  56.00 M  32.01 106.00 D S
 43.41  56.00 M  30.01 106.00 D S
 41.41  56.00 M  28.01 106.00 D S
 39.41  56.00 M  26.01 106.00 D S
 37.41  56.00 M  24.01 106.00 D S
 35.41  56.00 M  22.01 106.00 D S
 33.41  56.00 M  20.01 106.00 D S
 31.41  56.00 M  18.01 106.00 D S
 29.41  56.00 M  16.01 106.00 D S
 27.41  56.00 M  14.01 106.00 D S
 25.41  56.00 M  12.01 106.00 D S
 23.41  56.00 M  10.01 106.00 D S
 21.41  56.00 M   8.01 106.00 D S
 19.41  56.00 M   6.01 106.00 D S
 17.41  56.00 M   4.01 106.00 D S
 15.41  56.00 M   2.01 106.00 D S
 13.41  56.00 M   0.01 106.00 D S
 11.41  56.00 M   0.00  98.58 D S
  9.41  56.00 M   0.00  91.12 D S
  7.41  56.00 M   0.00  83.65 D S
  5.41  56.00 M   0.00  76.19 D S
  3.41  56.00 M   0.00  68.73 D S
  1.41  56.00 M   0.00  61.26 D S
 61.88  57.05 M  61.88  59.15 D S
 61.88  58.10 M  52.97  58.10 D  54.46  57.05 D S
 50.00 154.58 M  48.01 162.00 D S
 50.00 147.12 M  46.01 162.00 D S
 50.00 139.65 M  44.01 162.00 D S
 50.00 132.19 M  42.01 162.00 D S
 50.00 124.73 M  40.01 162.00 D S
 50.00 117.26 M  38.01 162.00 D S
 49.41 112.00 M  36.01 162.00 D S
 47.41 112.00 M  34.01 162.00 D S
 45.41 112.00 M  32.01 162.00 D S
 43.41 112.00 M  30.01 162.00 D S
 41.41 112.00 M  28.01 162.00 D S
 39.41 112.00 M  26.01 162.00 D S
 37.41 112.00 M  24.01 162.00 D S
 35.41 112.00 M  22.01 162.00 D S
 33.41 112.00 M  20.01 162.00 D S
 31.41 112.00 M  18.01 162.00 D S
 29.41 112.00 M  16.01 162.00 D S
 27.41 112.00 M  14.01 162.00 D S
 25.41 112.00 M  12.01 162.00 D S
 23.41 112.00 M  10.01 162.00 D S
 21.41 112.00 M   8.01 162.00 D S
 19.41 112.00 M   6.01 162.00 D S
 17.41 112.00 M   4.01 162.00 D S
 15.41 112.00 M   2.01 162.00 D S
 13.41 112.00 M   0.01 162.00 D S
 11.41 112.00 M   0.00 154.58 D S
  9.41 112.00 M   0.00 147.12 D S
  7.41 112.00 M   0.00 139.65 D S
  5.41 112.00 M   0.00 132.19 D S
  3.41 112.00 M   0.00 124.73 D S
  1.41 112.00 M   0.00 117.26 D S
 61.88 113.05 M  61.88 115.15 D S
 61.88 114.10 M  52.97 114.10 D  54.46 113.05 D S
 50.00 210.58 M  48.01 218.00 D S
 50.00 203.12 M  46.01 218.00 D S
 50.00 195.65 M  44.01 218.00 D S
 50.00 188.19 M  42.01 218.00 D S
 50.00 180.73 M  40.01 218.00 D S
 50.00 173.26 M  38.01 218.00 D S
 49.41 168.00 M  36.01 218.00 D S
 47.41 168.00 M  34.01 218.00 D S
 45.41 168.00 M  32.01 218.00 D S
 43.41 168.00 M  30.01 218.00 D S
 41.41 168.00 M  28.01 218.00 D S
 39.41 168.00 M  26.01 218.00 D S
 37.41 168.00 M  24.01 218.00 D S
 35.41 168.00 M  22.01 218.00 D S
 33.41 168.00 M  20.01 218.00 D S
 31.41 168.00 M  18.01 218.00 D S
 29.41 168.00 M  16.01 218.00 D S
 27.41 168.00 M  14.01 218.00 D S
 25.41 168.00 M  12.01 218.00 D S
 23.41 168.00 M  10.01 218.00 D S
 21.41 168.00 M   8.01 218.00 D S
 19.41 168.00 M   6.01 218.00 D S
 17.41 168.00 M   4.01 218.00 D S
 15.41 168.00 M   2.01 218.00 D S
 13.41 168.00 M   0.01 218.00 D S
 11.41 168.00 M   0.00 210.58 D S
  9.41 168.00 M   0.00 203.12 D S
  7.41 168.00 M   0.00 195.65 D S
  5.41 168.00 M   0.00 188.19 D S
  3.41 168.00 M   0.00 180.73 D S
  1.41 168.00 M   0.00 173.26 D S
 61.88 169.05 M  61.88 171.15 D S
 61.88 170.10 M  52.97 170.10 D  54.46 169.05 D S
 54.46 169.05 M  1.000  0.000  0.000 C
 S
158.00  46.56 M 156.01  50.00 D S
158.00  43.09 M 154.01  50.00 D S
158.00  39.63 M 152.01  50.00 D S
158.00  36.17 M 150.01  50.00 D S
158.00  32.70 M 148.01  50.00 D S
158.00  29.24 M 146.01  50.00 D S
158.00  25.77 M 144.01  50.00 D S
158.00  22.31 M 142.01  50.00 D S
158.00  18.84 M 140.01  50.00 D S
158.00  15.38 M 138.01  50.00 D S
158.00  11.92 M 136.01  50.00 D S
158.00   8.45 M 134.01  50.00 D S
158.00   4.99 M 132.01  50.00 D S
158.00   1.52 M 130.01  50.00 D S
156.88   0.00 M 128.01  50.00 D S
154.88   0.00 M 126.01  50.00 D S
152.88   0.00 M 124.01  50.00 D S
150.88   0.00 M 122.01  50.00 D S
148.88   0.00 M 120.01  50.00 D S
146.88   0.00 M 118.01  50.00 D S
144.88   0.00 M 116.01  50.00 D S
142.88   0.00 M 114.01  50.00 D S
140.88   0.00 M 112.01  50.00 D S
138.88   0.00 M 110.01  50.00 D S
136.88   0.00 M 108.01  50.00 D S
134.88   0.00 M 108.00  46.56 D S
132.88   0.00 M 108.00  43.09 D S
130.88   0.00 M 108.00  39.63 D S
128.88   0.00 M 108.00  36.17 D S
126.88   0.00 M 108.00  32.70 D S
124.88   0.00 M 108.00  29.24 D S
122.88   0.00 M 108.00  25.77 D S
120.88   0.00 M 108.00  22.31 D S
118.88   0.00 M 108.00  18.84 D S
116.88   0.00 M 108.00  15.38 D S
114.88   0.00 M 108.00  11.92 D S
112.88   0.00 M 108.00   8.45 D S
110.88   0.00 M 108.00   4.99 D S
108.88   0.00 M 108.00   1.52 D S
162.46  10.00 M 160.97  11.05 D 160.97  13.15 D 162.46  14.20 D 163.94  14.20 D
168.40  10.00 D 169.88  10.00 D 169.88  14.20 D S
158.00 102.56 M 156.01 106.00 D S
158.00  99.09 M 154.01 106.00 D S
158.00  95.63 M 152.01 106.00 D S
158.00  92.17 M 150.01 106.00 D S
158.00  88.70 M 148.01 106.00 D S
158.00  85.24 M 146.01 106.00 D S
158.00  81.77 M 144.01 106.00 D S
158.00  78.31 M 142.01 106.00 D S
158.00  74.84 M 140.01 106.00 D S
158.00  71.38 M 138.01 106.00 D S
158.00  67.92 M 136.01 106.00 D S
158.00  64.45 M 134.01 106.00 D S
158.00  60.99 M 132.01 106.00 D S
158.00  57.52 M 130.01 106.00 D S
156.88  56.00 M 128.01 106.00 D S
154.88  56.00 M 126.01 106.00 D S
152.88  56.00 M 124.01 106.00 D S
150.88  56.00 M 122.01 106.00 D S
148.88  56.00 M 120.01 106.00 D S
146.88  56.00 M 118.01 106.00 D S
144.88  56.00 M 116.01 106.00 D S
142.88  56.00 M 114.01 106.00 D S
140.88  56.00 M 112.01 106.00 D S
138.88  56.00 M 110.01 106.00 D S
136.88  56.00 M 108.01 106.00 D S
134.88  56.00 M 108.00 102.56 D S
132.88  56.00 M 108.00  99.09 D S
130.88  56.00 M 108.00  95.63 D S
128.88  56.00 M 108.00  92.17 D S
126.88  56.00 M 108.00  88.70 D S
124.88  56.00 M 108.00  85.24 D S
122.88  56.00 M 108.00  81.77 D S
120.88  56.00 M 108.00  78.31 D S
118.88  56.00 M 108.00  74.84 D S
116.88  56.00 M 108.00  71.38 D S
114.88  56.00 M 108.00  67.92 D S
112.88  56.00 M 108.00  64.45 D S
110.88  56.00 M 108.00  60.99 D S
108.88  56.00 M 108.00  57.52 D S
162.46  66.00 M 160.97  67.05 D 160.97  69.15 D 162.46  70.20 D 163.94  70.20 D
168.40  66.00 D 169.88  66.00 D 169.88  70.20 D S
158.00 158.56 M 156.01 162.00 D S
158.00 155.09 M 154.01 162.00 D S
158.00 151.63 M 152.01 162.00 D S
158.00 148.17 M 150.01 162.00 D S
158.00 144.70 M 148.01 162.00 D S
158.00 141.24 M 146.01 162.00 D S
158.00 137.77 M 144.01 162.00 D S
158.00 134.31 M 142.01 162.00 D S
158.00 130.84 M 140.01 162.00 D S
158.00 127.38 M 138.01 162.00 D S
158.00 123.92 M 136.01 162.00 D S
158.00 120.45 M 134.01 162.00 D S
158.00 116.99 M 132.01 162.00 D S
158.00 113.52 M 130.01 162.00 D S
156.88 112.00 M 128.01 162.00 D S
154.88 112.00 M 126.01 162.00 D S
152.88 112.00 M 124.01 162.00 D S
150.88 112.00 M 122.01 162.00 D S
148.88 112.00 M 120.01 162.00 D S
146.88 112.00 M 118.01 162.00 D S
144.88 112.00 M 116.01 162.00 D S
142.88 112.00 M 114.01 162.00 D S
140.88 112.00 M 112.01 162.00 D S
138.88 112.00 M 110.01 162.00 D S
136.88 112.00 M 108.01 162.00 D S
134.88 112.00 M 108.00 158.56 D S
132.88 112.00 M 108.00 155.09 D S
130.88 112.00 M 108.00 151.63 D S
128.88 112.00 M 108.00 148.17 D S
126.88 112.00 M 108.00 144.70 D S
124.88 112.00 M 108.00 141.24 D S
122.88 112.00 M 108.00 137.77 D S
120.88 112.00 M 108.00 134.31 D S
118.88 112.00 M 108.00 130.84 D S
116.88 112.00 M 108.00 127.38 D S
114.88 112.00 M 108.00 123.92 D S
112.88 112.00 M 108.00 120.45 D S
110.88 112.00 M 108.00 116.99 D S
108.88 112.00 M 108.00 113.52 D S
162.46 122.00 M 160.97 123.05 D 160.97 125.15 D 162.46 126.20 D 163.94 126.20 D
168.40 122.00 D 169.88 122.00 D 169.88 126.20 D S
158.00 214.56 M 156.01 218.00 D S
158.00 211.09 M 154.01 218.00 D S
158.00 207.63 M 152.01 218.00 D S
158.00 204.17 M 150.01 218.00 D S
158.00 200.70 M 148.01 218.00 D S
158.00 197.24 M 146.01 218.00 D S
158.00 193.77 M 144.01 218.00 D S
158.00 190.31 M 142.01 218.00 D S
158.00 186.84 M 140.01 218.00 D S
158.00 183.38 M 138.01 218.00 D S
158.00 179.92 M 136.01 218.00 D S
158.00 176.45 M 134.01 218.00 D S
158.00 172.99 M 132.01 218.00 D S
158.00 169.52 M 130.01 218.00 D S
156.88 168.00 M 128.01 218.00 D S
154.88 168.00 M 126.01 218.00 D S
152.88 168.00 M 124.01 218.00 D S
150.88 168.00 M 122.01 218.00 D S
148.88 168.00 M 120.01 218.00 D S
146.88 168.00 M 118.01 218.00 D S
144.88 168.00 M 116.01 218.00 D S
142.88 168.00 M 114.01 218.00 D S
140.88 168.00 M 112.01 218.00 D S
138.88 168.00 M 110.01 218.00 D S
136.88 168.00 M 108.01 218.00 D S
134.88 168.00 M 108.00 214.56 D S
132.88 168.00 M 108.00 211.09 D S
130.88 168.00 M 108.00 207.63 D S
128.88 168.00 M 108.00 204.17 D S
126.88 168.00 M 108.00 200.70 D S
124.88 168.00 M 108.00 197.24 D S
122.88 168.00 M 108.00 193.77 D S
120.88 168.00 M 108.00 190.31 D S
118.88 168.00 M 108.00 186.84 D S
116.88 168.00 M 108.00 183.38 D S
114.88 168.00 M 108.00 179.92 D S
112.88 168.00 M 108.00 176.45 D S
110.88 168.00 M 108.00 172.99 D S
108.88 168.00 M 108.00 169.52 D S
162.46 178.00 M 160.97 179.05 D 160.97 181.15 D 162.46 182.20 D 163.94 182.20 D
168.40 178.00 D 169.88 178.00 D 169.88 182.20 D S
104.00  46.56 M 102.01  50.00 D S
104.00  43.09 M 100.01  50.00 D S
104.00  39.63 M  98.01  50.00 D S
104.00  36.17 M  96.01  50.00 D S
104.00  32.70 M  94.01  50.00 D S
104.00  29.24 M  92.01  50.00 D S
104.00  25.77 M  90.01  50.00 D S
104.00  22.31 M  88.01  50.00 D S
104.00  18.84 M  86.01  50.00 D S
104.00  15.38 M  84.01  50.00 D S
104.00  11.92 M  82.01  50.00 D S
104.00   8.45 M  80.01  50.00 D S
104.00   4.99 M  78.01  50.00 D S
104.00   1.52 M  76.01  50.00 D S
102.88   0.00 M  74.01  50.00 D S
100.88   0.00 M  72.01  50.00 D S
 98.88   0.00 M  70.01  50.00 D S
 96.88   0.00 M  68.01  50.00 D S
 94.88   0.00 M  66.01  50.00 D S
 92.88   0.00 M  64.01  50.00 D S
 90.88   0.00 M  62.01  50.00 D S
 88.88   0.00 M  60.01  50.00 D S
 86.88   0.00 M  58.01  50.00 D S
 84.88   0.00 M  56.01  50.00 D S
 82.88   0.00 M  54.01  50.00 D S
 80.88   0.00 M  54.00  46.56 D S
 78.88   0.00 M  54.00  43.09 D S
 76.88   0.00 M  54.00  39.63 D S
 74.88   0.00 M  54.00  36.17 D S
 72.88   0.00 M  54.00  32.70 D S
 70.88   0.00 M  54.00  29.24 D S
 68.88   0.00 M  54.00  25.77 D S
 66.88   0.00 M  54.00  22.31 D S
 64.88   0.00 M  54.00  18.84 D S
 62.88   0.00 M  54.00  15.38 D S
 60.88   0.00 M  54.00  11.92 D S
 58.88   0.00 M  54.00   8.45 D S
 56.88   0.00 M  54.00   4.99 D S
 54.88   0.00 M  54.00   1.52 D S
108.46  10.00 M 106.97  11.05 D 106.97  13.15 D 108.46  14.20 D 109.94  14.20 D
114.39  10.00 D 115.88  10.00 D 115.88  14.20 D S
104.00 102.56 M 102.01 106.00 D S
104.00  99.09 M 100.01 106.00 D S
104.00  95.63 M  98.01 106.00 D S
104.00  92.17 M  96.01 106.00 D S
104.00  88.70 M  94.01 106.00 D S
104.00  85.24 M  92.01 106.00 D S
104.00  81.77 M  90.01 106.00 D S
104.00  78.31 M  88.01 106.00 D S
104.00  74.84 M  86.01 106.00 D S
104.00  71.38 M  84.01 106.00 D S
104.00  67.92 M  82.01 106.00 D S
104.00  64.45 M  80.01 106.00 D S
104.00  60.99 M  78.01 106.00 D S
104.00  57.52 M  76.01 106.00 D S
102.88  56.00 M  74.01 106.00 D S
100.88  56.00 M  72.01 106.00 D S
 98.88  56.00 M  70.01 106.00 D S
 96.88  56.00 M  68.01 106.00 D S
 94.88  56.00 M  66.01 106.00 D S
 92.88  56.00 M  64.01 106.00 D S
 90.88  56.00 M  62.01 106.00 D S
 88.88  56.00 M  60.01 106.00 D S
 86.88  56.00 M  58.01 106.00 D S
 84.88  56.00 M  56.01 106.00 D S
 82.88  56.00 M  54.01 106.00 D S
 80.88  56.00 M  54.00 102.56 D S
 78.88  56.00 M  54.00  99.09 D S
 76.88  56.00 M  54.00  95.63 D S
 74.88  56.00 M  54.00  92.17 D S
 72.88  56.00 M  54.00  88.70 D S
 70.88  56.00 M  54.00  85.24 D S
 68.88  56.00 M  54.00  81.77 D S
 66.88  56.00 M  54.00  78.31 D S
 64.88  56.00 M  54.00  74.84 D S
 62.88  56.00 M  54.00  71.38 D S
 60.88  56.00 M  54.00  67.92 D S
 58.88  56.00 M  54.00  64.45 D S
 56.88  56.00 M  54.00  60.99 D S
 54.88  56.00 M  54.00  57.52 D S
108.46  66.00 M 106.97  67.05 D 106.97  69.15 D 108.46  70.20 D 109.94  70.20 D
114.39  66.00 D 115.88  66.00 D 115.88  70.20 D S
104.00 158.56 M 102.01 162.00 D S
104.00 155.09 M 100.01 162.00 D S
104.00 151.63 M  98.01 162.00 D S
104.00 148.17 M  96.01 162.00 D S
104.00 144.70 M  94.01 162.00 D S
104.00 141.24 M  92.01 162.00 D S
104.00 137.77 M  90.01 162.00 D S
104.00 134.31 M  88.01 162.00 D S
104.00 130.84 M  86.01 162.00 D S
104.00 127.38 M  84.01 162.00 D S
104.00 123.92 M  82.01 162.00 D S
104.00 120.45 M  80.01 162.00 D S
104.00 116.99 M  78.01 162.00 D S
104.00 113.52 M  76.01 162.00 D S
102.88 112.00 M  74.01 162.00 D S
100.88 112.00 M  72.01 162.00 D S
 98.88 112.00 M  70.01 162.00 D S
 96.88 112.00 M  68.01 162.00 D S
 94.88 112.00 M  66.01 162.00 D S
 92.88 112.00 M  64.01 162.00 D S
 90.88 112.00 M  62.01 162.00 D S
 88.88 112.00 M  60.01 162.00 D S
 86.88 112.00 M  58.01 162.00 D S
 84.88 112.00 M  56.01 162.00 D S
 82.88 112.00 M  54.01 162.00 D S
 80.88 112.00 M  54.00 158.56 D S
 78.88 112.00 M  54.00 155.09 D S
 76.88 112.00 M  54.00 151.63 D S
 74.88 112.00 M  54.00 148.17 D S
 72.88 112.00 M  54.00 144.70 D S
 70.88 112.00 M  54.00 141.24 D S
 68.88 112.00 M  54.00 137.77 D S
 66.88 112.00 M  54.00 134.31 D S
 64.88 112.00 M  54.00 130.84 D S
 62.88 112.00 M  54.00 127.38 D S
 60.88 112.00 M  54.00 123.92 D S
 58.88 112.00 M  54.00 120.45 D S
 56.88 112.00 M  54.00 116.99 D S
 54.88 112.00 M  54.00 113.52 D S
108.46 122.00 M 106.97 123.05 D 106.97 125.15 D 108.46 126.20 D 109.94 126.20 D
114.39 122.00 D 115.88 122.00 D 115.88 126.20 D S
104.00 214.56 M 102.01 218.00 D S
104.00 211.09 M 100.01 218.00 D S
104.00 207.63 M  98.01 218.00 D S
104.00 204.17 M  96.01 218.00 D S
104.00 200.70 M  94.01 218.00 D S
104.00 197.24 M  92.01 218.00 D S
104.00 193.77 M  90.01 218.00 D S
104.00 190.31 M  88.01 218.00 D S
104.00 186.84 M  86.01 218.00 D S
104.00 183.38 M  84.01 218.00 D S
104.00 179.92 M  82.01 218.00 D S
104.00 176.45 M  80.01 218.00 D S
104.00 172.99 M  78.01 218.00 D S
104.00 169.52 M  76.01 218.00 D S
102.88 168.00 M  74.01 218.00 D S
100.88 168.00 M  72.01 218.00 D S
 98.88 168.00 M  70.01 218.00 D S
 96.88 168.00 M  68.01 218.00 D S
 94.88 168.00 M  66.01 218.00 D S
 92.88 168.00 M  64.01 218.00 D S
 90.88 168.00 M  62.01 218.00 D S
 88.88 168.00 M  60.01 218.00 D S
 86.88 168.00 M  58.01 218.00 D S
 84.88 168.00 M  56.01 218.00 D S
 82.88 168.00 M  54.01 218.00 D S
 80.88 168.00 M  54.00 214.56 D S
 78.88 168.00 M  54.00 211.09 D S
 76.88 168.00 M  54.00 207.63 D S
 74.88 168.00 M  54.00 204.17 D S
 72.88 168.00 M  54.00 200.70 D S
 70.88 168.00 M  54.00 197.24 D S
 68.88 168.00 M  54.00 193.77 D S
 66.88 168.00 M  54.00 190.31 D S
 64.88 168.00 M  54.00 186.84 D S
 62.88 168.00 M  54.00 183.38 D S
 60.88 168.00 M  54.00 179.92 D S
 58.88 168.00 M  54.00 176.45 D S
 56.88 168.00 M  54.00 172.99 D S
 54.88 168.00 M  54.00 169.52 D S
108.46 178.00 M 106.97 179.05 D 106.97 181.15 D 108.46 182.20 D 109.94 182.20 D
114.39 178.00 D 115.88 178.00 D 115.88 182.20 D S
115.88 182.20 M  0.000  1.000  0.000 C
 S
158.00  48.01 M 156.01  50.00 D S
158.00  46.01 M 154.01  50.00 D S
158.00  44.01 M 152.01  50.00 D S
158.00  42.01 M 150.01  50.00 D S
158.00  40.01 M 148.01  50.00 D S
158.00  38.01 M 146.01  50.00 D S
158.00  36.01 M 144.01  50.00 D S
158.00  34.01 M 142.01  50.00 D S
158.00  32.01 M 140.01  50.00 D S
158.00  30.01 M 138.01  50.00 D S
158.00  28.01 M 136.01  50.00 D S
158.00  26.01 M 134.01  50.00 D S
158.00  24.01 M 132.01  50.00 D S
158.00  22.01 M 130.01  50.00 D S
158.00  20.01 M 128.01  50.00 D S
158.00  18.01 M 126.01  50.00 D S
158.00  16.01 M 124.01  50.00 D S
158.00  14.01 M 122.01  50.00 D S
158.00  12.01 M 120.01  50.00 D S
158.00  10.01 M 118.01  50.00 D S
158.00   8.01 M 116.01  50.00 D S
158.00   6.01 M 114.01  50.00 D S
158.00   4.01 M 112.01  50.00 D S
158.00   2.01 M 110.01  50.00 D S
158.00   0.01 M 108.01  50.00 D S
156.01   0.00 M 108.00  48.01 D S
154.01   0.00 M 108.00  46.01 D S
152.01   0.00 M 108.00  44.01 D S
150.01   0.00 M 108.00  42.01 D S
148.01   0.00 M 108.00  40.01 D S
146.01   0.00 M 108.00  38.01 D S
144.01   0.00 M 108.00  36.01 D S
142.01   0.00 M 108.00  34.01 D S
140.01   0.00 M 108.00  32.01 D S
138.01   0.00 M 108.00  30.01 D S
136.01   0.00 M 108.00  28.01 D S
134.01   0.00 M 108.00  26.01 D S
132.01   0.00 M 108.00  24.01 D S
130.01   0.00 M 108.00  22.01 D S
128.01   0.00 M 108.00  20.01 D S
126.01   0.00 M 108.00  18.01 D S
124.01   0.00 M 108.00  16.01 D S
122.01   0.00 M 108.00  14.01 D S
120.01   0.00 M 108.00  12.01 D S
118.01   0.00 M 108.00  10.01 D S
116.01   0.00 M 108.00   8.01 D S
114.01   0.00 M 108.00   6.01 D S
112.01   0.00 M 108.00   4.01 D S
110.01   0.00 M 108.00   2.01 D S
108.01   0.00 M 108.00   0.01 D S
168.40  20.00 M 169.88  21.05 D 169.88  23.15 D 168.40  24.20 D 166.91  24.20 D
165.43  23.15 D 165.43  22.10 D 160.97  24.20 D 160.97  20.00 D S
158.00 104.01 M 156.01 106.00 D S
158.00 102.01 M 154.01 106.00 D S
158.00 100.01 M 152.01 106.00 D S
158.00  98.01 M 150.01 106.00 D S
158.00  96.01 M 148.01 106.00 D S
158.00  94.01 M 146.01 106.00 D S
158.00  92.01 M 144.01 106.00 D S
158.00  90.01 M 142.01 106.00 D S
158.00  88.01 M 140.01 106.00 D S
158.00  86.01 M 138.01 106.00 D S
158.00  84.01 M 136.01 106.00 D S
158.00  82.01 M 134.01 106.00 D S
158.00  80.01 M 132.01 106.00 D S
158.00  78.01 M 130.01 106.00 D S
158.00  76.01 M 128.01 106.00 D S
158.00  74.01 M 126.01 106.00 D S
158.00  72.01 M 124.01 106.00 D S
158.00  70.01 M 122.01 106.00 D S
158.00  68.01 M 120.01 106.00 D S
158.00  66.01 M 118.01 106.00 D S
158.00  64.01 M 116.01 106.00 D S
158.00  62.01 M 114.01 106.00 D S
158.00  60.01 M 112.01 106.00 D S
158.00  58.01 M 110.01 106.00 D S
158.00  56.01 M 108.01 106.00 D S
156.01  56.00 M 108.00 104.01 D S
154.01  56.00 M 108.00 102.01 D S
152.01  56.00 M 108.00 100.01 D S
150.01  56.00 M 108.00  98.01 D S
148.01  56.00 M 108.00  96.01 D S
146.01  56.00 M 108.00  94.01 D S
144.01  56.00 M 108.00  92.01 D S
142.01  56.00 M 108.00  90.01 D S
140.01  56.00 M 108.00  88.01 D S
138.01  56.00 M 108.00  86.01 D S
136.01  56.00 M 108.00  84.01 D S
134.01  56.00 M 108.00  82.01 D S
132.01  56.00 M 108.00  80.01 D S
130.01  56.00 M 108.00  78.01 D S
128.01  56.00 M 108.00  76.01 D S
126.01  56.00 M 108.00  74.01 D S
124.01  56.00 M 108.00  72.01 D S
122.01  56.00 M 108.00  70.01 D S
120.01  56.00 M 108.00  68.01 D S
118.01  56.00 M 108.00  66.01 D S
116.01  56.00 M 108.00  64.01 D S
114.01  56.00 M 108.00  62.01 D S
112.01  56.00 M 108.00  60.01 D S
110.01  56.00 M 108.00  58.01 D S
108.01  56.00 M 108.00  56.01 D S
168.40  76.00 M 169.88  77.05 D 169.88  79.15 D 168.40  80.20 D 166.91  80.20 D
165.43  79.15 D 165.43  78.10 D 160.97  80.20 D 160.97  76.00 D S
158.00 160.01 M 156.01 162.00 D S
158.00 158.01 M 154.01 162.00 D S
158.00 156.01 M 152.01 162.00 D S
158.00 154.01 M 150.01 162.00 D S
158.00 152.01 M 148.01 162.00 D S
158.00 150.01 M 146.01 162.00 D S
158.00 148.01 M 144.01 162.00 D S
158.00 146.01 M 142.01 162.00 D S
158.00 144.01 M 140.01 162.00 D S
158.00 142.01 M 138.01 162.00 D S
158.00 140.01 M 136.01 162.00 D S
158.00 138.01 M 134.01 162.00 D S
158.00 136.01 M 132.01 162.00 D S
158.00 134.01 M 130.01 162.00 D S
158.00 132.01 M 128.01 162.00 D S
158.00 130.01 M 126.01 162.00 D S
158.00 128.01 M 124.01 162.00 D S
158.00 126.01 M 122.01 162.00 D S
158.00 124.01 M 120.01 162.00 D S
158.00 122.01 M 118.01 162.00 D S
158.00 120.01 M 116.01 162.00 D S
158.00 118.01 M 114.01 162.00 D S
158.00 116.01 M 112.01 162.00 D S
158.00 114.01 M 110.01 162.00 D S
158.00 112.01 M 108.01 162.00 D S
156.01 112.00 M 108.00 160.01 D S
154.01 112.00 M 108.00 158.01 D S
152.01 112.00 M 108.00 156.01 D S
150.01 112.00 M 108.00 154.01 D S
148.01 112.00 M 108.00 152.01 D S
146.01 112.00 M 108.00 150.01 D S
144.01 112.00 M 108.00 148.01 D S
142.01 112.00 M 108.00 146.01 D S
140.01 112.00 M 108.00 144.01 D S
138.01 112.00 M 108.00 142.01 D S
136.01 112.00 M 108.00 140.01 D S
134.01 112.00 M 108.00 138.01 D S
132.01 112.00 M 108.00 136.01 D S
130.01 112.00 M 108.00 134.01 D S
128.01 112.00 M 108.00 132.01 D S
126.01 112.00 M 108.00 130.01 D S
124.01 112.00 M 108.00 128.01 D S
122.01 112.00 M 108.00 126.01 D S
120.01 112.00 M 108.00 124.01 D S
118.01 112.00 M 108.00 122.01 D S
116.01 112.00 M 108.00 120.01 D S
114.01 112.00 M 108.00 118.01 D S
112.01 112.00 M 108.00 116.01 D S
110.01 112.00 M 108.00 114.01 D S
108.01 112.00 M 108.00 112.01 D S
168.40 132.00 M 169.88 133.05 D 169.88 135.15 D 168.40 136.20 D 166.91 136.20 D
165.43 135.15 D 165.43 134.10 D 160.97 136.20 D 160.97 132.00 D S
158.00 216.01 M 156.01 218.00 D S
158.00 214.01 M 154.01 218.00 D S
158.00 212.01 M 152.01 218.00 D S
158.00 210.01 M 150.01 218.00 D S
158.00 208.01 M 148.01 218.00 D S
158.00 206.01 M 146.01 218.00 D S
158.00 204.01 M 144.01 218.00 D S
158.00 202.01 M 142.01 218.00 D S
158.00 200.01 M 140.01 218.00 D S
158.00 198.01 M 138.01 218.00 D S
158.00 196.01 M 136.01 218.00 D S
158.00 194.01 M 134.01 218.00 D S
158.00 192.01 M 132.01 218.00 D S
158.00 190.01 M 130.01 218.00 D S
158.00 188.01 M 128.01 218.00 D S
158.00 186.01 M 126.01 218.00 D S
158.00 184.01 M 124.01 218.00 D S
158.00 182.01 M 122.01 218.00 D S
158.00 180.01 M 120.01 218.00 D S
158.00 178.01 M 118.01 218.00 D S
158.00 176.01 M 116.01 218.00 D S
158.00 174.01 M 114.01 218.00 D S
158.00 172.01 M 112.01 218.00 D S
158.00 170.01 M 110.01 218.00 D S
158.00 168.01 M 108.01 218.00 D S
156.01 168.00 M 108.00 216.01 D S
154.01 168.00 M 108.00 214.01 D S
152.01 168.00 M 108.00 212.01 D S
150.01 168.00 M 108.00 210.01 D S
148.01 168.00 M 108.00 208.01 D S
146.01 168.00 M 108.00 206.01 D S
144.01 168.00 M 108.00 204.01 D S
142.01 168.00 M 108.00 202.01 D S
140.01 168.00 M 108.00 200.01 D S
138.01 168.00 M 108.00 198.01 D S
136.01 168.00 M 108.00 196.01 D S
134.01 168.00 M 108.00 194.01 D S
132.01 168.00 M 108.00 192.01 D S
130.01 168.00 M 108.00 190.01 D S
128.01 168.00 M 108.00 188.01 D S
126.01 168.00 M 108.00 186.01 D S
124.01 168.00 M 108.00 184.01 D S
122.01 168.00 M 108.00 182.01 D S
120.01 168.00 M 108.00 180.01 D S
118.01 168.00 M 108.00 178.01 D S
116.01 168.00 M 108.00 176.01 D S
114.01 168.00 M 108.00 174.01 D S
112.01 168.00 M 108.00 172.01 D S
110.01 168.00 M 108.00 170.01 D S
108.01 168.00 M 108.00 168.01 D S
168.40 188.00 M 169.88 189.05 D 169.88 191.15 D 168.40 192.20 D 166.91 192.20 D
165.43 191.15 D 165.43 190.10 D 160.97 192.20 D 160.97 188.00 D S
 50.00  48.01 M  48.01  50.00 D S
 50.00  46.01 M  46.01  50.00 D S
 50.00  44.01 M  44.01  50.00 D S
 50.00  42.01 M  42.01  50.00 D S
 50.00  40.01 M  40.01  50.00 D S
 50.00  38.01 M  38.01  50.00 D S
 50.00  36.01 M  36.01  50.00 D S
 50.00  34.01 M  34.01  50.00 D S
 50.00  32.01 M  32.01  50.00 D S
 50.00  30.01 M  30.01  50.00 D S
 50.00  28.01 M  28.01  50.00 D S
 50.00  26.01 M  26.01  50.00 D S
 50.00  24.01 M  24.01  50.00 D S
 50.00  22.01 M  22.01  50.00 D S
 50.00  20.01 M  20.01  50.00 D S
 50.00  18.01 M  18.01  50.00 D S
 50.00  16.01 M  16.01  50.00 D S
 50.00  14.01 M  14.01  50.00 D S
 50.00  12.01 M  12.01  50.00 D S
 50.00  10.01 M  10.01  50.00 D S
 50.00   8.01 M   8.01  50.00 D S
 50.00   6.01 M   6.01  50.00 D S
 50.00   4.01 M   4.01  50.00 D S
 50.00   2.01 M   2.01  50.00 D S
 50.00   0.01 M   0.01  50.00 D S
 48.01   0.00 M   0.00  48.01 D S
 46.01   0.00 M   0.00  46.01 D S
 44.01   0.00 M   0.00  44.01 D S
 42.01   0.00 M   0.00  42.01 D S
 40.01   0.00 M   0.00  40.01 D S
 38.01   0.00 M   0.00  38.01 D S
 36.01   0.00 M   0.00  36.01 D S
 34.01   0.00 M   0.00  34.01 D S
 32.01   0.00 M   0.00  32.01 D S
 30.01   0.00 M   0.00  30.01 D S
 28.01   0.00 M   0.00  28.01 D S
 26.01   0.00 M   0.00  26.01 D S
 24.01   0.00 M   0.00  24.01 D S
 22.01   0.00 M   0.00  22.01 D S
 20.01   0.00 M   0.00  20.01 D S
 18.01   0.00 M   0.00  18.01 D S
 16.01   0.00 M   0.00  16.01 D S
 14.01   0.00 M   0.00  14.01 D S
 12.01   0.00 M   0.00  12.01 D S
 10.01   0.00 M   0.00  10.01 D S
  8.01   0.00 M   0.00   8.01 D S
  6.01   0.00 M   0.00   6.01 D S
  4.01   0.00 M   0.00   4.01 D S
  2.01   0.00 M   0.00   2.01 D S
  0.01   0.00 M   0.00   0.01 D S
 60.39  10.00 M  61.88  11.05 D  61.88  13.15 D  60.39  14.20 D  58.91  14.20 D
 57.42  13.15 D  57.42  12.10 D  52.97  14.20 D  52.97  10.00 D S
 50.00 104.01 M  48.01 106.00 D S
 50.00 102.01 M  46.01 106.00 D S
 50.00 100.01 M  44.01 106.00 D S
 50.00  98.01 M  42.01 106.00 D S
 50.00  96.01 M  40.01 106.00 D S
 50.00  94.01 M  38.01 106.00 D S
 50.00  92.01 M  36.01 106.00 D S
 50.00  90.01 M  34.01 106.00 D S
 50.00  88.01 M  32.01 106.00 D S
 50.00  86.01 M  30.01 106.00 D S
 50.00  84.01 M  28.01 106.00 D S
 50.00  82.01 M  26.01 106.00 D S
 50.00  80.01 M  24.01 106.00 D S
 50.00  78.01 M  22.01 106.00 D S
 50.00  76.01 M  20.01 106.00 D S
 50.00  74.01 M  18.01 106.00 D S
 50.00  72.01 M  16.01 106.00 D S
 50.00  70.01 M  14.01 106.00 D S
 50.00  68.01 M  12.01 106.00 D S
 50.00  66.01 M  10.01 106.00 D S
 50.00  64.01 M   8.01 106.00 D S
 50.00  62.01 M   6.01 106.00 D S
 50.00  60.01 M   4.01 106.00 D S
 50.00  58.01 M   2.01 106.00 D S
 50.00  56.01 M   0.01 106.00 D S
 48.01  56.00 M   0.00 104.01 D S
 46.01  56.00 M   0.00 102.01 D S
 44.01  56.00 M   0.00 100.01 D S
 42.01  56.00 M   0.00  98.01 D S
 40.01  56.00 M   0.00  96.01 D S
 38.01  56.00 M   0.00  94.01 D S
 36.01  56.00 M   0.00  92.01 D S
 34.01  56.00 M   0.00  90.01 D S
 32.01  56.00 M   0.00  88.01 D S
 30.01  56.00 M   0.00  86.01 D S
 28.01  56.00 M   0.00  84.01 D S
 26.01  56.00 M   0.00  82.01 D S
 24.01  56.00 M   0.00  80.01 D S
 22.01  56.00 M   0.00  78.01 D S
 20.01  56.00 M   0.00  76.01 D S
 18.01  56.00 M   0.00  74.01 D S
 16.01  56.00 M   0.00  72.01 D S
 14.01  56.00 M   0.00  70.01 D S
 12.01  56.00 M   0.00  68.01 D S
 10.01  56.00 M   0.00  66.01 D S
  8.01  56.00 M   0.00  64.01 D S
  6.01  56.00 M   0.00  62.01 D S
  4.01  56.00 M   0.00  60.01 D S
  2.01  56.00 M   0.00  58.01 D S
  0.01  56.00 M   0.00  56.01 D S
 60.39  66.00 M  61.88  67.05 D  61.88  69.15 D  60.39  70.20 D  58.91  70.20 D
 57.42  69.15 D  57.42  68.10 D  52.97  70.20 D  52.97  66.00 D S
 50.00 160.01 M  48.01 162.00 D S
 50.00 158.01 M  46.01 162.00 D S
 50.00 156.01 M  44.01 162.00 D S
 50.00 154.01 M  42.01 162.00 D S
 50.00 152.01 M  40.01 162.00 D S
 50.00 150.01 M  38.01 162.00 D S
 50.00 148.01 M  36.01 162.00 D S
 50.00 146.01 M  34.01 162.00 D S
 50.00 144.01 M  32.01 162.00 D S
 50.00 142.01 M  30.01 162.00 D S
 50.00 140.01 M  28.01 162.00 D S
 50.00 138.01 M  26.01 162.00 D S
 50.00 136.01 M  24.01 162.00 D S
 50.00 134.01 M  22.01 162.00 D S
 50.00 132.01 M  20.01 162.00 D S
 50.00 130.01 M  18.01 162.00 D S
 50.00 128.01 M  16.01 162.00 D S
 50.00 126.01 M  14.01 162.00 D S
 50.00 124.01 M  12.01 162.00 D S
 50.00 122.01 M  10.01 162.00 D S
 50.00 120.01 M   8.01 162.00 D S
 50.00 118.01 M   6.01 162.00 D S
 50.00 116.01 M   4.01 162.00 D S
 50.00 114.01 M   2.01 162.00 D S
 50.00 112.01 M   0.01 162.00 D S
 48.01 112.00 M   0.00 160.01 D S
 46.01 112.00 M   0.00 158.01 D S
 44.01 112.00 M   0.00 156.01 D S
 42.01 112.00 M   0.00 154.01 D S
 40.01 112.00 M   0.00 152.01 D S
 38.01 112.00 M   0.00 150.01 D S
 36.01 112.00 M   0.00 148.01 D S
 34.01 112.00 M   0.00 146.01 D S
 32.01 112.00 M   0.00 144.01 D S
 30.01 112.00 M   0.00 142.01 D S
 28.01 112.00 M   0.00 140.01 D S
 26.01 112.00 M   0.00 138.01 D S
 24.01 112.00 M   0.00 136.01 D S
 22.01 112.00 M   0.00 134.01 D S
 20.01 112.00 M   0.00 132.01 D S
 18.01 112.00 M   0.00 130.01 D S
 16.01 112.00 M   0.00 128.01 D S
 14.01 112.00 M   0.00 126.01 D S
 12.01 112.00 M   0.00 124.01 D S
 10.01 112.00 M   0.00 122.01 D S
  8.01 112.00 M   0.00 120.01 D S
  6.01 112.00 M   0.00 118.01 D S
  4.01 112.00 M   0.00 116.01 D S
  2.01 112.00 M   0.00 114.01 D S
  0.01 112.00 M   0.00 112.01 D S
 60.39 122.00 M  61.88 123.05 D  61.88 125.15 D  60.39 126.20 D  58.91 126.20 D
 57.42 125.15 D  57.42 124.10 D  52.97 126.20 D  52.97 122.00 D S
 50.00 216.01 M  48.01 218.00 D S
 50.00 214.01 M  46.01 218.00 D S
 50.00 212.01 M  44.01 218.00 D S
 50.00 210.01 M  42.01 218.00 D S
 50.00 208.01 M  40.01 218.00 D S
 50.00 206.01 M  38.01 218.00 D S
 50.00 204.01 M  36.01 218.00 D S
 50.00 202.01 M  34.01 218.00 D S
 50.00 200.01 M  32.01 218.00 D S
 50.00 198.01 M  30.01 218.00 D S
 50.00 196.01 M  28.01 218.00 D S
 50.00 194.01 M  26.01 218.00 D S
 50.00 192.01 M  24.01 218.00 D S
 50.00 190.01 M  22.01 218.00 D S
 50.00 188.01 M  20.01 218.00 D S
 50.00 186.01 M  18.01 218.00 D S
 50.00 184.01 M  16.01 218.00 D S
 50.00 182.01 M  14.01 218.00 D S
 50.00 180.01 M  12.01 218.00 D S
 50.00 178.01 M  10.01 218.00 D S
 50.00 176.01 M   8.01 218.00 D S
 50.00 174.01 M   6.01 218.00 D S
 50.00 172.01 M   4.01 218.00 D S
 50.00 170.01 M   2.01 218.00 D S
 50.00 168.01 M   0.01 218.00 D S
 48.01 168.00 M   0.00 216.01 D S
 46.01 168.00 M   0.00 214.01 D S
 44.01 168.00 M   0.00 212.01 D S
 42.01 168.00 M   0.00 210.01 D S
 40.01 168.00 M   0.00 208.01 D S
 38.01 168.00 M   0.00 206.01 D S
 36.01 168.00 M   0.00 204.01 D S
 34.01 168.00 M   0.00 202.01 D S
 32.01 168.00 M   0.00 200.01 D S
 30.01 168.00 M   0.00 198.01 D S
 28.01 168.00 M   0.00 196.01 D S
 26.01 168.00 M   0.00 194.01 D S
 24.01 168.00 M   0.00 192.01 D S
 22.01 168.00 M   0.00 190.01 D S
 20.01 168.00 M   0.00 188.01 D S
 18.01 168.00 M   0.00 186.01 D S
 16.01 168.00 M   0.00 184.01 D S
 14.01 168.00 M   0.00 182.01 D S
 12.01 168.00 M   0.00 180.01 D S
 10.01 168.00 M   0.00 178.01 D S
  8.01 168.00 M   0.00 176.01 D S
  6.01 168.00 M   0.00 174.01 D S
  4.01 168.00 M   0.00 172.01 D S
  2.01 168.00 M   0.00 170.01 D S
  0.01 168.00 M   0.00 168.01 D S
 60.39 178.00 M  61.88 179.05 D  61.88 181.15 D  60.39 182.20 D  58.91 182.20 D
 57.42 181.15 D  57.42 180.10 D  52.97 182.20 D  52.97 178.00 D S
 52.97 178.00 M  0.000  0.000  1.000 C
 S
158.00  48.85 M 156.01  50.00 D S
158.00  47.70 M 154.01  50.00 D S
158.00  46.54 M 152.01  50.00 D S
158.00  45.39 M 150.01  50.00 D S
158.00  44.23 M 148.01  50.00 D S
158.00  43.08 M 146.01  50.00 D S
158.00  41.92 M 144.01  50.00 D S
158.00  40.77 M 142.01  50.00 D S
158.00  39.61 M 140.01  50.00 D S
158.00  38.46 M 138.01  50.00 D S
158.00  37.31 M 136.01  50.00 D S
158.00  36.15 M 134.01  50.00 D S
158.00  35.00 M 132.01  50.00 D S
158.00  33.84 M 130.01  50.00 D S
158.00  32.69 M 128.01  50.00 D S
158.00  31.53 M 126.01  50.00 D S
158.00  30.38 M 124.01  50.00 D S
158.00  29.22 M 122.01  50.00 D S
158.00  28.07 M 120.01  50.00 D S
158.00  26.91 M 118.01  50.00 D S
158.00  25.76 M 116.01  50.00 D S
158.00  24.60 M 114.01  50.00 D S
158.00  23.45 M 112.01  50.00 D S
158.00  22.29 M 110.01  50.00 D S
158.00  21.14 M 108.01  50.00 D S
158.00  19.99 M 108.00  48.85 D S
158.00  18.83 M 108.00  47.70 D S
158.00  17.68 M 108.00  46.54 D S
158.00  16.52 M 108.00  45.39 D S
158.00  15.37 M 108.00  44.23 D S
158.00  14.21 M 108.00  43.08 D S
158.00  13.06 M 108.00  41.92 D S
158.00  11.90 M 108.00  40.77 D S
158.00  10.75 M 108.00  39.61 D S
158.00   9.59 M 108.00  38.46 D S
158.00   8.44 M 108.00  37.31 D S
158.00   7.28 M 108.00  36.15 D S
158.00   6.13 M 108.00  35.00 D S
158.00   4.97 M 108.00  33.84 D S
158.00   3.82 M 108.00  32.69 D S
158.00   2.66 M 108.00  31.53 D S
158.00   1.51 M 108.00  30.38 D S
158.00   0.36 M 108.00  29.22 D S
156.62   0.00 M 108.00  28.07 D S
154.62   0.00 M 108.00  26.91 D S
152.62   0.00 M 108.00  25.76 D S
150.62   0.00 M 108.00  24.60 D S
148.62   0.00 M 108.00  23.45 D S
146.62   0.00 M 108.00  22.29 D S
144.62   0.00 M 108.00  21.14 D S
142.62   0.00 M 108.00  19.99 D S
140.62   0.00 M 108.00  18.83 D S
138.62   0.00 M 108.00  17.68 D S
136.62   0.00 M 108.00  16.52 D S
134.62   0.00 M 108.00  15.37 D S
132.62   0.00 M 108.00  14.21 D S
130.62   0.00 M 108.00  13.06 D S
128.62   0.00 M 108.00  11.90 D S
126.62   0.00 M 108.00  10.75 D S
124.62   0.00 M 108.00   9.59 D S
122.62   0.00 M 108.00   8.44 D S
120.62   0.00 M 108.00   7.28 D S
118.62   0.00 M 108.00   6.13 D S
116.62   0.00 M 108.00   4.97 D S
114.62   0.00 M 108.00   3.82 D S
112.62   0.00 M 108.00   2.66 D S
110.62   0.00 M 108.00   1.51 D S
108.62   0.00 M 108.00   0.36 D S
160.97  33.15 M 165.43  30.00 D 166.91  30.00 D 166.91  34.20 D S
165.43  33.15 M 169.88  33.15 D S
158.00 104.85 M 156.01 106.00 D S
158.00 103.70 M 154.01 106.00 D S
158.00 102.54 M 152.01 106.00 D S
158.00 101.39 M 150.01 106.00 D S
158.00 100.23 M 148.01 106.00 D S
158.00  99.08 M 146.01 106.00 D S
158.00  97.92 M 144.01 106.00 D S
158.00  96.77 M 142.01 106.00 D S
158.00  95.61 M 140.01 106.00 D S
158.00  94.46 M 138.01 106.00 D S
158.00  93.31 M 136.01 106.00 D S
158.00  92.15 M 134.01 106.00 D S
158.00  91.00 M 132.01 106.00 D S
158.00  89.84 M 130.01 106.00 D S
158.00  88.69 M 128.01 106.00 D S
158.00  87.53 M 126.01 106.00 D S
158.00  86.38 M 124.01 106.00 D S
158.00  85.22 M 122.01 106.00 D S
158.00  84.07 M 120.01 106.00 D S
158.00  82.91 M 118.01 106.00 D S
158.00  81.76 M 116.01 106.00 D S
158.00  80.60 M 114.01 106.00 D S
158.00  79.45 M 112.01 106.00 D S
158.00  78.29 M 110.01 106.00 D S
158.00  77.14 M 108.01 106.00 D S
158.00  75.99 M 108.00 104.85 D S
158.00  74.83 M 108.00 103.70 D S
158.00  73.68 M 108.00 102.54 D S
158.00  72.52 M 108.00 101.39 D S
158.00  71.37 M 108.00 100.23 D S
158.00  70.21 M 108.00  99.08 D S
158.00  69.06 M 108.00  97.92 D S
158.00  67.90 M 108.00  96.77 D S
158.00  66.75 M 108.00  95.61 D S
158.00  65.59 M 108.00  94.46 D S
158.00  64.44 M 108.00  93.31 D S
158.00  63.28 M 108.00  92.15 D S
158.00  62.13 M 108.00  91.00 D S
158.00  60.97 M 108.00  89.84 D S
158.00  59.82 M 108.00  88.69 D S
158.00  58.66 M 108.00  87.53 D S
158.00  57.51 M 108.00  86.38 D S
158.00  56.36 M 108.00  85.22 D S
156.62  56.00 M 108.00  84.07 D S
154.62  56.00 M 108.00  82.91 D S
152.62  56.00 M 108.00  81.76 D S
150.62  56.00 M 108.00  80.60 D S
148.62  56.00 M 108.00  79.45 D S
146.62  56.00 M 108.00  78.29 D S
144.62  56.00 M 108.00  77.14 D S
142.62  56.00 M 108.00  75.99 D S
140.62  56.00 M 108.00  74.83 D S
138.62  56.00 M 108.00  73.68 D S
136.62  56.00 M 108.00  72.52 D S
134.62  56.00 M 108.00  71.37 D S
132.62  56.00 M 108.00  70.21 D S
130.62  56.00 M 108.00  69.06 D S
128.62  56.00 M 108.00  67.90 D S
126.62  56.00 M 108.00  66.75 D S
124.62  56.00 M 108.00  65.59 D S
122.62  56.00 M 108.00  64.44 D S
120.62  56.00 M 108.00  63.28 D S
118.62  56.00 M 108.00  62.13 D S
116.62  56.00 M 108.00  60.97 D S
114.62  56.00 M 108.00  59.82 D S
112.62  56.00 M 108.00  58.66 D S
110.62  56.00 M 108.00  57.51 D S
108.62  56.00 M 108.00  56.36 D S
160.97  89.15 M 165.43  86.00 D 166.91  86.00 D 166.91  90.20 D S
165.43  89.15 M 169.88  89.15 D S
104.00  48.85 M 102.01  50.00 D S
104.00  47.70 M 100.01  50.00 D S
104.00  46.54 M  98.01  50.00 D S
104.00  45.39 M  96.01  50.00 D S
104.00  44.23 M  94.01  50.00 D S
104.00  43.08 M  92.01  50.00 D S
104.00  41.92 M  90.01  50.00 D S
104.00  40.77 M  88.01  50.00 D S
104.00  39.61 M  86.01  50.00 D S
104.00  38.46 M  84.01  50.00 D S
104.00  37.31 M  82.01  50.00 D S
104.00  36.15 M  80.01  50.00 D S
104.00  35.00 M  78.01  50.00 D S
104.00  33.84 M  76.01  50.00 D S
104.00  32.69 M  74.01  50.00 D S
104.00  31.53 M  72.01  50.00 D S
104.00  30.38 M  70.01  50.00 D S
104.00  29.22 M  68.01  50.00 D S
104.00  28.07 M  66.01  50.00 D S
104.00  26.91 M  64.01  50.00 D S
104.00  25.76 M  62.01  50.00 D S
104.00  24.60 M  60.01  50.00 D S
104.00  23.45 M  58.01  50.00 D S
104.00  22.29 M  56.01  50.00 D S
104.00  21.14 M  54.01  50.00 D S
104.00  19.99 M  54.00  48.85 D S
104.00  18.83 M  54.00  47.70 D S
104.00  17.68 M  54.00  46.54 D S
104.00  16.52 M  54.00  45.39 D S
104.00  15.37 M  54.00  44.23 D S
104.00  14.21 M  54.00  43.08 D S
104.00  13.06 M  54.00  41.92 D S
104.00  11.90 M  54.00  40.77 D S
104.00  10.75 M  54.00  39.61 D S
104.00   9.59 M  54.00  38.46 D S
104.00   8.44 M  54.00  37.31 D S
104.00   7.28 M  54.00  36.15 D S
104.00   6.13 M  54.00  35.00 D S
104.00   4.97 M  54.00  33.84 D S
104.00   3.82 M  54.00  32.69 D S
104.00   2.66 M  54.00  31.53 D S
104.00   1.51 M  54.00  30.38 D S
104.00   0.36 M  54.00  29.22 D S
102.62   0.00 M  54.00  28.07 D S
100.62   0.00 M  54.00  26.91 D S
 98.62   0.00 M  54.00  25.76 D S
 96.62   0.00 M  54.00  24.60 D S
 94.62   0.00 M  54.00  23.45 D S
 92.62   0.00 M  54.00  22.29 D S
 90.62   0.00 M  54.00  21.14 D S
 88.62   0.00 M  54.00  19.99 D S
 86.62   0.00 M  54.00  18.83 D S
 84.62   0.00 M  54.00  17.68 D S
 82.62   0.00 M  54.00  16.52 D S
 80.62   0.00 M  54.00  15.37 D S
 78.62   0.00 M  54.00  14.21 D S
 76.62   0.00 M  54.00  13.06 D S
 74.62   0.00 M  54.00  11.90 D S
 72.62   0.00 M  54.00  10.75 D S
 70.62   0.00 M  54.00   9.59 D S
 68.62   0.00 M  54.00   8.44 D S
 66.62   0.00 M  54.00   7.28 D S
 64.62   0.00 M  54.00   6.13 D S
 62.62   0.00 M  54.00   4.97 D S
 60.62   0.00 M  54.00   3.82 D S
 58.62   0.00 M  54.00   2.66 D S
 56.62   0.00 M  54.00   1.51 D S
 54.62   0.00 M  54.00   0.36 D S
106.97  23.15 M 111.43  20.00 D 112.91  20.00 D 112.91  24.20 D S
111.43  23.15 M 115.88  23.15 D S
104.00 104.85 M 102.01 106.00 D S
104.00 103.70 M 100.01 106.00 D S
104.00 102.54 M  98.01 106.00 D S
104.00 101.39 M  96.01 106.00 D S
104.00 100.23 M  94.01 106.00 D S
104.00  99.08 M  92.01 106.00 D S
104.00  97.92 M  90.01 106.00 D S
104.00  96.77 M  88.01 106.00 D S
104.00  95.61 M  86.01 106.00 D S
104.00  94.46 M  84.01 106.00 D S
104.00  93.31 M  82.01 106.00 D S
104.00  92.15 M  80.01 106.00 D S
104.00  91.00 M  78.01 106.00 D S
104.00  89.84 M  76.01 106.00 D S
104.00  88.69 M  74.01 106.00 D S
104.00  87.53 M  72.01 106.00 D S
104.00  86.38 M  70.01 106.00 D S
104.00  85.22 M  68.01 106.00 D S
104.00  84.07 M  66.01 106.00 D S
104.00  82.91 M  64.01 106.00 D S
104.00  81.76 M  62.01 106.00 D S
104.00  80.60 M  60.01 106.00 D S
104.00  79.45 M  58.01 106.00 D S
104.00  78.29 M  56.01 106.00 D S
104.00  77.14 M  54.01 106.00 D S
104.00  75.99 M  54.00 104.85 D S
104.00  74.83 M  54.00 103.70 D S
104.00  73.68 M  54.00 102.54 D S
104.00  72.52 M  54.00 101.39 D S
104.00  71.37 M  54.00 100.23 D S
104.00  70.21 M  54.00  99.08 D S
104.00  69.06 M  54.00  97.92 D S
104.00  67.90 M  54.00  96.77 D S
104.00  66.75 M  54.00  95.61 D S
104.00  65.59 M  54.00  94.46 D S
104.00  64.44 M  54.00  93.31 D S
104.00  63.28 M  54.00  92.15 D S
104.00  62.13 M  54.00  91.00 D S
104.00  60.97 M  54.00  89.84 D S
104.00  59.82 M  54.00  88.69 D S
104.00  58.66 M  54.00  87.53 D S
104.00  57.51 M  54.00  86.38 D S
104.00  56.36 M  54.00  85.22 D S
102.62  56.00 M  54.00  84.07 D S
100.62  56.00 M  54.00  82.91 D S
 98.62  56.00 M  54.00  81.76 D S
 96.62  56.00 M  54.00  80.60 D S
 94.62  56.00 M  54.00  79.45 D S
 92.62  56.00 M  54.00  78.29 D S
 90.62  56.00 M  54.00  77.14 D S
 88.62  56.00 M  54.00  75.99 D S
 86.62  56.00 M  54.00  74.83 D S
 84.62  56.00 M  54.00  73.68 D S
 82.62  56.00 M  54.00  72.52 D S
 80.62  56.00 M  54.00  71.37 D S
 78.62  56.00 M  54.00  70.21 D S
 76.62  56.00 M  54.00  69.06 D S
 74.62  56.00 M  54.00  67.90 D S
 72.62  56.00 M  54.00  66.75 D S
 70.62  56.00 M  54.00  65.59 D S
 68.62  56.00 M  54.00  64.44 D S
 66.62  56.00 M  54.00  63.28 D S
 64.62  56.00 M  54.00  62.13 D S
 62.62  56.00 M  54.00  60.97 D S
 60.62  56.00 M  54.00  59.82 D S
 58.62  56.00 M  54.00  58.66 D S
 56.62  56.00 M  54.00  57.51 D S
 54.62  56.00 M  54.00  56.36 D S
106.97  79.15 M 111.43  76.00 D 112.91  76.00 D 112.91  80.20 D S
111.43  79.15 M 115.88  79.15 D S
 50.00  48.85 M  48.01  50.00 D S
 50.00  47.70 M  46.01  50.00 D S
 50.00  46.54 M  44.01  50.00 D S
 50.00  45.39 M  42.01  50.00 D S
 50.00  44.23 M  40.01  50.00 D S
 50.00  43.08 M  38.01  50.00 D S
 50.00  41.92 M  36.01  50.00 D S
 50.00  40.77 M  34.01  50.00 D S
 50.00  39.61 M  32.01  50.00 D S
 50.00  38.46 M  30.01  50.00 D S
 50.00  37.31 M  28.01  50.00 D S
 50.00  36.15 M  26.01  50.00 D S
 50.00  35.00 M  24.01  50.00 D S
 50.00  33.84 M  22.01  50.00 D S
 50.00  32.69 M  20.01  50.00 D S
 50.00  31.53 M  18.01  50.00 D S
 50.00  30.38 M  16.01  50.00 D S
 50.00  29.22 M  14.01  50.00 D S
 50.00  28.07 M  12.01  50.00 D S
 50.00  26.91 M  10.01  50.00 D S
 50.00  25.76 M   8.01  50.00 D S
 50.00  24.60 M   6.01  50.00 D S
 50.00  23.45 M   4.01  50.00 D S
 50.00  22.29 M   2.01  50.00 D S
 50.00  21.14 M   0.01  50.00 D S
 50.00  19.99 M   0.00  48.85 D S
 50.00  18.83 M   0.00  47.70 D S
 50.00  17.68 M   0.00  46.54 D S
 50.00  16.52 M   0.00  45.39 D S
 50.00  15.37 M   0.00  44.23 D S
 50.00  14.21 M   0.00  43.08 D S
 50.00  13.06 M   0.00  41.92 D S
 50.00  11.90 M   0.00  40.77 D S
 50.00  10.75 M   0.00  39.61 D S
 50.00   9.59 M   0.00  38.46 D S
 50.00   8.44 M   0.00  37.31 D S
 50.00   7.28 M   0.00  36.15 D S
 50.00   6.13 M   0.00  35.00 D S
 50.00   4.97 M   0.00  33.84 D S
 50.00   3.82 M   0.00  32.69 D S
 50.00   2.66 M   0.00  31.53 D S
 50.00   1.51 M   0.00  30.38 D S
 50.00   0.36 M   0.00  29.22 D S
 48.62   0.00 M   0.00  28.07 D S
 46.62   0.00 M   0.00  26.91 D S
 44.62   0.00 M   0.00  25.76 D S
 42.62   0.00 M   0.00  24.60 D S
 40.62   0.00 M   0.00  23.45 D S
 38.62   0.00 M   0.00  22.29 D S
 36.62   0.00 M   0.00  21.14 D S
 34.62   0.00 M   0.00  19.99 D S
 32.62   0.00 M   0.00  18.83 D S
 30.62   0.00 M   0.00  17.68 D S
 28.62   0.00 M   0.00  16.52 D S
 26.62   0.00 M   0.00  15.37 D S
 24.62   0.00 M   0.00  14.21 D S
 22.62   0.00 M   0.00  13.06 D S
 20.62   0.00 M   0.00  11.90 D S
 18.62   0.00 M   0.00  10.75 D S
 16.62   0.00 M   0.00   9.59 D S
 14.62   0.00 M   0.00   8.44 D S
 12.62   0.00 M   0.00   7.28 D S
 10.62   0.00 M   0.00   6.13 D S
  8.62   0.00 M   0.00   4.97 D S
  6.62   0.00 M   0.00   3.82 D S
  4.62   0.00 M   0.00   2.66 D S
  2.62   0.00 M   0.00   1.51 D S
  0.62   0.00 M   0.00   0.36 D S
 52.97  23.15 M  57.42  20.00 D  58.91  20.00 D  58.91  24.20 D S
 57.42  23.15 M  61.88  23.15 D S
 50.00 104.85 M  48.01 106.00 D S
 50.00 103.70 M  46.01 106.00 D S
 50.00 102.54 M  44.01 106.00 D S
 50.00 101.39 M  42.01 106.00 D S
 50.00 100.23 M  40.01 106.00 D S
 50.00  99.08 M  38.01 106.00 D S
 50.00  97.92 M  36.01 106.00 D S
 50.00  96.77 M  34.01 106.00 D S
 50.00  95.61 M  32.01 106.00 D S
 50.00  94.46 M  30.01 106.00 D S
 50.00  93.31 M  28.01 106.00 D S
 50.00  92.15 M  26.01 106.00 D S
 50.00  91.00 M  24.01 106.00 D S
 50.00  89.84 M  22.01 106.00 D S
 50.00  88.69 M  20.01 106.00 D S
 50.00  87.53 M  18.01 106.00 D S
 50.00  86.38 M  16.01 106.00 D S
 50.00  85.22 M  14.01 106.00 D S
 50.00  84.07 M  12.01 106.00 D S
 50.00  82.91 M  10.01 106.00 D S
 50.00  81.76 M   8.01 106.00 D S
 50.00  80.60 M   6.01 106.00 D S
 50.00  79.45 M   4.01 106.00 D S
 50.00  78.29 M   2.01 106.00 D S
 50.00  77.14 M   0.01 106.00 D S
 50.00  75.99 M   0.00 104.85 D S
 50.00  74.83 M   0.00 103.70 D S
 50.00  73.68 M   0.00 102.54 D S
 50.00  72.52 M   0.00 101.39 D S
 50.00  71.37 M   0.00 100.23 D S
 50.00  70.21 M   0.00  99.08 D S
 50.00  69.06 M   0.00  97.92 D S
 50.00  67.90 M   0.00  96.77 D S
 50.00  66.75 M   0.00  95.61 D S
 50.00  65.59 M   0.00  94.46 D S
 50.00  64.44 M   0.00  93.31 D S
 50.00  63.28 M   0.00  92.15 D S
 50.00  62.13 M   0.00  91.00 D S
 50.00  60.97 M   0.00  89.84 D S
 50.00  59.82 M   0.00  88.69 D S
 50.00  58.66 M   0.00  87.53 D S
 50.00  57.51 M   0.00  86.38 D S
 50.00  56.36 M   0.00  85.22 D S
 48.62  56.00 M   0.00  84.07 D S
 46.62  56.00 M   0.00  82.91 D S
 44.62  56.00 M   0.00  81.76 D S
 42.62  56.00 M   0.00  80.60 D S
 40.62  56.00 M   0.00  79.45 D S
 38.62  56.00 M   0.00  78.29 D S
 36.62  56.00 M   0.00  77.14 D S
 34.62  56.00 M   0.00  75.99 D S
 32.62  56.00 M   0.00  74.83 D S
 30.62  56.00 M   0.00  73.68 D S
 28.62  56.00 M   0.00  72.52 D S
 26.62  56.00 M   0.00  71.37 D S
 24.62  56.00 M   0.00  70.21 D S
 22.62  56.00 M   0.00  69.06 D S
 20.62  56.00 M   0.00  67.90 D S
 18.62  56.00 M   0.00  66.75 D S
 16.62  56.00 M   0.00  65.59 D S
 14.62  56.00 M   0.00  64.44 D S
 12.62  56.00 M   0.00  63.28 D S
 10.62  56.00 M   0.00  62.13 D S
  8.62  56.00 M   0.00  60.97 D S
  6.62  56.00 M   0.00  59.82 D S
  4.62  56.00 M   0.00  58.66 D S
  2.62  56.00 M   0.00  57.51 D S
  0.62  56.00 M   0.00  56.36 D S
 52.97  79.15 M  57.42  76.00 D  58.91  76.00 D  58.91  80.20 D S
 57.42  79.15 M  61.88  79.15 D S
 61.88  79.15 M  0.000  1.000  1.000 C
 S
158.00  49.47 M 156.01  50.00 D S
158.00  48.93 M 154.01  50.00 D S
158.00  48.40 M 152.01  50.00 D S
158.00  47.86 M 150.01  50.00 D S
158.00  47.32 M 148.01  50.00 D S
158.00  46.79 M 146.01  50.00 D S
158.00  46.25 M 144.01  50.00 D S
158.00  45.72 M 142.01  50.00 D S
158.00  45.18 M 140.01  50.00 D S
158.00  44.64 M 138.01  50.00 D S
158.00  44.11 M 136.01  50.00 D S
158.00  43.57 M 134.01  50.00 D S
158.00  43.04 M 132.01  50.00 D S
158.00  42.50 M 130.01  50.00 D S
158.00  41.96 M 128.01  50.00 D S
158.00  41.43 M 126.01  50.00 D S
158.00  40.89 M 124.01  50.00 D S
158.00  40.36 M 122.01  50.00 D S
158.00  39.82 M 120.01  50.00 D S
158.00  39.29 M 118.01  50.00 D S
158.00  38.75 M 116.01  50.00 D S
158.00  38.21 M 114.01  50.00 D S
158.00  37.68 M 112.01  50.00 D S
158.00  37.14 M 110.01  50.00 D S
158.00  36.61 M 108.01  50.00 D S
158.00  36.07 M 108.00  49.47 D S
158.00  35.53 M 108.00  48.93 D S
158.00  35.00 M 108.00  48.40 D S
158.00  34.46 M 108.00  47.86 D S
158.00  33.93 M 108.00  47.32 D S
158.00  33.39 M 108.00  46.79 D S
158.00  32.85 M 108.00  46.25 D S
158.00  32.32 M 108.00  45.72 D S
158.00  31.78 M 108.00  45.18 D S
158.00  31.25 M 108.00  44.64 D S
158.00  30.71 M 108.00  44.11 D S
158.00  30.18 M 108.00  43.57 D S
158.00  29.64 M 108.00  43.04 D S
158.00  29.10 M 108.00  42.50 D S
158.00  28.57 M 108.00  41.96 D S
158.00  28.03 M 108.00  41.43 D S
158.00  27.50 M 108.00  40.89 D S
158.00  26.96 M 108.00  40.36 D S
158.00  26.42 M 108.00  39.82 D S
158.00  25.89 M 108.00  39.29 D S
158.00  25.35 M 108.00  38.75 D S
158.00  24.82 M 108.00  38.21 D S
158.00  24.28 M 108.00  37.68 D S
158.00  23.74 M 108.00  37.14 D S
158.00  23.21 M 108.00  36.61 D S
158.00  22.67 M 108.00  36.07 D S
158.00  22.14 M 108.00  35.53 D S
158.00  21.60 M 108.00  35.00 D S
158.00  21.06 M 108.00  34.46 D S
158.00  20.53 M 108.00  33.93 D S
158.00  19.99 M 108.00  33.39 D S
158.00  19.46 M 108.00  32.85 D S
158.00  18.92 M 108.00  32.32 D S
158.00  18.39 M 108.00  31.78 D S
158.00  17.85 M 108.00  31.25 D S
158.00  17.31 M 108.00  30.71 D S
158.00  16.78 M 108.00  30.18 D S
158.00  16.24 M 108.00  29.64 D S
158.00  15.71 M 108.00  29.10 D S
158.00  15.17 M 108.00  28.57 D S
158.00  14.63 M 108.00  28.03 D S
158.00  14.10 M 108.00  27.50 D S
158.00  13.56 M 108.00  26.96 D S
158.00  13.03 M 108.00  26.42 D S
158.00  12.49 M 108.00  25.89 D S
158.00  11.95 M 108.00  25.35 D S
158.00  11.42 M 108.00  24.82 D S
158.00  10.88 M 108.00  24.28 D S
158.00  10.35 M 108.00  23.74 D S
158.00   9.81 M 108.00  23.21 D S
158.00   9.28 M 108.00  22.67 D S
158.00   8.74 M 108.00  22.14 D S
158.00   8.20 M 108.00  21.60 D S
158.00   7.67 M 108.00  21.06 D S
158.00   7.13 M 108.00  20.53 D S
158.00   6.60 M 108.00  19.99 D S
158.00   6.06 M 108.00  19.46 D S
158.00   5.52 M 108.00  18.92 D S
158.00   4.99 M 108.00  18.39 D S
158.00   4.45 M 108.00  17.85 D S
158.00   3.92 M 108.00  17.31 D S
158.00   3.38 M 108.00  16.78 D S
158.00   2.84 M 108.00  16.24 D S
158.00   2.31 M 108.00  15.71 D S
158.00   1.77 M 108.00  15.17 D S
158.00   1.24 M 108.00  14.63 D S
158.00   0.70 M 108.00  14.10 D S
158.00   0.16 M 108.00  13.56 D S
156.62   0.00 M 108.00  13.03 D S
154.62   0.00 M 108.00  12.49 D S
152.62   0.00 M 108.00  11.95 D S
150.62   0.00 M 108.00  11.42 D S
148.62   0.00 M 108.00  10.88 D S
146.62   0.00 M 108.00  10.35 D S
144.62   0.00 M 108.00   9.81 D S
142.62   0.00 M 108.00   9.28 D S
140.62   0.00 M 108.00   8.74 D S
138.62   0.00 M 108.00   8.20 D S
136.62   0.00 M 108.00   7.67 D S
134.62   0.00 M 108.00   7.13 D S
132.62   0.00 M 108.00   6.60 D S
130.62   0.00 M 108.00   6.06 D S
128.62   0.00 M 108.00   5.52 D S
126.62   0.00 M 108.00   4.99 D S
124.62   0.00 M 108.00   4.45 D S
122.62   0.00 M 108.00   3.92 D S
120.62   0.00 M 108.00   3.38 D S
118.62   0.00 M 108.00   2.84 D S
116.62   0.00 M 108.00   2.31 D S
114.62   0.00 M 108.00   1.77 D S
112.62   0.00 M 108.00   1.24 D S
110.62   0.00 M 108.00   0.70 D S
108.62   0.00 M 108.00   0.16 D S
160.97  44.20 M 160.97  40.00 D 163.94  40.00 D 163.94  43.15 D 165.43  44.20 D
168.40  44.20 D 169.88  43.15 D 169.88  41.05 D 168.40  40.00 D S
158.00 161.47 M 156.01 162.00 D S
158.00 160.93 M 154.01 162.00 D S
158.00 160.40 M 152.01 162.00 D S
158.00 159.86 M 150.01 162.00 D S
158.00 159.32 M 148.01 162.00 D S
158.00 158.79 M 146.01 162.00 D S
158.00 158.25 M 144.01 162.00 D S
158.00 157.72 M 142.01 162.00 D S
158.00 157.18 M 140.01 162.00 D S
158.00 156.64 M 138.01 162.00 D S
158.00 156.11 M 136.01 162.00 D S
158.00 155.57 M 134.01 162.00 D S
158.00 155.04 M 132.01 162.00 D S
158.00 154.50 M 130.01 162.00 D S
158.00 153.96 M 128.01 162.00 D S
158.00 153.43 M 126.01 162.00 D S
158.00 152.89 M 124.01 162.00 D S
158.00 152.36 M 122.01 162.00 D S
158.00 151.82 M 120.01 162.00 D S
158.00 151.29 M 118.01 162.00 D S
158.00 150.75 M 116.01 162.00 D S
158.00 150.21 M 114.01 162.00 D S
158.00 149.68 M 112.01 162.00 D S
158.00 149.14 M 110.01 162.00 D S
158.00 148.61 M 108.01 162.00 D S
158.00 148.07 M 108.00 161.47 D S
158.00 147.53 M 108.00 160.93 D S
158.00 147.00 M 108.00 160.40 D S
158.00 146.46 M 108.00 159.86 D S
158.00 145.93 M 108.00 159.32 D S
158.00 145.39 M 108.00 158.79 D S
158.00 144.85 M 108.00 158.25 D S
158.00 144.32 M 108.00 157.72 D S
158.00 143.78 M 108.00 157.18 D S
158.00 143.25 M 108.00 156.64 D S
158.00 142.71 M 108.00 156.11 D S
158.00 142.18 M 108.00 155.57 D S
158.00 141.64 M 108.00 155.04 D S
158.00 141.10 M 108.00 154.50 D S
158.00 140.57 M 108.00 153.96 D S
158.00 140.03 M 108.00 153.43 D S
158.00 139.50 M 108.00 152.89 D S
158.00 138.96 M 108.00 152.36 D S
158.00 138.42 M 108.00 151.82 D S
158.00 137.89 M 108.00 151.29 D S
158.00 137.35 M 108.00 150.75 D S
158.00 136.82 M 108.00 150.21 D S
158.00 136.28 M 108.00 149.68 D S
158.00 135.74 M 108.00 149.14 D S
158.00 135.21 M 108.00 148.61 D S
158.00 134.67 M 108.00 148.07 D S
158.00 134.14 M 108.00 147.53 D S
158.00 133.60 M 108.00 147.00 D S
158.00 133.06 M 108.00 146.46 D S
158.00 132.53 M 108.00 145.93 D S
158.00 131.99 M 108.00 145.39 D S
158.00 131.46 M 108.00 144.85 D S
158.00 130.92 M 108.00 144.32 D S
158.00 130.39 M 108.00 143.78 D S
158.00 129.85 M 108.00 143.25 D S
158.00 129.31 M 108.00 142.71 D S
158.00 128.78 M 108.00 142.18 D S
158.00 128.24 M 108.00 141.64 D S
158.00 127.71 M 108.00 141.10 D S
158.00 127.17 M 108.00 140.57 D S
158.00 126.63 M 108.00 140.03 D S
158.00 126.10 M 108.00 139.50 D S
158.00 125.56 M 108.00 138.96 D S
158.00 125.03 M 108.00 138.42 D S
158.00 124.49 M 108.00 137.89 D S
158.00 123.95 M 108.00 137.35 D S
158.00 123.42 M 108.00 136.82 D S
158.00 122.88 M 108.00 136.28 D S
158.00 122.35 M 108.00 135.74 D S
158.00 121.81 M 108.00 135.21 D S
158.00 121.28 M 108.00 134.67 D S
158.00 120.74 M 108.00 134.14 D S
158.00 120.20 M 108.00 133.60 D S
158.00 119.67 M 108.00 133.06 D S
158.00 119.13 M 108.00 132.53 D S
158.00 118.60 M 108.00 131.99 D S
158.00 118.06 M 108.00 131.46 D S
158.00 117.52 M 108.00 130.92 D S
158.00 116.99 M 108.00 130.39 D S
158.00 116.45 M 108.00 129.85 D S
158.00 115.92 M 108.00 129.31 D S
158.00 115.38 M 108.00 128.78 D S
158.00 114.84 M 108.00 128.24 D S
158.00 114.31 M 108.00 127.71 D S
158.00 113.77 M 108.00 127.17 D S
158.00 113.24 M 108.00 126.63 D S
158.00 112.70 M 108.00 126.10 D S
158.00 112.16 M 108.00 125.56 D S
156.62 112.00 M 108.00 125.03 D S
154.62 112.00 M 108.00 124.49 D S
152.62 112.00 M 108.00 123.95 D S
150.62 112.00 M 108.00 123.42 D S
148.62 112.00 M 108.00 122.88 D S
146.62 112.00 M 108.00 122.35 D S
144.62 112.00 M 108.00 121.81 D S
142.62 112.00 M 108.00 121.28 D S
140.62 112.00 M 108.00 120.74 D S
138.62 112.00 M 108.00 120.20 D S
136.62 112.00 M 108.00 119.67 D S
134.62 112.00 M 108.00 119.13 D S
132.62 112.00 M 108.00 118.60 D S
130.62 112.00 M 108.00 118.06 D S
128.62 112.00 M 108.00 117.52 D S
126.62 112.00 M 108.00 116.99 D S
124.62 112.00 M 108.00 116.45 D S
122.62 112.00 M 108.00 115.92 D S
120.62 112.00 M 108.00 115.38 D S
118.62 112.00 M 108.00 114.84 D S
116.62 112.00 M 108.00 114.31 D S
114.62 112.00 M 108.00 113.77 D S
112.62 112.00 M 108.00 113.24 D S
110.62 112.00 M 108.00 112.70 D S
108.62 112.00 M 108.00 112.16 D S
160.97 146.20 M 160.97 142.00 D 163.94 142.00 D 163.94 145.15 D 165.43 146.20 D
168.40 146.20 D 169.88 145.15 D 169.88 143.05 D 168.40 142.00 D S
104.00  49.47 M 102.01  50.00 D S
104.00  48.93 M 100.01  50.00 D S
104.00  48.40 M  98.01  50.00 D S
104.00  47.86 M  96.01  50.00 D S
104.00  47.32 M  94.01  50.00 D S
104.00  46.79 M  92.01  50.00 D S
104.00  46.25 M  90.01  50.00 D S
104.00  45.72 M  88.01  50.00 D S
104.00  45.18 M  86.01  50.00 D S
104.00  44.64 M  84.01  50.00 D S
104.00  44.11 M  82.01  50.00 D S
104.00  43.57 M  80.01  50.00 D S
104.00  43.04 M  78.01  50.00 D S
104.00  42.50 M  76.01  50.00 D S
104.00  41.96 M  74.01  50.00 D S
104.00  41.43 M  72.01  50.00 D S
104.00  40.89 M  70.01  50.00 D S
104.00  40.36 M  68.01  50.00 D S
104.00  39.82 M  66.01  50.00 D S
104.00  39.29 M  64.01  50.00 D S
104.00  38.75 M  62.01  50.00 D S
104.00  38.21 M  60.01  50.00 D S
104.00  37.68 M  58.01  50.00 D S
104.00  37.14 M  56.01  50.00 D S
104.00  36.61 M  54.01  50.00 D S
104.00  36.07 M  54.00  49.47 D S
104.00  35.53 M  54.00  48.93 D S
104.00  35.00 M  54.00  48.40 D S
104.00  34.46 M  54.00  47.86 D S
104.00  33.93 M  54.00  47.32 D S
104.00  33.39 M  54.00  46.79 D S
104.00  32.85 M  54.00  46.25 D S
104.00  32.32 M  54.00  45.72 D S
104.00  31.78 M  54.00  45.18 D S
104.00  31.25 M  54.00  44.64 D S
104.00  30.71 M  54.00  44.11 D S
104.00  30.18 M  54.00  43.57 D S
104.00  29.64 M  54.00  43.04 D S
104.00  29.10 M  54.00  42.50 D S
104.00  28.57 M  54.00  41.96 D S
104.00  28.03 M  54.00  41.43 D S
104.00  27.50 M  54.00  40.89 D S
104.00  26.96 M  54.00  40.36 D S
104.00  26.42 M  54.00  39.82 D S
104.00  25.89 M  54.00  39.29 D S
104.00  25.35 M  54.00  38.75 D S
104.00  24.82 M  54.00  38.21 D S
104.00  24.28 M  54.00  37.68 D S
104.00  23.74 M  54.00  37.14 D S
104.00  23.21 M  54.00  36.61 D S
104.00  22.67 M  54.00  36.07 D S
104.00  22.14 M  54.00  35.53 D S
104.00  21.60 M  54.00  35.00 D S
104.00  21.06 M  54.00  34.46 D S
104.00  20.53 M  54.00  33.93 D S
104.00  19.99 M  54.00  33.39 D S
104.00  19.46 M  54.00  32.85 D S
104.00  18.92 M  54.00  32.32 D S
104.00  18.39 M  54.00  31.78 D S
104.00  17.85 M  54.00  31.25 D S
104.00  17.31 M  54.00  30.71 D S
104.00  16.78 M  54.00  30.18 D S
104.00  16.24 M  54.00  29.64 D S
104.00  15.71 M  54.00  29.10 D S
104.00  15.17 M  54.00  28.57 D S
104.00  14.63 M  54.00  28.03 D S
104.00  14.10 M  54.00  27.50 D S
104.00  13.56 M  54.00  26.96 D S
104.00  13.03 M  54.00  26.42 D S
104.00  12.49 M  54.00  25.89 D S
104.00  11.95 M  54.00  25.35 D S
104.00  11.42 M  54.00  24.82 D S
104.00  10.88 M  54.00  24.28 D S
104.00  10.35 M  54.00  23.74 D S
104.00   9.81 M  54.00  23.21 D S
104.00   9.28 M  54.00  22.67 D S
104.00   8.74 M  54.00  22.14 D S
104.00   8.20 M  54.00  21.60 D S
104.00   7.67 M  54.00  21.06 D S
104.00   7.13 M  54.00  20.53 D S
104.00   6.60 M  54.00  19.99 D S
104.00   6.06 M  54.00  19.46 D S
104.00   5.52 M  54.00  18.92 D S
104.00   4.99 M  54.00  18.39 D S
104.00   4.45 M  54.00  17.85 D S
104.00   3.92 M  54.00  17.31 D S
104.00   3.38 M  54.00  16.78 D S
104.00   2.84 M  54.00  16.24 D S
104.00   2.31 M  54.00  15.71 D S
104.00   1.77 M  54.00  15.17 D S
104.00   1.24 M  54.00  14.63 D S
104.00   0.70 M  54.00  14.10 D S
104.00   0.16 M  54.00  13.56 D S
102.62   0.00 M  54.00  13.03 D S
100.62   0.00 M  54.00  12.49 D S
 98.62   0.00 M  54.00  11.95 D S
 96.62   0.00 M  54.00  11.42 D S
 94.62   0.00 M  54.00  10.88 D S
 92.62   0.00 M  54.00  10.35 D S
 90.62   0.00 M  54.00   9.81 D S
 88.62   0.00 M  54.00   9.28 D S
 86.62   0.00 M  54.00   8.74 D S
 84.62   0.00 M  54.00   8.20 D S
 82.62   0.00 M  54.00   7.67 D S
 80.62   0.00 M  54.00   7.13 D S
 78.62   0.00 M  54.00   6.60 D S
 76.62   0.00 M  54.00   6.06 D S
 74.62   0.00 M  54.00   5.52 D S
 72.62   0.00 M  54.00   4.99 D S
 70.62   0.00 M  54.00   4.45 D S
 68.62   0.00 M  54.00   3.92 D S
 66.62   0.00 M  54.00   3.38 D S
 64.62   0.00 M  54.00   2.84 D S
 62.62   0.00 M  54.00   2.31 D S
 60.62   0.00 M  54.00   1.77 D S
 58.62   0.00 M  54.00   1.24 D S
 56.62   0.00 M  54.00   0.70 D S
 54.62   0.00 M  54.00   0.16 D S
106.97  34.20 M 106.97  30.00 D 109.94  30.00 D 109.94  33.15 D 111.43  34.20 D
114.39  34.20 D 115.88  33.15 D 115.88  31.05 D 114.39  30.00 D S
104.00 161.47 M 102.01 162.00 D S
104.00 160.93 M 100.01 162.00 D S
104.00 160.40 M  98.01 162.00 D S
104.00 159.86 M  96.01 162.00 D S
104.00 159.32 M  94.01 162.00 D S
104.00 158.79 M  92.01 162.00 D S
104.00 158.25 M  90.01 162.00 D S
104.00 157.72 M  88.01 162.00 D S
104.00 157.18 M  86.01 162.00 D S
104.00 156.64 M  84.01 162.00 D S
104.00 156.11 M  82.01 162.00 D S
104.00 155.57 M  80.01 162.00 D S
104.00 155.04 M  78.01 162.00 D S
104.00 154.50 M  76.01 162.00 D S
104.00 153.96 M  74.01 162.00 D S
104.00 153.43 M  72.01 162.00 D S
104.00 152.89 M  70.01 162.00 D S
104.00 152.36 M  68.01 162.00 D S
104.00 151.82 M  66.01 162.00 D S
104.00 151.29 M  64.01 162.00 D S
104.00 150.75 M  62.01 162.00 D S
104.00 150.21 M  60.01 162.00 D S
104.00 149.68 M  58.01 162.00 D S
104.00 149.14 M  56.01 162.00 D S
104.00 148.61 M  54.01 162.00 D S
104.00 148.07 M  54.00 161.47 D S
104.00 147.53 M  54.00 160.93 D S
104.00 147.00 M  54.00 160.40 D S
104.00 146.46 M  54.00 159.86 D S
104.00 145.93 M  54.00 159.32 D S
104.00 145.39 M  54.00 158.79 D S
104.00 144.85 M  54.00 158.25 D S
104.00 144.32 M  54.00 157.72 D S
104.00 143.78 M  54.00 157.18 D S
104.00 143.25 M  54.00 156.64 D S
104.00 142.71 M  54.00 156.11 D S
104.00 142.18 M  54.00 155.57 D S
104.00 141.64 M  54.00 155.04 D S
104.00 141.10 M  54.00 154.50 D S
104.00 140.57 M  54.00 153.96 D S
104.00 140.03 M  54.00 153.43 D S
104.00 139.50 M  54.00 152.89 D S
104.00 138.96 M  54.00 152.36 D S
104.00 138.42 M  54.00 151.82 D S
104.00 137.89 M  54.00 151.29 D S
104.00 137.35 M  54.00 150.75 D S
104.00 136.82 M  54.00 150.21 D S
104.00 136.28 M  54.00 149.68 D S
104.00 135.74 M  54.00 149.14 D S
104.00 135.21 M  54.00 148.61 D S
104.00 134.67 M  54.00 148.07 D S
104.00 134.14 M  54.00 147.53 D S
104.00 133.60 M  54.00 147.00 D S
104.00 133.06 M  54.00 146.46 D S
104.00 132.53 M  54.00 145.93 D S
104.00 131.99 M  54.00 145.39 D S
104.00 131.46 M  54.00 144.85 D S
104.00 130.92 M  54.00 144.32 D S
104.00 130.39 M  54.00 143.78 D S
104.00 129.85 M  54.00 143.25 D S
104.00 129.31 M  54.00 142.71 D S
104.00 128.78 M  54.00 142.18 D S
104.00 128.24 M  54.00 141.64 D S
104.00 127.71 M  54.00 141.10 D S
104.00 127.17 M  54.00 140.57 D S
104.00 126.63 M  54.00 140.03 D S
104.00 126.10 M  54.00 139.50 D S
104.00 125.56 M  54.00 138.96 D S
104.00 125.03 M  54.00 138.42 D S
104.00 124.49 M  54.00 137.89 D S
104.00 123.95 M  54.00 137.35 D S
104.00 123.42 M  54.00 136.82 D S
104.00 122.88 M  54.00 136.28 D S
104.00 122.35 M  54.00 135.74 D S
104.00 121.81 M  54.00 135.21 D S
104.00 121.28 M  54.00 134.67 D S
104.00 120.74 M  54.00 134.14 D S
104.00 120.20 M  54.00 133.60 D S
104.00 119.67 M  54.00 133.06 D S
104.00 119.13 M  54.00 132.53 D S
104.00 118.60 M  54.00 131.99 D S
104.00 118.06 M  54.00 131.46 D S
104.00 117.52 M  54.00 130.92 D S
104.00 116.99 M  54.00 130.39 D S
104.00 116.45 M  54.00 129.85 D S
104.00 115.92 M  54.00 129.31 D S
104.00 115.38 M  54.00 128.78 D S
104.00 114.84 M  54.00 128.24 D S
104.00 114.31 M  54.00 127.71 D S
104.00 113.77 M  54.00 127.17 D S
104.00 113.24 M  54.00 126.63 D S
104.00 112.70 M  54.00 126.10 D S
104.00 112.16 M  54.00 125.56 D S
102.62 112.00 M  54.00 125.03 D S
100.62 112.00 M  54.00 124.49 D S
 98.62 112.00 M  54.00 123.95 D S
 96.62 112.00 M  54.00 123.42 D S
 94.62 112.00 M  54.00 122.88 D S
 92.62 112.00 M  54.00 122.35 D S
 90.62 112.00 M  54.00 121.81 D S
 88.62 112.00 M  54.00 121.28 D S
 86.62 112.00 M  54.00 120.74 D S
 84.62 112.00 M  54.00 120.20 D S
 82.62 112.00 M  54.00 119.67 D S
 80.62 112.00 M  54.00 119.13 D S
 78.62 112.00 M  54.00 118.60 D S
 76.62 112.00 M  54.00 118.06 D S
 74.62 112.00 M  54.00 117.52 D S
 72.62 112.00 M  54.00 116.99 D S
 70.62 112.00 M  54.00 116.45 D S
 68.62 112.00 M  54.00 115.92 D S
 66.62 112.00 M  54.00 115.38 D S
 64.62 112.00 M  54.00 114.84 D S
 62.62 112.00 M  54.00 114.31 D S
 60.62 112.00 M  54.00 113.77 D S
 58.62 112.00 M  54.00 113.24 D S
 56.62 112.00 M  54.00 112.70 D S
 54.62 112.00 M  54.00 112.16 D S
106.97 136.20 M 106.97 132.00 D 109.94 132.00 D 109.94 135.15 D 111.43 136.20 D
114.39 136.20 D 115.88 135.15 D 115.88 133.05 D 114.39 132.00 D S
 50.00  49.47 M  48.01  50.00 D S
 50.00  48.93 M  46.01  50.00 D S
 50.00  48.40 M  44.01  50.00 D S
 50.00  47.86 M  42.01  50.00 D S
 50.00  47.32 M  40.01  50.00 D S
 50.00  46.79 M  38.01  50.00 D S
 50.00  46.25 M  36.01  50.00 D S
 50.00  45.72 M  34.01  50.00 D S
 50.00  45.18 M  32.01  50.00 D S
 50.00  44.64 M  30.01  50.00 D S
 50.00  44.11 M  28.01  50.00 D S
 50.00  43.57 M  26.01  50.00 D S
 50.00  43.04 M  24.01  50.00 D S
 50.00  42.50 M  22.01  50.00 D S
 50.00  41.96 M  20.01  50.00 D S
 50.00  41.43 M  18.01  50.00 D S
 50.00  40.89 M  16.01  50.00 D S
 50.00  40.36 M  14.01  50.00 D S
 50.00  39.82 M  12.01  50.00 D S
 50.00  39.29 M  10.01  50.00 D S
 50.00  38.75 M   8.01  50.00 D S
 50.00  38.21 M   6.01  50.00 D S
 50.00  37.68 M   4.01  50.00 D S
 50.00  37.14 M   2.01  50.00 D S
 50.00  36.61 M   0.01  50.00 D S
 50.00  36.07 M   0.00  49.47 D S
 50.00  35.53 M   0.00  48.93 D S
 50.00  35.00 M   0.00  48.40 D S
 50.00  34.46 M   0.00  47.86 D S
 50.00  33.93 M   0.00  47.32 D S
 50.00  33.39 M   0.00  46.79 D S
 50.00  32.85 M   0.00  46.25 D S
 50.00  32.32 M   0.00  45.72 D S
 50.00  31.78 M   0.00  45.18 D S
 50.00  31.25 M   0.00  44.64 D S
 50.00  30.71 M   0.00  44.11 D S
 50.00  30.18 M   0.00  43.57 D S
 50.00  29.64 M   0.00  43.04 D S
 50.00  29.10 M   0.00  42.50 D S
 50.00  28.57 M   0.00  41.96 D S
 50.00  28.03 M   0.00  41.43 D S
 50.00  27.50 M   0.00  40.89 D S
 50.00  26.96 M   0.00  40.36 D S
 50.00  26.42 M   0.00  39.82 D S
 50.00  25.89 M   0.00  39.29 D S
 50.00  25.35 M   0.00  38.75 D S
 50.00  24.82 M   0.00  38.21 D S
 50.00  24.28 M   0.00  37.68 D S
 50.00  23.74 M   0.00  37.14 D S
 50.00  23.21 M   0.00  36.61 D S
 50.00  22.67 M   0.00  36.07 D S
 50.00  22.14 M   0.00  35.53 D S
 50.00  21.60 M   0.00  35.00 D S
 50.00  21.06 M   0.00  34.46 D S
 50.00  20.53 M   0.00  33.93 D S
 50.00  19.99 M   0.00  33.39 D S
 50.00  19.46 M   0.00  32.85 D S
 50.00  18.92 M   0.00  32.32 D S
 50.00  18.39 M   0.00  31.78 D S
 50.00  17.85 M   0.00  31.25 D S
 50.00  17.31 M   0.00  30.71 D S
 50.00  16.78 M   0.00  30.18 D S
 50.00  16.24 M   0.00  29.64 D S
 50.00  15.71 M   0.00  29.10 D S
 50.00  15.17 M   0.00  28.57 D S
 50.00  14.63 M   0.00  28.03 D S
 50.00  14.10 M   0.00  27.50 D S
 50.00  13.56 M   0.00  26.96 D S
 50.00  13.03 M   0.00  26.42 D S
 50.00  12.49 M   0.00  25.89 D S
 50.00  11.95 M   0.00  25.35 D S
 50.00  11.42 M   0.00  24.82 D S
 50.00  10.88 M   0.00  24.28 D S
 50.00  10.35 M   0.00  23.74 D S
 50.00   9.81 M   0.00  23.21 D S
 50.00   9.28 M   0.00  22.67 D S
 50.00   8.74 M   0.00  22.14 D S
 50.00   8.20 M   0.00  21.60 D S
 50.00   7.67 M   0.00  21.06 D S
 50.00   7.13 M   0.00  20.53 D S
 50.00   6.60 M   0.00  19.99 D S
 50.00   6.06 M   0.00  19.46 D S
 50.00   5.52 M   0.00  18.92 D S
 50.00   4.99 M   0.00  18.39 D S
 50.00   4.45 M   0.00  17.85 D S
 50.00   3.92 M   0.00  17.31 D S
 50.00   3.38 M   0.00  16.78 D S
 50.00   2.84 M   0.00  16.24 D S
 50.00   2.31 M   0.00  15.71 D S
 50.00   1.77 M   0.00  15.17 D S
 50.00   1.24 M   0.00  14.63 D S
 50.00   0.70 M   0.00  14.10 D S
 50.00   0.16 M   0.00  13.56 D S
 48.62   0.00 M   0.00  13.03 D S
 46.62   0.00 M   0.00  12.49 D S
 44.62   0.00 M   0.00  11.95 D S
 42.62   0.00 M   0.00  11.42 D S
 40.62   0.00 M   0.00  10.88 D S
 38.62   0.00 M   0.00  10.35 D S
 36.62   0.00 M   0.00   9.81 D S
 34.62   0.00 M   0.00   9.28 D S
 32.62   0.00 M   0.00   8.74 D S
 30.62   0.00 M   0.00   8.20 D S
 28.62   0.00 M   0.00   7.67 D S
 26.62   0.00 M   0.00   7.13 D S
 24.62   0.00 M   0.00   6.60 D S
 22.62   0.00 M   0.00   6.06 D S
 20.62   0.00 M   0.00   5.52 D S
 18.62   0.00 M   0.00   4.99 D S
 16.62   0.00 M   0.00   4.45 D S
 14.62   0.00 M   0.00   3.92 D S
 12.62   0.00 M   0.00   3.38 D S
 10.62   0.00 M   0.00   2.84 D S
  8.62   0.00 M   0.00   2.31 D S
  6.62   0.00 M   0.00   1.77 D S
  4.62   0.00 M   0.00   1.24 D S
  2.62   0.00 M   0.00   0.70 D S
  0.62   0.00 M   0.00   0.16 D S
 52.97  34.20 M  52.97  30.00 D  55.94  30.00 D  55.94  33.15 D  57.42  34.20 D
 60.39  34.20 D  61.88  33.15 D  61.88  31.05 D  60.39  30.00 D S
 50.00 161.47 M  48.01 162.00 D S
 50.00 160.93 M  46.01 162.00 D S
 50.00 160.40 M  44.01 162.00 D S
 50.00 159.86 M  42.01 162.00 D S
 50.00 159.32 M  40.01 162.00 D S
 50.00 158.79 M  38.01 162.00 D S
 50.00 158.25 M  36.01 162.00 D S
 50.00 157.72 M  34.01 162.00 D S
 50.00 157.18 M  32.01 162.00 D S
 50.00 156.64 M  30.01 162.00 D S
 50.00 156.11 M  28.01 162.00 D S
 50.00 155.57 M  26.01 162.00 D S
 50.00 155.04 M  24.01 162.00 D S
 50.00 154.50 M  22.01 162.00 D S
 50.00 153.96 M  20.01 162.00 D S
 50.00 153.43 M  18.01 162.00 D S
 50.00 152.89 M  16.01 162.00 D S
 50.00 152.36 M  14.01 162.00 D S
 50.00 151.82 M  12.01 162.00 D S
 50.00 151.29 M  10.01 162.00 D S
 50.00 150.75 M   8.01 162.00 D S
 50.00 150.21 M   6.01 162.00 D S
 50.00 149.68 M   4.01 162.00 D S
 50.00 149.14 M   2.01 162.00 D S
 50.00 148.61 M   0.01 162.00 D S
 50.00 148.07 M   0.00 161.47 D S
 50.00 147.53 M   0.00 160.93 D S
 50.00 147.00 M   0.00 160.40 D S
 50.00 146.46 M   0.00 159.86 D S
 50.00 145.93 M   0.00 159.32 D S
 50.00 145.39 M   0.00 158.79 D S
 50.00 144.85 M   0.00 158.25 D S
 50.00 144.32 M   0.00 157.72 D S
 50.00 143.78 M   0.00 157.18 D S
 50.00 143.25 M   0.00 156.64 D S
 50.00 142.71 M   0.00 156.11 D S
 50.00 142.18 M   0.00 155.57 D S
 50.00 141.64 M   0.00 155.04 D S
 50.00 141.10 M   0.00 154.50 D S
 50.00 140.57 M   0.00 153.96 D S
 50.00 140.03 M   0.00 153.43 D S
 50.00 139.50 M   0.00 152.89 D S
 50.00 138.96 M   0.00 152.36 D S
 50.00 138.42 M   0.00 151.82 D S
 50.00 137.89 M   0.00 151.29 D S
 50.00 137.35 M   0.00 150.75 D S
 50.00 136.82 M   0.00 150.21 D S
 50.00 136.28 M   0.00 149.68 D S
 50.00 135.74 M   0.00 149.14 D S
 50.00 135.21 M   0.00 148.61 D S
 50.00 134.67 M   0.00 148.07 D S
 50.00 134.14 M   0.00 147.53 D S
 50.00 133.60 M   0.00 147.00 D S
 50.00 133.06 M   0.00 146.46 D S
 50.00 132.53 M   0.00 145.93 D S
 50.00 131.99 M   0.00 145.39 D S
 50.00 131.46 M   0.00 144.85 D S
 50.00 130.92 M   0.00 144.32 D S
 50.00 130.39 M   0.00 143.78 D S
 50.00 129.85 M   0.00 143.25 D S
 50.00 129.31 M   0.00 142.71 D S
 50.00 128.78 M   0.00 142.18 D S
 50.00 128.24 M   0.00 141.64 D S
 50.00 127.71 M   0.00 141.10 D S
 50.00 127.17 M   0.00 140.57 D S
 50.00 126.63 M   0.00 140.03 D S
 50.00 126.10 M   0.00 139.50 D S
 50.00 125.56 M   0.00 138.96 D S
 50.00 125.03 M   0.00 138.42 D S
 50.00 124.49 M   0.00 137.89 D S
 50.00 123.95 M   0.00 137.35 D S
 50.00 123.42 M   0.00 136.82 D S
 50.00 122.88 M   0.00 136.28 D S
 50.00 122.35 M   0.00 135.74 D S
 50.00 121.81 M   0.00 135.21 D S
 50.00 121.28 M   0.00 134.67 D S
 50.00 120.74 M   0.00 134.14 D S
 50.00 120.20 M   0.00 133.60 D S
 50.00 119.67 M   0.00 133.06 D S
 50.00 119.13 M   0.00 132.53 D S
 50.00 118.60 M   0.00 131.99 D S
 50.00 118.06 M   0.00 131.46 D S
 50.00 117.52 M   0.00 130.92 D S
 50.00 116.99 M   0.00 130.39 D S
 50.00 116.45 M   0.00 129.85 D S
 50.00 115.92 M   0.00 129.31 D S
 50.00 115.38 M   0.00 128.78 D S
 50.00 114.84 M   0.00 128.24 D S
 50.00 114.31 M   0.00 127.71 D S
 50.00 113.77 M   0.00 127.17 D S
 50.00 113.24 M   0.00 126.63 D S
 50.00 112.70 M   0.00 126.10 D S
 50.00 112.16 M   0.00 125.56 D S
 48.62 112.00 M   0.00 125.03 D S
 46.62 112.00 M   0.00 124.49 D S
 44.62 112.00 M   0.00 123.95 D S
 42.62 112.00 M   0.00 123.42 D S
 40.62 112.00 M   0.00 122.88 D S
 38.62 112.00 M   0.00 122.35 D S
 36.62 112.00 M   0.00 121.81 D S
 34.62 112.00 M   0.00 121.28 D S
 32.62 112.00 M   0.00 120.74 D S
 30.62 112.00 M   0.00 120.20 D S
 28.62 112.00 M   0.00 119.67 D S
 26.62 112.00 M   0.00 119.13 D S
 24.62 112.00 M   0.00 118.60 D S
 22.62 112.00 M   0.00 118.06 D S
 20.62 112.00 M   0.00 117.52 D S
 18.62 112.00 M   0.00 116.99 D S
 16.62 112.00 M   0.00 116.45 D S
 14.62 112.00 M   0.00 115.92 D S
 12.62 112.00 M   0.00 115.38 D S
 10.62 112.00 M   0.00 114.84 D S
  8.62 112.00 M   0.00 114.31 D S
  6.62 112.00 M   0.00 113.77 D S
  4.62 112.00 M   0.00 113.24 D S
  2.62 112.00 M   0.00 112.70 D S
  0.62 112.00 M   0.00 112.16 D S
 52.97 136.20 M  52.97 132.00 D  55.94 132.00 D  55.94 135.15 D  57.42 136.20 D
 60.39 136.20 D  61.88 135.15 D  61.88 133.05 D  60.39 132.00 D S
eop
@end
%%PageTrailer
%%Trailer
%%EOF
