%!PS-Adobe-2.0 EPSF-2.0
%%Title: /home/gijs/.chiplotle/output/20180115_204317.eps
%%Creator: hp2xx 3.4.4 (c) 1991-1994 by H. Werntges, 1999-2003 by M. Kroeker
%%CreationDate: Mon Jan 15 20:43:17 2018
%%Pages: 1
%%BoundingBox: 0 0 467 598
%%EndComments

%%BeginProcSet:
/PSSave save def
/PSDict 200 dict def
PSDict begin
/@restore /restore load def
/restore
   {vmstatus pop
    dup @VMused lt {pop @VMused} if
    exch pop exch @restore /@VMused exch def
   } def
/@pri
   {
    ( ) print
    (                                       ) cvs print
   } def
/@start
   {
    vmstatus pop /@VMused exch def pop
   } def
/@end
   {(VM Used: ) print @VMused @pri
    (. Unused: ) print vmstatus @VMused sub @pri pop pop
    (\n) print flush
    end
    PSSave restore
   } def
/bop
   {
    /SaveImage save def
   } def
/eop
   {
    showpage
    SaveImage restore
   } def
/@line
   {
%%    1 setlinejoin      %% now set from LA command
%%    1 setmiterlimit    %% now set from LA command
   } def
/@SetPlot
   {
    2.834646 2.834646 scale
      0.050   0.050 translate
     0.100 setlinewidth
   } def
/C {setrgbcolor} def
/D {lineto} def
/M {moveto} def
/S {stroke} def
/W {setlinewidth} def
/Z {stroke newpath} def
end
%%EndProcSet

%%BeginSetup
/#copies 1 def
%%EndSetup
%%Page: 1 1
%%BeginPageSetup
PSDict begin
@start
@line
@SetPlot

bop
%%EndPageSetup
  0.100 W
 S
172.73 -20.00 M  0.100 W
 S
172.73 -20.00 M 1 setlinecap
 S
172.73 -20.00 M 1 setlinejoin
 S
172.73 -20.00 M  0.000  0.000  0.000 C
 S
152.35  35.26 M 151.74  35.88 D S
152.35  34.26 M 150.74  35.88 D S
152.35  33.26 M 149.74  35.88 D S
152.35  32.26 M 148.74  35.88 D S
152.35  31.26 M 147.74  35.88 D S
152.35  30.26 M 146.74  35.88 D S
152.35  29.26 M 146.60  35.01 D S
152.35  28.26 M 146.60  34.01 D S
152.35  27.26 M 146.60  33.01 D S
152.35  26.26 M 146.60  32.01 D S
152.35  25.26 M 146.60  31.01 D S
152.35  24.26 M 146.60  30.01 D S
152.35  23.26 M 146.60  29.01 D S
152.35  22.26 M 146.60  28.01 D S
152.35  21.26 M 146.60  27.01 D S
152.35  20.26 M 146.60  26.01 D S
152.35  19.26 M 146.60  25.01 D S
152.35  18.26 M 146.60  24.01 D S
152.35  17.26 M 146.60  23.01 D S
152.35  16.26 M 146.60  22.01 D S
152.35  15.26 M 146.60  21.01 D S
152.35  14.26 M 146.60  20.01 D S
152.35  13.26 M 146.60  19.01 D S
152.35  12.26 M 146.60  18.01 D S
152.35  11.26 M 146.60  17.01 D S
152.35  10.26 M 146.60  16.01 D S
152.35   9.26 M 146.60  15.01 D S
152.35   8.26 M 146.60  14.01 D S
152.35   7.26 M 146.60  13.01 D S
152.35   6.26 M 146.60  12.01 D S
152.35   5.26 M 146.60  11.01 D S
152.35   4.26 M 146.60  10.01 D S
152.35   3.26 M 146.60   9.01 D S
152.34   2.28 M 146.60   8.01 D S
151.34   2.28 M 146.60   7.01 D S
150.34   2.28 M 146.60   6.01 D S
149.34   2.28 M 146.60   5.01 D S
148.34   2.28 M 146.60   4.01 D S
147.34   2.28 M 146.60   3.01 D S
164.61   1.05 M 164.61   3.15 D S
164.61   2.10 M 155.69   2.10 D 157.18   1.05 D S
145.07  64.54 M 144.74  64.88 D S
145.07  63.54 M 143.74  64.88 D S
145.07  62.54 M 142.74  64.88 D S
145.07  61.54 M 141.74  64.88 D S
145.07  60.54 M 140.74  64.88 D S
145.07  59.54 M 139.74  64.88 D S
145.07  58.54 M 138.74  64.88 D S
145.07  57.54 M 137.74  64.88 D S
145.07  56.54 M 136.74  64.88 D S
145.07  55.54 M 135.74  64.88 D S
145.07  54.54 M 134.74  64.88 D S
145.07  53.54 M 133.74  64.88 D S
145.07  52.54 M 132.74  64.88 D S
145.07  51.54 M 131.74  64.88 D S
144.79  50.83 M 130.74  64.88 D S
143.79  50.83 M 129.74  64.88 D S
142.79  50.83 M 128.74  64.88 D S
141.79  50.83 M 127.74  64.88 D S
140.79  50.83 M 127.62  63.99 D S
139.79  50.83 M 127.62  62.99 D S
138.79  50.83 M 127.62  61.99 D S
137.79  50.83 M 127.62  60.99 D S
136.79  50.83 M 127.62  59.99 D S
135.79  50.83 M 127.62  58.99 D S
134.79  50.83 M 127.62  57.99 D S
133.79  50.83 M 127.62  56.99 D S
132.79  50.83 M 127.62  55.99 D S
131.79  50.83 M 127.62  54.99 D S
130.79  50.83 M 127.62  53.99 D S
129.79  50.83 M 127.62  52.99 D S
128.79  50.83 M 127.62  51.99 D S
127.79  50.83 M 127.62  50.99 D S
164.61  45.55 M 164.61  47.65 D S
164.61  46.60 M 155.69  46.60 D 157.18  45.55 D S
152.55 115.24 M 151.74 116.05 D S
152.55 114.24 M 150.74 116.05 D S
152.55 113.24 M 149.74 116.05 D S
152.55 112.24 M 148.74 116.05 D S
152.55 111.24 M 147.74 116.05 D S
152.55 110.24 M 146.74 116.05 D S
152.55 109.24 M 145.74 116.05 D S
152.55 108.24 M 144.74 116.05 D S
152.55 107.24 M 143.74 116.05 D S
152.55 106.24 M 142.74 116.05 D S
152.55 105.24 M 141.74 116.05 D S
152.55 104.24 M 140.74 116.05 D S
152.55 103.24 M 139.74 116.05 D S
152.55 102.24 M 138.74 116.05 D S
152.55 101.24 M 137.74 116.05 D S
152.55 100.24 M 136.74 116.05 D S
152.55  99.24 M 135.74 116.05 D S
152.55  98.24 M 134.74 116.05 D S
152.55  97.24 M 133.74 116.05 D S
152.55  96.24 M 132.74 116.05 D S
152.41  95.38 M 131.74 116.05 D S
151.41  95.38 M 130.74 116.05 D S
150.41  95.38 M 129.74 116.05 D S
149.41  95.38 M 128.74 116.05 D S
148.41  95.38 M 127.74 116.05 D S
147.41  95.38 M 126.74 116.05 D S
146.41  95.38 M 125.74 116.05 D S
145.41  95.38 M 124.74 116.05 D S
144.41  95.38 M 123.74 116.05 D S
143.41  95.38 M 122.74 116.05 D S
142.41  95.38 M 121.74 116.05 D S
141.41  95.38 M 120.74 116.05 D S
140.41  95.38 M 119.74 116.05 D S
139.41  95.38 M 118.74 116.05 D S
138.41  95.38 M 117.74 116.05 D S
137.41  95.38 M 116.74 116.05 D S
136.41  95.38 M 115.74 116.05 D S
135.41  95.38 M 114.74 116.05 D S
134.41  95.38 M 114.12 115.66 D S
133.41  95.38 M 114.12 114.66 D S
132.41  95.38 M 114.12 113.66 D S
131.41  95.38 M 114.12 112.66 D S
130.41  95.38 M 114.12 111.66 D S
129.41  95.38 M 114.12 110.66 D S
128.41  95.38 M 114.12 109.66 D S
127.41  95.38 M 114.12 108.66 D S
126.41  95.38 M 114.12 107.66 D S
125.41  95.38 M 114.12 106.66 D S
124.41  95.38 M 114.12 105.66 D S
123.41  95.38 M 114.12 104.66 D S
122.41  95.38 M 114.12 103.66 D S
121.41  95.38 M 114.12 102.66 D S
120.41  95.38 M 114.12 101.66 D S
119.41  95.38 M 114.12 100.66 D S
118.41  95.38 M 114.12  99.66 D S
117.41  95.38 M 114.12  98.66 D S
116.41  95.38 M 114.12  97.66 D S
115.41  95.38 M 114.12  96.66 D S
114.41  95.38 M 114.12  95.66 D S
164.61  90.05 M 164.61  92.15 D S
164.61  91.10 M 155.69  91.10 D 157.18  90.05 D S
143.38 163.41 M 142.74 164.05 D S
143.38 162.41 M 141.74 164.05 D S
143.38 161.41 M 140.74 164.05 D S
143.38 160.41 M 139.74 164.05 D S
143.38 159.41 M 138.74 164.05 D S
143.38 158.41 M 137.74 164.05 D S
143.38 157.41 M 136.74 164.05 D S
143.38 156.41 M 135.74 164.05 D S
143.38 155.41 M 134.74 164.05 D S
143.38 154.41 M 133.74 164.05 D S
143.38 153.41 M 132.74 164.05 D S
143.38 152.41 M 131.74 164.05 D S
143.38 151.41 M 130.74 164.05 D S
143.38 150.41 M 129.74 164.05 D S
143.38 149.41 M 128.74 164.05 D S
143.38 148.41 M 127.74 164.05 D S
143.38 147.41 M 126.74 164.05 D S
143.38 146.41 M 125.74 164.05 D S
143.38 145.41 M 124.74 164.05 D S
143.38 144.41 M 123.74 164.05 D S
143.38 143.41 M 122.74 164.05 D S
143.38 142.41 M 122.38 163.41 D S
143.38 141.41 M 122.38 162.41 D S
143.38 140.41 M 122.38 161.41 D S
143.38 139.41 M 122.38 160.41 D S
143.38 138.41 M 122.38 159.41 D S
143.04 137.75 M 122.38 158.41 D S
142.04 137.75 M 122.38 157.41 D S
141.04 137.75 M 122.38 156.41 D S
140.04 137.75 M 122.38 155.41 D S
139.04 137.75 M 122.38 154.41 D S
138.04 137.75 M 122.38 153.41 D S
137.04 137.75 M 122.38 152.41 D S
136.04 137.75 M 122.38 151.41 D S
135.04 137.75 M 122.38 150.41 D S
134.04 137.75 M 122.38 149.41 D S
133.04 137.75 M 122.38 148.41 D S
132.04 137.75 M 122.38 147.41 D S
131.04 137.75 M 122.38 146.41 D S
130.04 137.75 M 122.38 145.41 D S
129.04 137.75 M 122.38 144.41 D S
128.04 137.75 M 122.38 143.41 D S
127.04 137.75 M 122.38 142.41 D S
126.04 137.75 M 122.38 141.41 D S
125.04 137.75 M 122.38 140.41 D S
124.04 137.75 M 122.38 139.41 D S
123.04 137.75 M 122.38 138.41 D S
164.61 134.55 M 164.61 136.65 D S
164.61 135.60 M 155.69 135.60 D 157.18 134.55 D S
151.82 195.54 M 151.74 195.62 D S
151.82 194.54 M 150.74 195.62 D S
151.82 193.54 M 149.74 195.62 D S
151.82 192.54 M 148.74 195.62 D S
151.82 191.54 M 147.74 195.62 D S
151.82 190.54 M 146.74 195.62 D S
151.82 189.54 M 145.74 195.62 D S
151.82 188.54 M 144.74 195.62 D S
150.99 188.38 M 143.74 195.62 D S
149.99 188.38 M 142.74 195.62 D S
148.99 188.38 M 141.74 195.62 D S
147.99 188.38 M 140.74 195.62 D S
146.99 188.38 M 139.74 195.62 D S
145.99 188.38 M 138.74 195.62 D S
144.99 188.38 M 137.74 195.62 D S
143.99 188.38 M 136.74 195.62 D S
142.99 188.38 M 135.74 195.62 D S
141.99 188.38 M 134.74 195.62 D S
140.99 188.38 M 133.74 195.62 D S
139.99 188.38 M 132.74 195.62 D S
138.99 188.38 M 131.74 195.62 D S
137.99 188.38 M 130.74 195.62 D S
136.99 188.38 M 129.74 195.62 D S
135.99 188.38 M 128.74 195.62 D S
134.99 188.38 M 127.74 195.62 D S
133.99 188.38 M 126.74 195.62 D S
132.99 188.38 M 125.74 195.62 D S
131.99 188.38 M 124.74 195.62 D S
130.99 188.38 M 123.74 195.62 D S
129.99 188.38 M 122.74 195.62 D S
128.99 188.38 M 121.74 195.62 D S
127.99 188.38 M 120.74 195.62 D S
126.99 188.38 M 119.74 195.62 D S
125.99 188.38 M 118.74 195.62 D S
124.99 188.38 M 117.74 195.62 D S
123.99 188.38 M 116.74 195.62 D S
122.99 188.38 M 115.74 195.62 D S
121.99 188.38 M 114.74 195.62 D S
120.99 188.38 M 113.83 195.54 D S
119.99 188.38 M 113.83 194.54 D S
118.99 188.38 M 113.83 193.54 D S
117.99 188.38 M 113.83 192.54 D S
116.99 188.38 M 113.83 191.54 D S
115.99 188.38 M 113.83 190.54 D S
114.99 188.38 M 113.83 189.54 D S
113.99 188.38 M 113.83 188.54 D S
164.61 179.05 M 164.61 181.15 D S
164.61 180.10 M 155.69 180.10 D 157.18 179.05 D S
 87.68  24.61 M  86.74  25.55 D S
 87.68  23.61 M  85.74  25.55 D S
 87.68  22.61 M  84.74  25.55 D S
 87.68  21.61 M  83.74  25.55 D S
 87.68  20.61 M  82.74  25.55 D S
 87.68  19.61 M  81.74  25.55 D S
 87.68  18.61 M  80.74  25.55 D S
 87.68  17.61 M  79.74  25.55 D S
 87.68  16.61 M  78.74  25.55 D S
 87.68  15.61 M  77.74  25.55 D S
 87.68  14.61 M  76.74  25.55 D S
 87.68  13.61 M  75.74  25.55 D S
 87.68  12.61 M  74.74  25.55 D S
 87.68  11.61 M  73.74  25.55 D S
 87.68  10.61 M  72.74  25.55 D S
 86.99  10.30 M  71.74  25.55 D S
 85.99  10.30 M  70.74  25.55 D S
 84.99  10.30 M  69.74  25.55 D S
 83.99  10.30 M  68.74  25.55 D S
 82.99  10.30 M  67.74  25.55 D S
 81.99  10.30 M  66.74  25.55 D S
 80.99  10.30 M  65.74  25.55 D S
 79.99  10.30 M  64.74  25.55 D S
 78.99  10.30 M  63.74  25.55 D S
 77.99  10.30 M  62.74  25.55 D S
 76.99  10.30 M  61.74  25.55 D S
 75.99  10.30 M  61.48  24.81 D S
 74.99  10.30 M  61.48  23.81 D S
 73.99  10.30 M  61.48  22.81 D S
 72.99  10.30 M  61.48  21.81 D S
 71.99  10.30 M  61.48  20.81 D S
 70.99  10.30 M  61.48  19.81 D S
 69.99  10.30 M  61.48  18.81 D S
 68.99  10.30 M  61.48  17.81 D S
 67.99  10.30 M  61.48  16.81 D S
 66.99  10.30 M  61.48  15.81 D S
 65.99  10.30 M  61.48  14.81 D S
 64.99  10.30 M  61.48  13.81 D S
 63.99  10.30 M  61.48  12.81 D S
 62.99  10.30 M  61.48  11.81 D S
 61.99  10.30 M  61.48  10.81 D S
105.61   1.05 M 105.61   3.15 D S
105.61   2.10 M  96.69   2.10 D  98.18   1.05 D S
 76.22  82.19 M  75.74  82.68 D S
 76.22  81.19 M  74.74  82.68 D S
 76.22  80.19 M  73.83  82.59 D S
 76.22  79.19 M  73.83  81.59 D S
 76.22  78.19 M  73.83  80.59 D S
 76.22  77.19 M  73.83  79.59 D S
 76.22  76.19 M  73.83  78.59 D S
 76.22  75.19 M  73.83  77.59 D S
 76.22  74.19 M  73.83  76.59 D S
 76.22  73.19 M  73.83  75.59 D S
 76.22  72.19 M  73.83  74.59 D S
 76.22  71.19 M  73.83  73.59 D S
 76.22  70.19 M  73.83  72.59 D S
 76.22  69.19 M  73.83  71.59 D S
 76.22  68.19 M  73.83  70.59 D S
 76.22  67.19 M  73.83  69.59 D S
 76.22  66.19 M  73.83  68.59 D S
 76.22  65.19 M  73.83  67.59 D S
 76.22  64.19 M  73.83  66.59 D S
 76.22  63.19 M  73.83  65.59 D S
 76.22  62.19 M  73.83  64.59 D S
 76.22  61.19 M  73.83  63.59 D S
 76.22  60.19 M  73.83  62.59 D S
 76.22  59.19 M  73.83  61.59 D S
 76.22  58.19 M  73.83  60.59 D S
 76.22  57.19 M  73.83  59.59 D S
 76.22  56.19 M  73.83  58.59 D S
 76.22  55.19 M  73.83  57.59 D S
 76.22  54.19 M  73.83  56.59 D S
 76.22  53.19 M  73.83  55.59 D S
 76.22  52.19 M  73.83  54.59 D S
 76.22  51.19 M  73.83  53.59 D S
 76.22  50.19 M  73.83  52.59 D S
 76.22  49.19 M  73.83  51.59 D S
 76.22  48.19 M  73.83  50.59 D S
 76.22  47.19 M  73.83  49.59 D S
 76.19  46.23 M  73.83  48.59 D S
 75.19  46.23 M  73.83  47.59 D S
 74.19  46.23 M  73.83  46.59 D S
105.61  45.55 M 105.61  47.65 D S
105.61  46.60 M  96.69  46.60 D  98.18  45.55 D S
 87.22 103.69 M  86.74 104.18 D S
 87.22 102.69 M  85.74 104.18 D S
 87.22 101.69 M  84.74 104.18 D S
 87.22 100.69 M  83.74 104.18 D S
 87.22  99.69 M  82.74 104.18 D S
 87.22  98.69 M  81.74 104.18 D S
 87.22  97.69 M  80.74 104.18 D S
 87.22  96.69 M  79.74 104.18 D S
 87.22  95.69 M  78.74 104.18 D S
 87.22  94.69 M  77.74 104.18 D S
 87.22  93.69 M  76.74 104.18 D S
 87.19  92.72 M  75.80 104.11 D S
 86.19  92.72 M  75.80 103.11 D S
 85.19  92.72 M  75.80 102.11 D S
 84.19  92.72 M  75.80 101.11 D S
 83.19  92.72 M  75.80 100.11 D S
 82.19  92.72 M  75.80  99.11 D S
 81.19  92.72 M  75.80  98.11 D S
 80.19  92.72 M  75.80  97.11 D S
 79.19  92.72 M  75.80  96.11 D S
 78.19  92.72 M  75.80  95.11 D S
 77.19  92.72 M  75.80  94.11 D S
 76.19  92.72 M  75.80  93.11 D S
105.61  90.05 M 105.61  92.15 D S
105.61  91.10 M  96.69  91.10 D  98.18  90.05 D S
 98.18  90.05 M  1.000  0.000  0.000 C
 S
138.85  17.00 M 131.35  17.00 D S
138.85  18.00 M 131.35  18.00 D S
138.85  19.00 M 131.35  19.00 D S
138.85  20.00 M 131.35  20.00 D S
138.85  21.00 M 131.35  21.00 D S
138.85  22.00 M 131.35  22.00 D S
157.18  10.00 M 155.69  11.05 D 155.69  13.15 D 157.18  14.20 D 158.67  14.20 D
163.12  10.00 D 164.61  10.00 D 164.61  14.20 D S
140.35  49.00 M 137.40  49.00 D S
140.35  50.00 M 137.40  50.00 D S
140.35  51.00 M 137.40  51.00 D S
140.35  52.00 M 137.40  52.00 D S
140.35  53.00 M 137.40  53.00 D S
140.35  54.00 M 137.40  54.00 D S
140.35  55.00 M 137.40  55.00 D S
140.35  56.00 M 137.40  56.00 D S
140.35  57.00 M 137.40  57.00 D S
140.35  58.00 M 137.40  58.00 D S
140.35  59.00 M 137.40  59.00 D S
140.35  60.00 M 137.40  60.00 D S
140.35  61.00 M 137.40  61.00 D S
140.35  62.00 M 137.40  62.00 D S
140.35  63.00 M 137.40  63.00 D S
140.35  64.00 M 137.40  64.00 D S
140.35  65.00 M 137.40  65.00 D S
140.35  66.00 M 137.40  66.00 D S
140.35  67.00 M 137.40  67.00 D S
140.35  68.00 M 137.40  68.00 D S
140.35  69.00 M 137.40  69.00 D S
140.35  70.00 M 137.40  70.00 D S
140.35  71.00 M 137.40  71.00 D S
140.35  72.00 M 137.40  72.00 D S
140.35  73.00 M 137.40  73.00 D S
140.35  74.00 M 137.40  74.00 D S
140.35  75.00 M 137.40  75.00 D S
140.35  76.00 M 137.40  76.00 D S
140.35  77.00 M 137.40  77.00 D S
140.35  78.00 M 137.40  78.00 D S
140.35  79.00 M 137.40  79.00 D S
140.35  80.00 M 137.40  80.00 D S
157.18  54.50 M 155.69  55.55 D 155.69  57.65 D 157.18  58.70 D 158.67  58.70 D
163.12  54.50 D 164.61  54.50 D 164.61  58.70 D S
152.30  94.00 M 123.88  94.00 D S
152.30  95.00 M 123.88  95.00 D S
152.30  96.00 M 123.88  96.00 D S
152.30  97.00 M 123.88  97.00 D S
152.30  98.00 M 123.88  98.00 D S
152.30  99.00 M 123.88  99.00 D S
152.30 100.00 M 123.88 100.00 D S
152.30 101.00 M 123.88 101.00 D S
152.30 102.00 M 123.88 102.00 D S
152.30 103.00 M 123.88 103.00 D S
152.30 104.00 M 123.88 104.00 D S
152.30 105.00 M 123.88 105.00 D S
152.30 106.00 M 123.88 106.00 D S
152.30 107.00 M 123.88 107.00 D S
152.30 108.00 M 123.88 108.00 D S
152.30 109.00 M 123.88 109.00 D S
152.30 110.00 M 123.88 110.00 D S
152.30 111.00 M 123.88 111.00 D S
152.30 112.00 M 123.88 112.00 D S
152.30 113.00 M 123.88 113.00 D S
152.30 114.00 M 123.88 114.00 D S
152.30 115.00 M 123.88 115.00 D S
152.30 116.00 M 123.88 116.00 D S
152.30 117.00 M 123.88 117.00 D S
152.30 118.00 M 123.88 118.00 D S
152.30 119.00 M 123.88 119.00 D S
157.18  99.00 M 155.69 100.05 D 155.69 102.15 D 157.18 103.20 D 158.67 103.20 D
163.12  99.00 D 164.61  99.00 D 164.61 103.20 D S
140.15 143.00 M 134.35 143.00 D S
140.15 144.00 M 134.35 144.00 D S
140.15 145.00 M 134.35 145.00 D S
140.15 146.00 M 134.35 146.00 D S
140.15 147.00 M 134.35 147.00 D S
140.15 148.00 M 134.35 148.00 D S
140.15 149.00 M 134.35 149.00 D S
140.15 150.00 M 134.35 150.00 D S
140.15 151.00 M 134.35 151.00 D S
140.15 152.00 M 134.35 152.00 D S
140.15 153.00 M 134.35 153.00 D S
140.15 154.00 M 134.35 154.00 D S
140.15 155.00 M 134.35 155.00 D S
157.18 143.50 M 155.69 144.55 D 155.69 146.65 D 157.18 147.70 D 158.67 147.70 D
163.12 143.50 D 164.61 143.50 D 164.61 147.70 D S
 90.22 135.00 M  80.28 135.00 D S
 90.22 136.00 M  80.28 136.00 D S
 90.22 137.00 M  80.28 137.00 D S
 90.22 138.00 M  80.28 138.00 D S
 90.22 139.00 M  80.28 139.00 D S
 90.22 140.00 M  80.28 140.00 D S
 90.22 141.00 M  80.28 141.00 D S
 90.22 142.00 M  80.28 142.00 D S
 90.22 143.00 M  80.28 143.00 D S
 90.22 144.00 M  80.28 144.00 D S
 90.22 145.00 M  80.28 145.00 D S
 90.22 146.00 M  80.28 146.00 D S
 90.22 147.00 M  80.28 147.00 D S
 90.22 148.00 M  80.28 148.00 D S
 90.22 149.00 M  80.28 149.00 D S
 90.22 150.00 M  80.28 150.00 D S
 90.22 151.00 M  80.28 151.00 D S
 90.22 152.00 M  80.28 152.00 D S
 90.22 153.00 M  80.28 153.00 D S
 90.22 154.00 M  80.28 154.00 D S
 90.22 155.00 M  80.28 155.00 D S
 90.22 156.00 M  80.28 156.00 D S
 90.22 157.00 M  80.28 157.00 D S
 90.22 158.00 M  80.28 158.00 D S
 90.22 159.00 M  80.28 159.00 D S
 90.22 160.00 M  80.28 160.00 D S
 90.22 161.00 M  80.28 161.00 D S
 90.22 162.00 M  80.28 162.00 D S
 90.22 163.00 M  80.28 163.00 D S
 90.22 164.00 M  80.28 164.00 D S
 90.22 165.00 M  80.28 165.00 D S
 90.22 166.00 M  80.28 166.00 D S
 90.22 167.00 M  80.28 167.00 D S
 90.22 168.00 M  80.28 168.00 D S
 90.22 169.00 M  80.28 169.00 D S
 90.22 170.00 M  80.28 170.00 D S
 90.22 171.00 M  80.28 171.00 D S
 98.18 133.50 M  96.69 134.55 D  96.69 136.65 D  98.18 137.70 D  99.67 137.70 D
104.12 133.50 D 105.61 133.50 D 105.61 137.70 D S
 98.18 178.00 M  96.69 179.05 D  96.69 181.15 D  98.18 182.20 D  99.67 182.20 D
104.12 178.00 D 105.61 178.00 D 105.61 182.20 D S
 32.67   1.00 M  27.73   1.00 D S
 32.67   2.00 M  27.73   2.00 D S
 32.67   3.00 M  27.73   3.00 D S
 32.67   4.00 M  27.73   4.00 D S
 32.67   5.00 M  27.73   5.00 D S
 32.67   6.00 M  27.73   6.00 D S
 32.67   7.00 M  27.73   7.00 D S
 32.67   8.00 M  27.73   8.00 D S
 32.67   9.00 M  27.73   9.00 D S
 32.67  10.00 M  27.73  10.00 D S
 32.67  11.00 M  27.73  11.00 D S
 32.67  12.00 M  27.73  12.00 D S
 32.67  13.00 M  27.73  13.00 D S
 32.67  14.00 M  27.73  14.00 D S
 32.67  15.00 M  27.73  15.00 D S
 32.67  16.00 M  27.73  16.00 D S
 32.67  17.00 M  27.73  17.00 D S
 32.67  18.00 M  27.73  18.00 D S
 32.67  19.00 M  27.73  19.00 D S
 32.67  20.00 M  27.73  20.00 D S
 32.67  21.00 M  27.73  21.00 D S
 32.67  22.00 M  27.73  22.00 D S
 32.67  23.00 M  27.73  23.00 D S
 32.67  24.00 M  27.73  24.00 D S
 32.67  25.00 M  27.73  25.00 D S
 32.67  26.00 M  27.73  26.00 D S
 32.67  27.00 M  27.73  27.00 D S
 32.67  28.00 M  27.73  28.00 D S
 32.67  29.00 M  27.73  29.00 D S
 32.67  30.00 M  27.73  30.00 D S
 32.67  31.00 M  27.73  31.00 D S
 32.67  32.00 M  27.73  32.00 D S
 32.67  33.00 M  27.73  33.00 D S
 32.67  34.00 M  27.73  34.00 D S
 32.67  35.00 M  27.73  35.00 D S
 32.67  36.00 M  27.73  36.00 D S
 32.67  37.00 M  27.73  37.00 D S
 32.67  38.00 M  27.73  38.00 D S
 32.67  39.00 M  27.73  39.00 D S
 39.18   0.00 M  37.69   1.05 D  37.69   3.15 D  39.18   4.20 D  40.67   4.20 D
 45.12   0.00 D  46.61   0.00 D  46.61   4.20 D S
 26.45  58.00 M   9.05  58.00 D S
 26.45  59.00 M   9.05  59.00 D S
 26.45  60.00 M   9.05  60.00 D S
 26.45  61.00 M   9.05  61.00 D S
 26.45  62.00 M   9.05  62.00 D S
 26.45  63.00 M   9.05  63.00 D S
 26.45  64.00 M   9.05  64.00 D S
 26.45  65.00 M   9.05  65.00 D S
 26.45  66.00 M   9.05  66.00 D S
 26.45  67.00 M   9.05  67.00 D S
 39.18  44.50 M  37.69  45.55 D  37.69  47.65 D  39.18  48.70 D  40.67  48.70 D
 45.12  44.50 D  46.61  44.50 D  46.61  48.70 D S
 46.61  48.70 M  0.000  1.000  0.000 C
 S
152.55   0.38 M 152.25   0.08 D S
152.55   3.38 M 149.25   0.08 D S
152.55   4.38 M 148.25   0.08 D S
152.55   5.38 M 147.25   0.08 D S
152.55   6.38 M 146.25   0.08 D S
152.55   7.38 M 145.25   0.08 D S
152.55   8.38 M 144.25   0.08 D S
152.55   9.38 M 143.25   0.08 D S
152.55  10.38 M 142.25   0.08 D S
152.55  11.38 M 141.25   0.08 D S
152.55  12.38 M 140.25   0.08 D S
145.18  27.00 M 118.25   0.08 D S
144.18  27.00 M 117.25   0.08 D S
143.18  27.00 M 116.25   0.08 D S
140.18  27.00 M 113.30   0.12 D S
132.18  27.00 M 113.30   8.12 D S
117.18  27.00 M 113.30  23.12 D S
116.18  27.00 M 113.30  24.12 D S
115.18  27.00 M 113.30  25.12 D S
114.18  27.00 M 113.30  26.12 D S
163.12  20.00 M 164.61  21.05 D 164.61  23.15 D 163.12  24.20 D 161.63  24.20 D
160.15  23.15 D 160.15  22.10 D 155.69  24.20 D 155.69  20.00 D S
147.90  50.42 M 147.40  49.92 D S
147.90  51.42 M 146.40  49.92 D S
147.90  52.42 M 145.40  49.92 D S
147.90  53.42 M 144.40  49.92 D S
147.90  54.42 M 143.40  49.92 D S
147.90  55.42 M 142.40  49.92 D S
147.90  56.42 M 141.40  49.92 D S
147.90  57.42 M 140.40  49.92 D S
147.90  58.42 M 139.40  49.92 D S
147.90  59.42 M 138.40  49.92 D S
147.90  60.42 M 137.40  49.92 D S
147.90  61.42 M 136.40  49.92 D S
147.90  62.42 M 135.40  49.92 D S
147.90  63.42 M 134.40  49.92 D S
147.90  64.43 M 133.40  49.92 D S
147.90  65.43 M 132.40  49.92 D S
147.90  66.43 M 132.00  50.53 D S
147.90  67.43 M 132.00  51.53 D S
147.90  68.43 M 132.00  52.53 D S
147.90  69.43 M 132.00  53.53 D S
147.35  69.88 M 132.00  54.53 D S
146.35  69.88 M 132.00  55.53 D S
145.35  69.88 M 132.00  56.53 D S
144.35  69.88 M 132.00  57.53 D S
143.35  69.88 M 132.00  58.53 D S
142.35  69.88 M 132.00  59.53 D S
141.35  69.88 M 132.00  60.53 D S
140.35  69.88 M 132.00  61.53 D S
139.35  69.88 M 132.00  62.53 D S
138.35  69.88 M 132.00  63.53 D S
137.35  69.88 M 132.00  64.53 D S
136.35  69.88 M 132.00  65.53 D S
135.35  69.88 M 132.00  66.53 D S
134.35  69.88 M 132.00  67.53 D S
133.35  69.88 M 132.00  68.53 D S
132.35  69.88 M 132.00  69.53 D S
163.12  64.50 M 164.61  65.55 D 164.61  67.65 D 163.12  68.70 D 161.63  68.70 D
160.15  67.65 D 160.15  66.60 D 155.69  68.70 D 155.69  64.50 D S
142.73 189.68 M 141.80 188.75 D S
142.73 190.68 M 140.80 188.75 D S
142.73 191.68 M 139.80 188.75 D S
142.73 192.68 M 138.80 188.75 D S
142.73 193.68 M 137.80 188.75 D S
142.73 194.68 M 136.80 188.75 D S
142.73 195.68 M 135.80 188.75 D S
142.73 196.68 M 134.80 188.75 D S
142.73 197.68 M 133.80 188.75 D S
142.73 198.68 M 132.80 188.75 D S
142.73 199.68 M 132.43 189.38 D S
142.73 200.68 M 132.43 190.38 D S
142.73 201.68 M 132.43 191.38 D S
142.73 202.68 M 132.43 192.38 D S
142.73 203.68 M 132.43 193.38 D S
142.73 204.68 M 132.43 194.38 D S
142.73 205.68 M 132.43 195.38 D S
142.05 206.00 M 132.43 196.38 D S
141.05 206.00 M 132.43 197.38 D S
140.05 206.00 M 132.43 198.38 D S
139.05 206.00 M 132.43 199.38 D S
138.05 206.00 M 132.43 200.38 D S
137.05 206.00 M 132.43 201.38 D S
136.05 206.00 M 132.43 202.38 D S
135.05 206.00 M 132.43 203.38 D S
134.05 206.00 M 132.43 204.38 D S
133.05 206.00 M 132.43 205.38 D S
163.12 188.00 M 164.61 189.05 D 164.61 191.15 D 163.12 192.20 D 161.63 192.20 D
160.15 191.15 D 160.15 190.10 D 155.69 192.20 D 155.69 188.00 D S
 78.72   2.83 M  78.55   2.65 D S
 78.72   4.83 M  76.55   2.65 D S
 78.72   5.83 M  75.55   2.65 D S
 78.72   6.83 M  74.58   2.67 D S
 78.72   7.83 M  74.58   3.67 D S
 78.72   8.82 M  74.58   4.68 D S
 78.72   9.82 M  74.58   5.68 D S
 78.72  10.82 M  74.58   6.68 D S
 78.72  11.82 M  74.58   7.68 D S
 78.72  12.82 M  74.58   8.68 D S
 78.72  13.82 M  74.58   9.68 D S
 78.72  14.82 M  74.58  10.68 D S
 78.72  15.82 M  74.58  11.68 D S
 78.72  16.83 M  74.58  12.68 D S
 78.72  17.83 M  74.58  13.68 D S
 78.72  18.83 M  74.58  14.68 D S
 78.72  19.83 M  74.58  15.68 D S
 78.72  20.83 M  74.58  16.68 D S
 78.72  21.83 M  74.58  17.68 D S
 78.72  22.83 M  74.58  18.68 D S
 78.72  23.83 M  74.58  19.68 D S
 78.72  24.83 M  74.58  20.68 D S
 78.72  25.83 M  74.58  21.68 D S
 78.72  26.83 M  74.58  22.68 D S
 78.72  27.83 M  74.58  23.68 D S
 78.72  28.83 M  74.58  24.68 D S
 78.72  29.83 M  74.58  25.68 D S
 78.72  30.83 M  74.58  26.68 D S
 78.72  31.83 M  74.58  27.68 D S
 78.72  32.83 M  74.58  28.68 D S
 78.72  33.83 M  74.58  29.68 D S
 78.72  34.83 M  74.58  30.68 D S
 78.72  35.83 M  74.58  31.68 D S
 77.83  35.92 M  74.58  32.67 D S
 74.83  35.92 M  74.58  35.67 D S
104.12  10.00 M 105.61  11.05 D 105.61  13.15 D 104.12  14.20 D 102.64  14.20 D
101.15  13.15 D 101.15  12.10 D  96.69  14.20 D  96.69  10.00 D S
 87.85 134.23 M  87.20 133.57 D S
 87.85 135.23 M  86.20 133.57 D S
 87.85 136.23 M  85.20 133.57 D S
 87.85 137.23 M  84.20 133.57 D S
 87.85 138.23 M  83.20 133.57 D S
 87.85 139.23 M  82.20 133.57 D S
 87.85 140.23 M  81.20 133.57 D S
 87.85 141.23 M  80.20 133.57 D S
 87.85 142.23 M  79.20 133.57 D S
 87.85 143.23 M  78.20 133.57 D S
 87.85 144.23 M  77.20 133.57 D S
 87.85 145.23 M  76.20 133.57 D S
 87.85 146.23 M  75.20 133.57 D S
 87.85 147.23 M  74.20 133.57 D S
 87.85 148.23 M  73.20 133.57 D S
 87.85 149.23 M  72.20 133.57 D S
 87.85 150.23 M  71.20 133.57 D S
 87.85 151.23 M  70.20 133.57 D S
 87.85 152.23 M  69.20 133.57 D S
 87.85 153.23 M  68.20 133.57 D S
 87.85 154.23 M  67.20 133.57 D S
 87.85 155.23 M  66.20 133.57 D S
 87.85 156.23 M  65.20 133.57 D S
 87.85 157.23 M  64.20 133.57 D S
 87.85 158.23 M  63.20 133.57 D S
 87.85 159.23 M  62.20 133.57 D S
 87.85 160.23 M  61.85 134.23 D S
 87.85 161.23 M  61.85 135.23 D S
 87.85 162.23 M  61.85 136.23 D S
 87.85 163.23 M  61.85 137.23 D S
 87.85 164.23 M  61.85 138.23 D S
 87.85 165.23 M  61.85 139.23 D S
 87.85 166.23 M  61.85 140.23 D S
 87.88 167.25 M  87.85 167.23 D S
 86.88 167.25 M  61.85 142.23 D S
 85.88 167.25 M  61.85 143.23 D S
 84.88 167.25 M  61.85 144.23 D S
 83.88 167.25 M  61.85 145.23 D S
 82.88 167.25 M  61.85 146.23 D S
 81.88 167.25 M  61.85 147.23 D S
 80.88 167.25 M  61.85 148.23 D S
 79.88 167.25 M  61.85 149.23 D S
 78.88 167.25 M  61.85 150.23 D S
 77.88 167.25 M  61.85 151.23 D S
 76.88 167.25 M  61.85 152.23 D S
 75.88 167.25 M  61.85 153.23 D S
 74.88 167.25 M  61.85 154.23 D S
 73.88 167.25 M  61.85 155.23 D S
 72.88 167.25 M  61.85 156.23 D S
 71.88 167.25 M  61.85 157.23 D S
 70.88 167.25 M  61.85 158.23 D S
 69.88 167.25 M  61.85 159.23 D S
 68.88 167.25 M  61.85 160.23 D S
 67.88 167.25 M  61.85 161.23 D S
 66.88 167.25 M  61.85 162.23 D S
 65.88 167.25 M  61.85 163.23 D S
 64.88 167.25 M  61.85 164.23 D S
 63.88 167.25 M  61.85 165.23 D S
 62.88 167.25 M  61.85 166.23 D S
104.12 143.50 M 105.61 144.55 D 105.61 146.65 D 104.12 147.70 D 102.64 147.70 D
101.15 146.65 D 101.15 145.60 D  96.69 147.70 D  96.69 143.50 D S
 83.72 188.10 M  83.47 187.85 D S
 83.72 189.10 M  82.47 187.85 D S
 83.72 190.10 M  81.47 187.85 D S
 83.72 191.10 M  80.47 187.85 D S
 83.72 192.10 M  79.47 187.85 D S
 83.72 193.10 M  78.47 187.85 D S
 83.72 194.10 M  77.47 187.85 D S
 83.72 195.10 M  76.47 187.85 D S
 83.72 196.10 M  75.47 187.85 D S
 83.72 197.10 M  74.47 187.85 D S
 83.72 198.10 M  73.47 187.85 D S
 83.72 199.10 M  72.47 187.85 D S
 83.72 200.10 M  71.47 187.85 D S
 83.72 201.10 M  70.47 187.85 D S
 83.72 202.10 M  69.47 187.85 D S
 83.72 203.10 M  68.47 187.85 D S
 83.72 204.10 M  67.47 187.85 D S
 83.72 205.10 M  66.47 187.85 D S
 83.72 206.10 M  65.47 187.85 D S
 83.15 206.53 M  64.47 187.85 D S
 82.15 206.53 M  63.85 188.23 D S
 81.15 206.53 M  63.85 189.23 D S
 80.15 206.53 M  63.85 190.23 D S
 79.15 206.53 M  63.85 191.23 D S
 78.15 206.53 M  63.85 192.23 D S
 77.15 206.53 M  63.85 193.23 D S
 76.15 206.53 M  63.85 194.23 D S
 75.15 206.53 M  63.85 195.23 D S
 74.15 206.53 M  63.85 196.23 D S
 73.15 206.53 M  63.85 197.23 D S
 72.15 206.53 M  63.85 198.23 D S
 71.15 206.53 M  63.85 199.23 D S
 70.15 206.53 M  63.85 200.23 D S
 69.15 206.53 M  63.85 201.23 D S
 68.15 206.53 M  63.85 202.23 D S
 67.15 206.53 M  63.85 203.23 D S
 66.15 206.53 M  63.85 204.23 D S
 65.15 206.53 M  63.85 205.23 D S
 64.15 206.53 M  63.85 206.23 D S
104.12 188.00 M 105.61 189.05 D 105.61 191.15 D 104.12 192.20 D 102.64 192.20 D
101.15 191.15 D 101.15 190.10 D  96.69 192.20 D  96.69 188.00 D S
 15.78  90.43 M  15.12  89.78 D S
 15.78  91.43 M  15.12  90.78 D S
 15.78  92.43 M  15.12  91.78 D S
 15.78  93.43 M  15.12  92.78 D S
 15.78  94.43 M  15.12  93.78 D S
 15.78  95.43 M  15.12  94.78 D S
 15.78  96.43 M  15.12  95.78 D S
 15.78  97.43 M  15.12  96.78 D S
 15.78  98.43 M  15.12  97.78 D S
 15.78  99.43 M  15.12  98.78 D S
 15.78 100.43 M  15.12  99.78 D S
 15.78 101.43 M  15.12 100.78 D S
 15.78 102.43 M  15.12 101.78 D S
 15.78 103.43 M  15.12 102.78 D S
 15.78 104.43 M  15.12 103.78 D S
 15.78 105.43 M  15.12 104.78 D S
 15.78 106.43 M  15.12 105.78 D S
 15.78 107.43 M  15.12 106.78 D S
 15.78 108.43 M  15.12 107.78 D S
 15.78 109.43 M  15.12 108.78 D S
 15.78 110.43 M  15.12 109.78 D S
 15.78 111.43 M  15.12 110.78 D S
 15.78 112.43 M  15.12 111.78 D S
 15.78 113.43 M  15.12 112.78 D S
 15.78 114.43 M  15.12 113.78 D S
 15.78 115.43 M  15.12 114.78 D S
 15.78 116.43 M  15.12 115.78 D S
 15.78 117.43 M  15.12 116.78 D S
 15.78 118.43 M  15.12 117.78 D S
 15.78 119.43 M  15.12 118.78 D S
 15.78 120.43 M  15.12 119.78 D S
 15.78 121.43 M  15.12 120.78 D S
 15.78 122.43 M  15.12 121.78 D S
 15.78 123.43 M  15.12 122.78 D S
 15.78 124.43 M  15.12 123.78 D S
 45.12  89.00 M  46.61  90.05 D  46.61  92.15 D  45.12  93.20 D  43.63  93.20 D
 42.15  92.15 D  42.15  91.10 D  37.69  93.20 D  37.69  89.00 D S
 30.33 144.85 M  29.43 143.95 D S
 30.33 145.85 M  28.43 143.95 D S
 30.33 146.85 M  27.43 143.95 D S
 30.33 147.85 M  26.43 143.95 D S
 30.33 148.85 M  25.43 143.95 D S
 30.33 149.85 M  24.43 143.95 D S
 30.33 150.85 M  23.43 143.95 D S
 30.33 151.85 M  22.43 143.95 D S
 30.33 152.85 M  21.43 143.95 D S
 30.33 155.85 M  18.43 143.95 D S
 30.33 156.85 M  17.43 143.95 D S
 30.33 157.85 M  16.43 143.95 D S
 28.85 158.38 M  14.43 143.95 D S
 27.85 158.38 M  13.43 143.95 D S
 26.85 158.38 M  12.43 143.95 D S
 25.85 158.38 M  11.43 143.95 D S
 24.85 158.38 M  10.43 143.95 D S
 23.85 158.38 M   9.43 143.95 D S
 22.85 158.38 M   8.43 143.95 D S
 21.85 158.38 M   7.43 143.95 D S
 20.85 158.38 M   6.43 143.95 D S
 19.85 158.38 M   5.43 143.95 D S
 18.85 158.38 M   4.43 143.95 D S
 17.85 158.38 M   3.42 143.95 D S
 16.85 158.38 M   2.42 143.95 D S
 15.85 158.38 M   1.43 143.95 D S
 14.85 158.38 M   0.43 143.95 D S
 13.85 158.38 M   0.00 144.53 D S
 12.85 158.38 M   0.00 145.53 D S
 11.85 158.38 M   0.00 146.53 D S
 10.85 158.38 M   0.00 147.53 D S
  9.85 158.38 M   0.00 148.53 D S
  8.85 158.38 M   0.00 149.53 D S
  7.85 158.38 M   0.00 150.53 D S
  5.85 158.38 M   0.00 152.53 D S
  4.85 158.38 M   0.00 153.53 D S
  3.85 158.38 M   0.00 154.53 D S
  2.85 158.38 M   0.00 155.53 D S
  1.85 158.38 M   0.00 156.53 D S
  0.85 158.38 M   0.00 157.53 D S
 45.12 133.50 M  46.61 134.55 D  46.61 136.65 D  45.12 137.70 D  43.63 137.70 D
 42.15 136.65 D  42.15 135.60 D  37.69 137.70 D  37.69 133.50 D S
 37.69 133.50 M  0.000  0.000  1.000 C
 S
151.74   0.75 M 151.74  24.33 D S
150.74   0.75 M 150.74  24.33 D S
149.74   0.75 M 149.74  24.33 D S
148.74   0.75 M 148.74  24.33 D S
147.74   0.75 M 147.74  24.33 D S
146.74   0.75 M 146.74  24.33 D S
145.74   0.75 M 145.74  24.33 D S
144.74   0.75 M 144.74  24.33 D S
143.74   0.75 M 143.74  24.33 D S
142.74   0.75 M 142.74  24.33 D S
141.74   0.75 M 141.74  24.33 D S
140.74   0.75 M 140.74  24.33 D S
139.74   0.75 M 139.74  24.33 D S
138.74   0.75 M 138.74  24.33 D S
137.74   0.75 M 137.74  24.33 D S
136.74   0.75 M 136.74  24.33 D S
135.74   0.75 M 135.74  24.33 D S
134.74   0.75 M 134.74  24.33 D S
133.74   0.75 M 133.74  24.33 D S
132.74   0.75 M 132.74  24.33 D S
131.74   0.75 M 131.74  24.33 D S
130.74   0.75 M 130.74  24.33 D S
129.74   0.75 M 129.74  24.33 D S
128.74   0.75 M 128.74  24.33 D S
127.74   0.75 M 127.74  24.33 D S
126.74   0.75 M 126.74  24.33 D S
125.74   0.75 M 125.74  24.33 D S
124.74   0.75 M 124.74  24.33 D S
123.74   0.75 M 123.74  24.33 D S
122.74   0.75 M 122.74  24.33 D S
121.74   0.75 M 121.74  24.33 D S
120.74   0.75 M 120.74  24.33 D S
119.74   0.75 M 119.74  24.33 D S
118.74   0.75 M 118.74  24.33 D S
117.74   0.75 M 117.74  24.33 D S
116.74   0.75 M 116.74  24.33 D S
115.74   0.75 M 115.74  24.33 D S
114.74   0.75 M 114.74  24.33 D S
113.74   0.75 M 113.74  24.33 D S
155.69  33.15 M 160.15  30.00 D 161.63  30.00 D 161.63  34.20 D S
160.15  33.15 M 164.61  33.15 D S
148.74 103.53 M 148.74 103.95 D S
147.74 103.53 M 147.74 103.95 D S
146.74 103.53 M 146.74 103.95 D S
145.74 103.53 M 145.74 103.95 D S
144.74 103.53 M 144.74 103.95 D S
143.74 103.53 M 143.74 103.95 D S
142.74 103.53 M 142.74 103.95 D S
141.74 103.53 M 141.74 103.95 D S
140.74 103.53 M 140.74 103.95 D S
139.74 103.53 M 139.74 103.95 D S
138.74 103.53 M 138.74 103.95 D S
137.74 103.53 M 137.74 103.95 D S
136.74 103.53 M 136.74 103.95 D S
135.74 103.53 M 135.74 103.95 D S
134.74 103.53 M 134.74 103.95 D S
133.74 103.53 M 133.74 103.95 D S
132.74 103.53 M 132.74 103.95 D S
131.74 103.53 M 131.74 103.95 D S
130.74 103.53 M 130.74 103.95 D S
129.74 103.53 M 129.74 103.95 D S
128.74 103.53 M 128.74 103.95 D S
127.74 103.53 M 127.74 103.95 D S
126.74 103.53 M 126.74 103.95 D S
125.74 103.53 M 125.74 103.95 D S
124.74 103.53 M 124.74 103.95 D S
123.74 103.53 M 123.74 103.95 D S
122.74 103.53 M 122.74 103.95 D S
121.74 103.53 M 121.74 103.95 D S
120.74 103.53 M 120.74 103.95 D S
119.74 103.53 M 119.74 103.95 D S
118.74 103.53 M 118.74 103.95 D S
117.74 103.53 M 117.74 103.95 D S
116.74 103.53 M 116.74 103.95 D S
155.69 112.15 M 160.15 109.00 D 161.63 109.00 D 161.63 113.20 D S
160.15 112.15 M 164.61 112.15 D S
150.74 190.80 M 150.74 203.28 D S
149.74 190.80 M 149.74 203.28 D S
148.74 190.80 M 148.74 203.28 D S
147.74 190.80 M 147.74 203.28 D S
146.74 190.80 M 146.74 203.28 D S
145.74 190.80 M 145.74 203.28 D S
144.74 190.80 M 144.74 203.28 D S
143.74 190.80 M 143.74 203.28 D S
142.74 190.80 M 142.74 203.28 D S
141.74 190.80 M 141.74 203.28 D S
140.74 190.80 M 140.74 203.28 D S
139.74 190.80 M 139.74 203.28 D S
138.74 190.80 M 138.74 203.28 D S
137.74 190.80 M 137.74 203.28 D S
136.74 190.80 M 136.74 203.28 D S
135.74 190.80 M 135.74 203.28 D S
134.74 190.80 M 134.74 203.28 D S
133.74 190.80 M 133.74 203.28 D S
132.74 190.80 M 132.74 203.28 D S
131.74 190.80 M 131.74 203.28 D S
130.74 190.80 M 130.74 203.28 D S
129.74 190.80 M 129.74 203.28 D S
128.74 190.80 M 128.74 203.28 D S
127.74 190.80 M 127.74 203.28 D S
126.74 190.80 M 126.74 203.28 D S
125.74 190.80 M 125.74 203.28 D S
124.74 190.80 M 124.74 203.28 D S
123.74 190.80 M 123.74 203.28 D S
122.74 190.80 M 122.74 203.28 D S
121.74 190.80 M 121.74 203.28 D S
120.74 190.80 M 120.74 203.28 D S
119.74 190.80 M 119.74 203.28 D S
118.74 190.80 M 118.74 203.28 D S
117.74 190.80 M 117.74 203.28 D S
116.74 190.80 M 116.74 203.28 D S
115.74 190.80 M 115.74 203.28 D S
155.69 201.15 M 160.15 198.00 D 161.63 198.00 D 161.63 202.20 D S
160.15 201.15 M 164.61 201.15 D S
 84.74  55.17 M  84.74  69.65 D S
 83.74  55.17 M  83.74  69.65 D S
 82.74  55.17 M  82.74  69.65 D S
 81.74  55.17 M  81.74  69.65 D S
 80.74  55.17 M  80.74  69.65 D S
 79.74  55.17 M  79.74  69.65 D S
 96.69  57.65 M 101.15  54.50 D 102.64  54.50 D 102.64  58.70 D S
101.15  57.65 M 105.61  57.65 D S
 89.74 143.23 M  89.74 158.00 D S
 88.74 143.23 M  88.74 158.00 D S
 87.74 143.23 M  87.74 158.00 D S
 86.74 143.23 M  86.74 158.00 D S
 85.74 143.23 M  85.74 158.00 D S
 96.69 156.65 M 101.15 153.50 D 102.64 153.50 D 102.64 157.70 D S
101.15 156.65 M 105.61 156.65 D S
 30.74   7.18 M  30.74  29.90 D S
 29.74   7.18 M  29.74  29.90 D S
 28.74   7.18 M  28.74  29.90 D S
 27.74   7.18 M  27.74  29.90 D S
 37.69  13.15 M  42.15  10.00 D  43.63  10.00 D  43.63  14.20 D S
 42.15  13.15 M  46.61  13.15 D S
 25.74  92.10 M  25.74 124.88 D S
 24.74  92.10 M  24.74 124.88 D S
 23.74  92.10 M  23.74 124.88 D S
 22.74  92.10 M  22.74 124.88 D S
 21.74  92.10 M  21.74 124.88 D S
 20.74  92.10 M  20.74 124.88 D S
 19.74  92.10 M  19.74 124.88 D S
 18.74  92.10 M  18.74 124.88 D S
 17.74  92.10 M  17.74 124.88 D S
 16.74  92.10 M  16.74 124.88 D S
 15.74  92.10 M  15.74 124.88 D S
 14.74  92.10 M  14.74 124.88 D S
 13.74  92.10 M  13.74 124.88 D S
 12.74  92.10 M  12.74 124.88 D S
 11.74  92.10 M  11.74 124.88 D S
 10.74  92.10 M  10.74 124.88 D S
  9.74  92.10 M   9.74 124.88 D S
  8.74  92.10 M   8.74 124.88 D S
  7.74  92.10 M   7.74 124.88 D S
  6.74  92.10 M   6.74 124.88 D S
  5.74  92.10 M   5.74 124.88 D S
  4.74  92.10 M   4.74 124.88 D S
 37.69 102.15 M  42.15  99.00 D  43.63  99.00 D  43.63 103.20 D S
 42.15 102.15 M  46.61 102.15 D S
 23.74 183.07 M  23.74 210.73 D S
 22.74 183.07 M  22.74 210.73 D S
 21.74 183.07 M  21.74 210.73 D S
 20.74 183.07 M  20.74 210.73 D S
 19.74 183.07 M  19.74 210.73 D S
 18.74 183.07 M  18.74 210.73 D S
 17.74 183.07 M  17.74 210.73 D S
 16.74 183.07 M  16.74 210.73 D S
 15.74 183.07 M  15.74 210.73 D S
 14.74 183.07 M  14.74 210.73 D S
 13.74 183.07 M  13.74 210.73 D S
 12.74 183.07 M  12.74 210.73 D S
 11.74 183.07 M  11.74 210.73 D S
 37.69 181.15 M  42.15 178.00 D  43.63 178.00 D  43.63 182.20 D S
 42.15 181.15 M  46.61 181.15 D S
eop
@end
%%PageTrailer
%%Trailer
%%EOF
