%!PS-Adobe-2.0 EPSF-2.0
%%Title: /home/gijs/.chiplotle/output/20180115_203127.eps
%%Creator: hp2xx 3.4.4 (c) 1991-1994 by H. Werntges, 1999-2003 by M. Kroeker
%%CreationDate: Mon Jan 15 20:31:27 2018
%%Pages: 1
%%BoundingBox: 0 0 482 619
%%EndComments

%%BeginProcSet:
/PSSave save def
/PSDict 200 dict def
PSDict begin
/@restore /restore load def
/restore
   {vmstatus pop
    dup @VMused lt {pop @VMused} if
    exch pop exch @restore /@VMused exch def
   } def
/@pri
   {
    ( ) print
    (                                       ) cvs print
   } def
/@start
   {
    vmstatus pop /@VMused exch def pop
   } def
/@end
   {(VM Used: ) print @VMused @pri
    (. Unused: ) print vmstatus @VMused sub @pri pop pop
    (\n) print flush
    end
    PSSave restore
   } def
/bop
   {
    /SaveImage save def
   } def
/eop
   {
    showpage
    SaveImage restore
   } def
/@line
   {
%%    1 setlinejoin      %% now set from LA command
%%    1 setmiterlimit    %% now set from LA command
   } def
/@SetPlot
   {
    2.834646 2.834646 scale
      0.050   0.050 translate
     0.100 setlinewidth
   } def
/C {setrgbcolor} def
/D {lineto} def
/M {moveto} def
/S {stroke} def
/W {setlinewidth} def
/Z {stroke newpath} def
end
%%EndProcSet

%%BeginSetup
/#copies 1 def
%%EndSetup
%%Page: 1 1
%%BeginPageSetup
PSDict begin
@start
@line
@SetPlot

bop
%%EndPageSetup
  0.100 W
 S
178.00 -20.00 M  0.100 W
 S
178.00 -20.00 M 1 setlinecap
 S
178.00 -20.00 M 1 setlinejoin
 S
178.00 -20.00 M  0.000  0.000  0.000 C
 S
153.86  32.15 M 150.15  35.86 D S
156.53  27.49 M 145.49  38.53 D S
157.46  24.56 M 142.56  39.46 D S
157.87  22.14 M 140.14  39.87 D S
158.00  20.01 M 138.01  40.00 D S
157.90  18.11 M 138.00  38.01 D S
138.00  38.01 M 136.11  39.90 D S
157.66  16.35 M 138.00  36.01 D S
138.00  36.01 M 134.35  39.66 D S
157.29  14.73 M 138.00  34.01 D S
138.00  34.01 M 132.73  39.29 D S
156.81  13.20 M 138.00  32.01 D S
138.00  32.01 M 131.20  38.81 D S
156.23  11.79 M 138.00  30.01 D S
138.00  30.01 M 129.79  38.23 D S
155.56  10.46 M 138.00  28.01 D S
138.00  28.01 M 128.46  37.56 D S
154.81   9.20 M 138.00  26.01 D S
138.00  26.01 M 127.20  36.81 D S
153.99   8.02 M 138.00  24.01 D S
138.00  24.01 M 126.02  35.99 D S
153.10   6.91 M 138.00  22.01 D S
138.00  22.01 M 124.91  35.10 D S
152.15   5.86 M 138.00  20.01 D S
138.00  20.01 M 123.86  34.15 D S
151.11   4.91 M 122.91  33.10 D S
149.99   4.02 M 122.02  31.99 D S
148.81   3.20 M 121.20  30.81 D S
147.56   2.45 M 120.45  29.56 D S
146.23   1.78 M 119.78  28.23 D S
144.81   1.20 M 119.20  26.81 D S
143.29   0.72 M 118.72  25.29 D S
141.67   0.35 M 118.35  23.67 D S
139.91   0.10 M 118.10  21.91 D S
138.01   0.00 M 118.00  20.01 D S
135.89   0.12 M 118.12  17.89 D S
133.48   0.54 M 118.54  15.48 D S
130.56   1.46 M 119.46  12.56 D S
125.96   4.06 M 122.06   7.96 D S
169.88   1.05 M 169.88   3.15 D S
169.88   2.10 M 160.97   2.10 D 162.46   1.05 D S
153.86  76.65 M 150.15  80.36 D S
156.53  71.99 M 145.49  83.03 D S
157.46  69.06 M 142.56  83.96 D S
157.87  66.64 M 140.14  84.37 D S
158.00  64.51 M 138.01  84.50 D S
157.90  62.61 M 138.00  82.51 D S
138.00  82.51 M 136.11  84.40 D S
157.66  60.85 M 138.00  80.51 D S
138.00  80.51 M 134.35  84.16 D S
157.29  59.23 M 138.00  78.51 D S
138.00  78.51 M 132.73  83.79 D S
156.81  57.70 M 138.00  76.51 D S
138.00  76.51 M 131.20  83.31 D S
156.23  56.29 M 138.00  74.51 D S
138.00  74.51 M 129.79  82.73 D S
155.56  54.96 M 138.00  72.51 D S
138.00  72.51 M 128.46  82.06 D S
154.81  53.70 M 138.00  70.51 D S
138.00  70.51 M 127.20  81.31 D S
153.99  52.52 M 138.00  68.51 D S
138.00  68.51 M 126.02  80.49 D S
153.10  51.41 M 138.00  66.51 D S
138.00  66.51 M 124.91  79.60 D S
152.15  50.36 M 138.00  64.51 D S
138.00  64.51 M 123.86  78.65 D S
151.11  49.41 M 122.91  77.61 D S
149.99  48.52 M 122.02  76.49 D S
148.81  47.70 M 121.20  75.31 D S
147.56  46.95 M 120.45  74.06 D S
146.23  46.28 M 119.78  72.73 D S
144.81  45.70 M 119.20  71.31 D S
143.29  45.22 M 118.72  69.79 D S
141.67  44.85 M 118.35  68.17 D S
139.91  44.60 M 118.10  66.41 D S
138.01  44.50 M 118.00  64.51 D S
135.89  44.62 M 118.12  62.39 D S
133.48  45.04 M 118.54  59.98 D S
130.56  45.96 M 119.46  57.06 D S
125.96  48.56 M 122.06  52.46 D S
169.88  45.55 M 169.88  47.65 D S
169.88  46.60 M 160.97  46.60 D 162.46  45.55 D S
153.86 121.15 M 150.15 124.86 D S
156.53 116.49 M 145.49 127.53 D S
157.46 113.56 M 142.56 128.46 D S
157.87 111.14 M 140.14 128.87 D S
158.00 109.01 M 138.01 129.00 D S
157.90 107.11 M 138.00 127.01 D S
138.00 127.01 M 136.11 128.90 D S
157.66 105.35 M 138.00 125.01 D S
138.00 125.01 M 134.35 128.66 D S
157.29 103.73 M 138.00 123.01 D S
138.00 123.01 M 132.73 128.29 D S
156.81 102.20 M 138.00 121.01 D S
138.00 121.01 M 131.20 127.81 D S
156.23 100.79 M 138.00 119.01 D S
138.00 119.01 M 129.79 127.23 D S
155.56  99.46 M 138.00 117.01 D S
138.00 117.01 M 128.46 126.56 D S
154.81  98.20 M 138.00 115.01 D S
138.00 115.01 M 127.20 125.81 D S
153.99  97.02 M 138.00 113.01 D S
138.00 113.01 M 126.02 124.99 D S
153.10  95.91 M 138.00 111.01 D S
138.00 111.01 M 124.91 124.10 D S
152.15  94.86 M 138.00 109.01 D S
138.00 109.01 M 123.86 123.15 D S
151.10  93.91 M 122.91 122.10 D S
149.99  93.02 M 122.02 120.99 D S
148.81  92.20 M 121.20 119.81 D S
147.56  91.45 M 120.45 118.56 D S
146.23  90.78 M 119.78 117.23 D S
144.81  90.20 M 119.20 115.81 D S
143.29  89.72 M 118.72 114.29 D S
141.67  89.35 M 118.35 112.67 D S
139.91  89.10 M 118.10 110.91 D S
138.01  89.00 M 118.00 109.01 D S
135.89  89.12 M 118.12 106.89 D S
133.48  89.54 M 118.54 104.48 D S
130.56  90.46 M 119.46 101.56 D S
125.96  93.06 M 122.06  96.96 D S
169.88  90.05 M 169.88  92.15 D S
169.88  91.10 M 160.97  91.10 D 162.46  90.05 D S
153.86 165.65 M 150.15 169.36 D S
156.53 160.99 M 145.49 172.03 D S
157.46 158.06 M 142.56 172.96 D S
157.87 155.64 M 140.14 173.37 D S
158.00 153.51 M 138.01 173.50 D S
157.90 151.61 M 138.00 171.51 D S
138.00 171.51 M 136.11 173.40 D S
157.66 149.85 M 138.00 169.51 D S
138.00 169.51 M 134.35 173.16 D S
157.29 148.23 M 138.00 167.51 D S
138.00 167.51 M 132.73 172.79 D S
156.81 146.70 M 138.00 165.51 D S
138.00 165.51 M 131.20 172.31 D S
156.23 145.29 M 138.00 163.51 D S
138.00 163.51 M 129.79 171.73 D S
155.56 143.96 M 138.00 161.51 D S
138.00 161.51 M 128.46 171.06 D S
154.81 142.70 M 138.00 159.51 D S
138.00 159.51 M 127.20 170.31 D S
153.99 141.52 M 138.00 157.51 D S
138.00 157.51 M 126.02 169.49 D S
153.10 140.41 M 138.00 155.51 D S
138.00 155.51 M 124.91 168.60 D S
152.15 139.36 M 138.00 153.51 D S
138.00 153.51 M 123.86 167.65 D S
151.10 138.41 M 122.91 166.60 D S
149.99 137.52 M 122.02 165.49 D S
148.81 136.70 M 121.20 164.31 D S
147.56 135.95 M 120.45 163.06 D S
146.23 135.28 M 119.78 161.73 D S
144.81 134.70 M 119.20 160.31 D S
143.29 134.22 M 118.72 158.79 D S
141.67 133.85 M 118.35 157.17 D S
139.91 133.60 M 118.10 155.41 D S
138.01 133.50 M 118.00 153.51 D S
135.89 133.62 M 118.12 151.39 D S
133.48 134.04 M 118.54 148.98 D S
130.56 134.96 M 119.46 146.06 D S
125.96 137.56 M 122.06 141.46 D S
169.88 134.55 M 169.88 136.65 D S
169.88 135.60 M 160.97 135.60 D 162.46 134.55 D S
153.86 210.15 M 150.15 213.86 D S
156.53 205.49 M 145.49 216.53 D S
157.46 202.56 M 142.56 217.46 D S
157.87 200.14 M 140.14 217.87 D S
158.00 198.01 M 138.01 218.00 D S
157.90 196.11 M 138.00 216.01 D S
138.00 216.01 M 136.11 217.90 D S
157.66 194.35 M 138.00 214.01 D S
138.00 214.01 M 134.35 217.66 D S
157.29 192.73 M 138.00 212.01 D S
138.00 212.01 M 132.73 217.29 D S
156.81 191.20 M 138.00 210.01 D S
138.00 210.01 M 131.20 216.81 D S
156.23 189.79 M 138.00 208.01 D S
138.00 208.01 M 129.79 216.23 D S
155.56 188.46 M 138.00 206.01 D S
138.00 206.01 M 128.46 215.56 D S
154.81 187.20 M 138.00 204.01 D S
138.00 204.01 M 127.20 214.81 D S
153.99 186.02 M 138.00 202.01 D S
138.00 202.01 M 126.02 213.99 D S
153.10 184.91 M 138.00 200.01 D S
138.00 200.01 M 124.91 213.10 D S
152.15 183.86 M 138.00 198.01 D S
138.00 198.01 M 123.86 212.15 D S
151.10 182.91 M 122.91 211.11 D S
149.99 182.02 M 122.02 209.99 D S
148.81 181.20 M 121.20 208.81 D S
147.56 180.45 M 120.45 207.56 D S
146.23 179.78 M 119.78 206.23 D S
144.81 179.20 M 119.20 204.81 D S
143.29 178.72 M 118.72 203.29 D S
141.67 178.35 M 118.35 201.67 D S
139.91 178.10 M 118.10 199.91 D S
138.01 178.00 M 118.00 198.01 D S
135.89 178.12 M 118.12 195.89 D S
133.48 178.54 M 118.54 193.48 D S
130.56 179.46 M 119.46 190.56 D S
125.96 182.06 M 122.06 185.96 D S
169.88 179.05 M 169.88 181.15 D S
169.88 180.10 M 160.97 180.10 D 162.46 179.05 D S
 96.65  29.36 M  88.36  37.65 D S
 98.08  25.93 M  84.93  39.08 D S
 98.72  23.29 M  82.29  39.72 D S
 98.95  21.06 M  80.06  39.95 D S
 98.96  19.05 M  79.00  39.01 D S
 79.00  39.01 M  78.05  39.96 D S
 98.79  17.22 M  79.00  37.01 D S
 79.00  37.01 M  76.22  39.79 D S
 98.48  15.54 M  79.00  35.01 D S
 79.00  35.01 M  74.54  39.48 D S
 98.05  13.96 M  79.00  33.01 D S
 79.00  33.01 M  72.96  39.05 D S
 97.52  12.49 M  79.00  31.01 D S
 79.00  31.01 M  71.49  38.52 D S
 96.90  11.11 M  79.00  29.01 D S
 79.00  29.01 M  70.11  37.90 D S
 96.20   9.81 M  79.00  27.01 D S
 79.00  27.01 M  68.81  37.20 D S
 95.42   8.59 M  79.00  25.01 D S
 79.00  25.01 M  67.59  36.42 D S
 94.56   7.45 M  79.00  23.01 D S
 79.00  23.01 M  66.45  35.56 D S
 93.63   6.39 M  79.00  21.01 D S
 79.00  21.01 M  65.39  34.63 D S
 92.63   5.39 M  64.39  33.63 D S
 91.56   4.45 M  63.45  32.56 D S
 90.43   3.59 M  62.59  31.43 D S
 89.20   2.81 M  61.81  30.20 D S
 87.90   2.11 M  61.11  28.90 D S
 86.52   1.49 M  60.49  27.52 D S
 85.05   0.96 M  59.96  26.05 D S
 83.48   0.53 M  59.53  24.48 D S
 81.80   0.21 M  59.21  22.80 D S
 79.97   0.04 M  59.04  20.97 D S
 77.97   0.05 M  59.05  18.97 D S
 75.74   0.28 M  59.28  16.74 D S
 73.10   0.91 M  59.91  14.10 D S
 69.69   2.32 M  61.32  10.69 D S
110.88   1.05 M 110.88   3.15 D S
110.88   2.10 M 101.97   2.10 D 103.46   1.05 D S
 96.65  73.86 M  88.36  82.15 D S
 98.08  70.43 M  84.93  83.58 D S
 98.72  67.79 M  82.29  84.22 D S
 98.95  65.56 M  80.06  84.45 D S
 98.96  63.55 M  79.00  83.51 D S
 79.00  83.51 M  78.05  84.46 D S
 98.79  61.72 M  79.00  81.51 D S
 79.00  81.51 M  76.22  84.29 D S
 98.48  60.04 M  79.00  79.51 D S
 79.00  79.51 M  74.54  83.98 D S
 98.05  58.46 M  79.00  77.51 D S
 79.00  77.51 M  72.96  83.55 D S
 97.52  56.99 M  79.00  75.51 D S
 79.00  75.51 M  71.49  83.02 D S
 96.90  55.61 M  79.00  73.51 D S
 79.00  73.51 M  70.11  82.40 D S
 96.20  54.31 M  79.00  71.51 D S
 79.00  71.51 M  68.81  81.70 D S
 95.42  53.09 M  79.00  69.51 D S
 79.00  69.51 M  67.59  80.92 D S
 94.56  51.95 M  79.00  67.51 D S
 79.00  67.51 M  66.45  80.06 D S
 93.63  50.89 M  79.00  65.51 D S
 79.00  65.51 M  65.39  79.13 D S
 92.63  49.89 M  64.39  78.13 D S
 91.56  48.95 M  63.45  77.06 D S
 90.43  48.09 M  62.59  75.93 D S
 89.20  47.31 M  61.81  74.70 D S
 87.90  46.61 M  61.11  73.40 D S
 86.52  45.99 M  60.49  72.02 D S
 85.05  45.46 M  59.96  70.55 D S
 83.48  45.03 M  59.53  68.98 D S
 81.80  44.71 M  59.21  67.30 D S
 79.97  44.54 M  59.04  65.47 D S
 77.97  44.55 M  59.05  63.47 D S
 75.74  44.78 M  59.28  61.24 D S
 73.10  45.41 M  59.91  58.60 D S
 69.69  46.82 M  61.32  55.19 D S
110.88  45.55 M 110.88  47.65 D S
110.88  46.60 M 101.97  46.60 D 103.46  45.55 D S
 96.65 118.36 M  88.36 126.65 D S
 98.08 114.93 M  84.93 128.08 D S
 98.72 112.29 M  82.29 128.72 D S
 98.95 110.06 M  80.06 128.95 D S
 98.96 108.05 M  79.00 128.01 D S
 79.00 128.01 M  78.05 128.96 D S
 98.79 106.22 M  79.00 126.01 D S
 79.00 126.01 M  76.22 128.79 D S
 98.48 104.54 M  79.00 124.01 D S
 79.00 124.01 M  74.54 128.48 D S
 98.05 102.96 M  79.00 122.01 D S
 79.00 122.01 M  72.96 128.05 D S
 97.52 101.49 M  79.00 120.01 D S
 79.00 120.01 M  71.49 127.52 D S
 96.90 100.11 M  79.00 118.01 D S
 79.00 118.01 M  70.11 126.90 D S
 96.20  98.81 M  79.00 116.01 D S
 79.00 116.01 M  68.81 126.20 D S
 95.42  97.59 M  79.00 114.01 D S
 79.00 114.01 M  67.59 125.42 D S
 94.56  96.45 M  79.00 112.01 D S
 79.00 112.01 M  66.45 124.56 D S
 93.63  95.39 M  79.00 110.01 D S
 79.00 110.01 M  65.39 123.63 D S
 92.63  94.39 M  64.39 122.63 D S
 91.56  93.45 M  63.45 121.56 D S
 90.43  92.59 M  62.59 120.43 D S
 89.20  91.81 M  61.81 119.20 D S
 87.90  91.11 M  61.11 117.90 D S
 86.52  90.49 M  60.49 116.52 D S
 85.05  89.96 M  59.96 115.05 D S
 83.48  89.53 M  59.53 113.48 D S
 81.80  89.21 M  59.21 111.80 D S
 79.97  89.04 M  59.04 109.97 D S
 77.97  89.05 M  59.05 107.97 D S
 75.74  89.28 M  59.28 105.74 D S
 73.10  89.91 M  59.91 103.10 D S
 69.69  91.32 M  61.32  99.69 D S
110.88  90.05 M 110.88  92.15 D S
110.88  91.10 M 101.97  91.10 D 103.46  90.05 D S
103.46  90.05 M  1.000  0.000  0.000 C
 S
146.69   2.00 M 129.31   2.00 D S
149.97   4.00 M 126.03   4.00 D S
152.27   6.00 M 123.73   6.00 D S
153.98   8.00 M 122.02   8.00 D S
155.32  10.00 M 120.68  10.00 D S
156.31  12.00 M 119.69  12.00 D S
157.06  14.00 M 118.94  14.00 D S
157.58  16.00 M 118.42  16.00 D S
157.89  18.00 M 118.11  18.00 D S
158.00  20.00 M 138.00  20.00 D S
157.89  22.00 M 138.00  22.00 D S
138.00  22.00 M 118.11  22.00 D S
157.58  24.00 M 138.00  24.00 D S
138.00  24.00 M 118.42  24.00 D S
157.06  26.00 M 138.00  26.00 D S
138.00  26.00 M 118.94  26.00 D S
156.31  28.00 M 138.00  28.00 D S
138.00  28.00 M 119.69  28.00 D S
155.32  30.00 M 138.00  30.00 D S
138.00  30.00 M 120.68  30.00 D S
153.98  32.00 M 138.00  32.00 D S
138.00  32.00 M 122.02  32.00 D S
152.27  34.00 M 138.00  34.00 D S
138.00  34.00 M 123.73  34.00 D S
149.97  36.00 M 138.00  36.00 D S
138.00  36.00 M 126.03  36.00 D S
146.69  38.00 M 138.00  38.00 D S
138.00  38.00 M 129.31  38.00 D S
162.46  10.00 M 160.97  11.05 D 160.97  13.15 D 162.46  14.20 D 163.94  14.20 D
168.40  10.00 D 169.88  10.00 D 169.88  14.20 D S
145.55  46.00 M 130.45  46.00 D S
149.29  48.00 M 126.71  48.00 D S
151.75  50.00 M 124.25  50.00 D S
153.59  52.00 M 122.41  52.00 D S
155.00  54.00 M 121.00  54.00 D S
156.10  56.00 M 119.90  56.00 D S
156.90  58.00 M 119.10  58.00 D S
157.47  60.00 M 118.53  60.00 D S
157.82  62.00 M 118.18  62.00 D S
157.98  64.00 M 118.02  64.00 D S
157.93  66.00 M 138.00  66.00 D S
138.00  66.00 M 118.07  66.00 D S
157.69  68.00 M 138.00  68.00 D S
138.00  68.00 M 118.31  68.00 D S
157.22  70.00 M 138.00  70.00 D S
138.00  70.00 M 118.78  70.00 D S
156.52  72.00 M 138.00  72.00 D S
138.00  72.00 M 119.48  72.00 D S
155.58  74.00 M 138.00  74.00 D S
138.00  74.00 M 120.42  74.00 D S
154.36  76.00 M 138.00  76.00 D S
138.00  76.00 M 121.64  76.00 D S
152.73  78.00 M 138.00  78.00 D S
138.00  78.00 M 123.27  78.00 D S
150.62  80.00 M 138.00  80.00 D S
138.00  80.00 M 125.38  80.00 D S
147.66  82.00 M 138.00  82.00 D S
138.00  82.00 M 128.34  82.00 D S
142.36  84.00 M 138.00  84.00 D S
138.00  84.00 M 133.64  84.00 D S
162.46  54.50 M 160.97  55.55 D 160.97  57.65 D 162.46  58.70 D 163.94  58.70 D
168.40  54.50 D 169.88  54.50 D 169.88  58.70 D S
144.19  90.00 M 131.81  90.00 D S
148.50  92.00 M 127.50  92.00 D S
151.21  94.00 M 124.79  94.00 D S
153.19  96.00 M 122.81  96.00 D S
154.68  98.00 M 121.32  98.00 D S
155.84 100.00 M 120.16 100.00 D S
156.73 102.00 M 119.27 102.00 D S
157.36 104.00 M 118.64 104.00 D S
157.76 106.00 M 118.24 106.00 D S
157.96 108.00 M 118.04 108.00 D S
157.96 110.00 M 138.00 110.00 D S
138.00 110.00 M 118.04 110.00 D S
157.76 112.00 M 138.00 112.00 D S
138.00 112.00 M 118.24 112.00 D S
157.36 114.00 M 138.00 114.00 D S
138.00 114.00 M 118.64 114.00 D S
156.73 116.00 M 138.00 116.00 D S
138.00 116.00 M 119.27 116.00 D S
155.84 118.00 M 138.00 118.00 D S
138.00 118.00 M 120.16 118.00 D S
154.68 120.00 M 138.00 120.00 D S
138.00 120.00 M 121.32 120.00 D S
153.19 122.00 M 138.00 122.00 D S
138.00 122.00 M 122.81 122.00 D S
151.21 124.00 M 138.00 124.00 D S
138.00 124.00 M 124.79 124.00 D S
148.50 126.00 M 138.00 126.00 D S
138.00 126.00 M 127.50 126.00 D S
144.19 128.00 M 138.00 128.00 D S
138.00 128.00 M 131.81 128.00 D S
162.46  99.00 M 160.97 100.05 D 160.97 102.15 D 162.46 103.20 D 163.94 103.20 D
168.40  99.00 D 169.88  99.00 D 169.88 103.20 D S
142.36 134.00 M 133.64 134.00 D S
147.66 136.00 M 128.34 136.00 D S
150.62 138.00 M 125.38 138.00 D S
152.73 140.00 M 123.27 140.00 D S
154.36 142.00 M 121.64 142.00 D S
155.58 144.00 M 120.42 144.00 D S
156.52 146.00 M 119.48 146.00 D S
157.22 148.00 M 118.78 148.00 D S
157.69 150.00 M 118.31 150.00 D S
157.93 152.00 M 118.07 152.00 D S
157.98 154.00 M 138.00 154.00 D S
138.00 154.00 M 118.02 154.00 D S
157.82 156.00 M 138.00 156.00 D S
138.00 156.00 M 118.18 156.00 D S
157.47 158.00 M 138.00 158.00 D S
138.00 158.00 M 118.53 158.00 D S
156.90 160.00 M 138.00 160.00 D S
138.00 160.00 M 119.10 160.00 D S
156.10 162.00 M 138.00 162.00 D S
138.00 162.00 M 119.90 162.00 D S
155.00 164.00 M 138.00 164.00 D S
138.00 164.00 M 121.00 164.00 D S
153.59 166.00 M 138.00 166.00 D S
138.00 166.00 M 122.41 166.00 D S
151.75 168.00 M 138.00 168.00 D S
138.00 168.00 M 124.25 168.00 D S
149.29 170.00 M 138.00 170.00 D S
138.00 170.00 M 126.71 170.00 D S
145.55 172.00 M 138.00 172.00 D S
138.00 172.00 M 130.45 172.00 D S
162.46 143.50 M 160.97 144.55 D 160.97 146.65 D 162.46 147.70 D 163.94 147.70 D
168.40 143.50 D 169.88 143.50 D 169.88 147.70 D S
 83.36 134.00 M  74.64 134.00 D S
 88.66 136.00 M  69.34 136.00 D S
 91.62 138.00 M  66.38 138.00 D S
 93.73 140.00 M  64.27 140.00 D S
 95.36 142.00 M  62.64 142.00 D S
 96.58 144.00 M  61.42 144.00 D S
 97.52 146.00 M  60.48 146.00 D S
 98.22 148.00 M  59.78 148.00 D S
 98.69 150.00 M  59.31 150.00 D S
 98.93 152.00 M  59.07 152.00 D S
 98.98 154.00 M  79.00 154.00 D S
 79.00 154.00 M  59.02 154.00 D S
 98.82 156.00 M  79.00 156.00 D S
 79.00 156.00 M  59.18 156.00 D S
 98.47 158.00 M  79.00 158.00 D S
 79.00 158.00 M  59.53 158.00 D S
 97.90 160.00 M  79.00 160.00 D S
 79.00 160.00 M  60.10 160.00 D S
 97.10 162.00 M  79.00 162.00 D S
 79.00 162.00 M  60.90 162.00 D S
 96.00 164.00 M  79.00 164.00 D S
 79.00 164.00 M  62.00 164.00 D S
 94.59 166.00 M  79.00 166.00 D S
 79.00 166.00 M  63.41 166.00 D S
 92.75 168.00 M  79.00 168.00 D S
 79.00 168.00 M  65.25 168.00 D S
 90.29 170.00 M  79.00 170.00 D S
 79.00 170.00 M  67.71 170.00 D S
 86.55 172.00 M  79.00 172.00 D S
 79.00 172.00 M  71.45 172.00 D S
103.46 133.50 M 101.97 134.55 D 101.97 136.65 D 103.46 137.70 D 104.94 137.70 D
109.39 133.50 D 110.88 133.50 D 110.88 137.70 D S
 87.69 180.00 M  70.31 180.00 D S
 90.97 182.00 M  67.03 182.00 D S
 93.27 184.00 M  64.73 184.00 D S
 94.98 186.00 M  63.02 186.00 D S
 96.32 188.00 M  61.68 188.00 D S
 97.31 190.00 M  60.69 190.00 D S
 98.06 192.00 M  59.94 192.00 D S
 98.58 194.00 M  59.42 194.00 D S
 98.89 196.00 M  59.11 196.00 D S
 99.00 198.00 M  79.00 198.00 D S
 98.89 200.00 M  79.00 200.00 D S
 79.00 200.00 M  59.11 200.00 D S
 98.58 202.00 M  79.00 202.00 D S
 79.00 202.00 M  59.42 202.00 D S
 98.06 204.00 M  79.00 204.00 D S
 79.00 204.00 M  59.94 204.00 D S
 97.31 206.00 M  79.00 206.00 D S
 79.00 206.00 M  60.69 206.00 D S
 96.32 208.00 M  79.00 208.00 D S
 79.00 208.00 M  61.68 208.00 D S
 94.98 210.00 M  79.00 210.00 D S
 79.00 210.00 M  63.02 210.00 D S
 93.27 212.00 M  79.00 212.00 D S
 79.00 212.00 M  64.73 212.00 D S
 90.97 214.00 M  79.00 214.00 D S
 79.00 214.00 M  67.03 214.00 D S
 87.69 216.00 M  79.00 216.00 D S
 79.00 216.00 M  70.31 216.00 D S
103.46 178.00 M 101.97 179.05 D 101.97 181.15 D 103.46 182.20 D 104.94 182.20 D
109.39 178.00 D 110.88 178.00 D 110.88 182.20 D S
 28.69   2.00 M  11.31   2.00 D S
 31.97   4.00 M   8.03   4.00 D S
 34.27   6.00 M   5.73   6.00 D S
 35.98   8.00 M   4.02   8.00 D S
 37.32  10.00 M   2.68  10.00 D S
 38.31  12.00 M   1.69  12.00 D S
 39.06  14.00 M   0.94  14.00 D S
 39.58  16.00 M   0.42  16.00 D S
 39.89  18.00 M   0.11  18.00 D S
 40.00  20.00 M  20.00  20.00 D S
 39.89  22.00 M  20.00  22.00 D S
 39.58  24.00 M  20.00  24.00 D S
 39.06  26.00 M  20.00  26.00 D S
 38.31  28.00 M  20.00  28.00 D S
 37.32  30.00 M  20.00  30.00 D S
 35.98  32.00 M  20.00  32.00 D S
 34.27  34.00 M  20.00  34.00 D S
 31.97  36.00 M  20.00  36.00 D S
 28.69  38.00 M  20.00  38.00 D S
 44.46   0.00 M  42.97   1.05 D  42.97   3.15 D  44.46   4.20 D  45.94   4.20 D
 50.39   0.00 D  51.88   0.00 D  51.88   4.20 D S
 27.55  46.00 M  12.45  46.00 D S
 31.29  48.00 M   8.71  48.00 D S
 33.75  50.00 M   6.25  50.00 D S
 35.59  52.00 M   4.41  52.00 D S
 37.00  54.00 M   3.00  54.00 D S
 38.10  56.00 M   1.90  56.00 D S
 38.90  58.00 M   1.10  58.00 D S
 39.47  60.00 M   0.53  60.00 D S
 39.82  62.00 M   0.18  62.00 D S
 39.98  64.00 M   0.02  64.00 D S
 39.93  66.00 M  20.00  66.00 D S
 39.69  68.00 M  20.00  68.00 D S
 39.22  70.00 M  20.00  70.00 D S
 38.52  72.00 M  20.00  72.00 D S
 37.58  74.00 M  20.00  74.00 D S
 36.36  76.00 M  20.00  76.00 D S
 34.73  78.00 M  20.00  78.00 D S
 32.62  80.00 M  20.00  80.00 D S
 29.66  82.00 M  20.00  82.00 D S
 24.36  84.00 M  20.00  84.00 D S
 44.46  44.50 M  42.97  45.55 D  42.97  47.65 D  44.46  48.70 D  45.94  48.70 D
 50.39  44.50 D  51.88  44.50 D  51.88  48.70 D S
 51.88  48.70 M  0.000  1.000  0.000 C
 S
153.82   7.80 M 150.20   4.18 D S
156.52  12.49 M 145.51   1.48 D S
157.45  15.43 M 142.57   0.55 D S
157.87  17.84 M 140.16   0.13 D S
158.00  19.97 M 138.03   0.00 D S
157.91  21.88 M 136.12   0.09 D S
157.66  23.64 M 134.36   0.34 D S
157.29  25.27 M 132.73   0.71 D S
156.81  26.79 M 131.21   1.19 D S
156.23  28.20 M 129.80   1.77 D S
155.56  29.54 M 128.46   2.44 D S
154.82  30.79 M 127.21   3.18 D S
154.00  31.97 M 126.03   4.00 D S
153.11  33.09 M 124.91   4.89 D S
152.15  34.13 M 123.87   5.85 D S
151.11  35.09 M 138.00  21.98 D S
138.00  21.98 M 122.91   6.89 D S
150.00  35.98 M 138.00  23.98 D S
138.00  23.98 M 122.02   8.00 D S
148.82  36.80 M 138.00  25.98 D S
138.00  25.98 M 121.20   9.18 D S
147.57  37.54 M 138.00  27.98 D S
138.00  27.98 M 120.46  10.43 D S
146.24  38.21 M 138.00  29.98 D S
138.00  29.98 M 119.79  11.76 D S
144.82  38.80 M 138.00  31.98 D S
138.00  31.98 M 119.20  13.18 D S
143.30  39.28 M 138.00  33.98 D S
138.00  33.98 M 118.72  14.70 D S
141.68  39.65 M 138.00  35.98 D S
138.00  35.98 M 118.35  16.32 D S
139.92  39.90 M 138.00  37.98 D S
138.00  37.98 M 118.10  18.08 D S
138.02  40.00 M 138.00  39.98 D S
138.00  39.98 M 118.00  19.98 D S
135.90  39.88 M 118.12  22.10 D S
133.49  39.47 M 118.53  24.51 D S
130.58  38.55 M 119.45  27.42 D S
126.01  35.99 M 122.01  31.99 D S
168.40  20.00 M 169.88  21.05 D 169.88  23.15 D 168.40  24.20 D 166.91  24.20 D
165.43  23.15 D 165.43  22.10 D 160.97  24.20 D 160.97  20.00 D S
156.16  56.14 M 146.36  46.34 D S
157.30  59.28 M 143.22  45.20 D S
157.79  61.77 M 140.73  44.71 D S
157.98  63.95 M 138.55  44.52 D S
157.94  65.91 M 136.59  44.56 D S
157.73  67.71 M 134.79  44.77 D S
157.39  69.36 M 133.14  45.11 D S
156.93  70.91 M 131.59  45.57 D S
156.38  72.35 M 130.15  46.12 D S
155.73  73.71 M 128.79  46.77 D S
155.01  74.99 M 127.51  47.49 D S
154.22  76.19 M 126.31  48.28 D S
153.35  77.32 M 125.18  49.15 D S
152.39  78.37 M 124.13  50.11 D S
151.37  79.35 M 138.00  65.97 D S
138.00  65.97 M 123.15  51.13 D S
150.28  80.26 M 138.00  67.97 D S
138.00  67.97 M 122.24  52.22 D S
149.13  81.10 M 138.00  69.97 D S
138.00  69.97 M 121.40  53.37 D S
147.90  81.87 M 138.00  71.97 D S
138.00  71.97 M 120.63  54.60 D S
146.58  82.56 M 138.00  73.97 D S
138.00  73.97 M 119.94  55.92 D S
145.18  83.15 M 138.00  75.97 D S
138.00  75.97 M 119.35  57.32 D S
143.68  83.66 M 138.00  77.97 D S
138.00  77.97 M 118.84  58.82 D S
142.09  84.06 M 138.00  79.97 D S
138.00  79.97 M 118.44  60.41 D S
140.37  84.34 M 138.00  81.97 D S
138.00  81.97 M 118.16  62.13 D S
138.50  84.48 M 138.00  83.97 D S
138.00  83.97 M 118.02  64.00 D S
136.46  84.43 M 118.07  66.04 D S
134.13  84.11 M 118.39  68.37 D S
131.39  83.37 M 119.13  71.11 D S
127.57  81.55 M 120.95  74.93 D S
168.40  64.50 M 169.88  65.55 D 169.88  67.65 D 168.40  68.70 D 166.91  68.70 D
165.43  67.65 D 165.43  66.60 D 160.97  68.70 D 160.97  64.50 D S
153.82 185.80 M 150.20 182.18 D S
156.52 190.49 M 145.51 179.48 D S
157.45 193.43 M 142.57 178.55 D S
157.87 195.84 M 140.16 178.13 D S
158.00 197.97 M 138.03 178.00 D S
157.91 199.88 M 136.12 178.09 D S
157.66 201.64 M 134.36 178.34 D S
157.29 203.27 M 132.73 178.71 D S
156.81 204.79 M 131.21 179.19 D S
156.23 206.20 M 129.80 179.77 D S
155.56 207.54 M 128.46 180.44 D S
154.82 208.79 M 127.21 181.18 D S
154.00 209.97 M 126.03 182.00 D S
153.11 211.09 M 124.91 182.89 D S
152.15 212.13 M 123.87 183.85 D S
151.11 213.09 M 138.00 199.98 D S
138.00 199.98 M 122.91 184.89 D S
150.00 213.98 M 138.00 201.98 D S
138.00 201.98 M 122.02 186.00 D S
148.82 214.80 M 138.00 203.98 D S
138.00 203.98 M 121.20 187.18 D S
147.57 215.54 M 138.00 205.98 D S
138.00 205.98 M 120.46 188.43 D S
146.24 216.21 M 138.00 207.98 D S
138.00 207.98 M 119.79 189.76 D S
144.82 216.80 M 138.00 209.98 D S
138.00 209.98 M 119.20 191.18 D S
143.30 217.28 M 138.00 211.98 D S
138.00 211.98 M 118.72 192.70 D S
141.68 217.65 M 138.00 213.98 D S
138.00 213.98 M 118.35 194.32 D S
139.92 217.90 M 138.00 215.98 D S
138.00 215.98 M 118.10 196.08 D S
138.02 218.00 M 138.00 217.98 D S
138.00 217.98 M 118.00 197.98 D S
135.90 217.88 M 118.12 200.10 D S
133.49 217.47 M 118.53 202.51 D S
130.58 216.55 M 119.45 205.42 D S
126.01 213.99 M 122.01 209.99 D S
168.40 188.00 M 169.88 189.05 D 169.88 191.15 D 168.40 192.20 D 166.91 192.20 D
165.43 191.15 D 165.43 190.10 D 160.97 192.20 D 160.97 188.00 D S
 94.82   7.80 M  91.20   4.18 D S
 97.52  12.49 M  86.51   1.48 D S
 98.45  15.43 M  83.57   0.55 D S
 98.87  17.84 M  81.16   0.13 D S
 99.00  19.97 M  79.03   0.00 D S
 98.91  21.88 M  77.12   0.09 D S
 98.66  23.64 M  75.36   0.34 D S
 98.29  25.27 M  73.73   0.71 D S
 97.81  26.79 M  72.21   1.19 D S
 97.23  28.20 M  70.80   1.77 D S
 96.56  29.54 M  69.46   2.44 D S
 95.82  30.79 M  68.21   3.18 D S
 95.00  31.97 M  67.03   4.00 D S
 94.11  33.09 M  65.91   4.89 D S
 93.15  34.13 M  64.87   5.85 D S
 92.11  35.09 M  79.00  21.98 D S
 79.00  21.98 M  63.91   6.89 D S
 91.00  35.98 M  79.00  23.98 D S
 79.00  23.98 M  63.02   8.00 D S
 89.82  36.80 M  79.00  25.98 D S
 79.00  25.98 M  62.20   9.18 D S
 88.57  37.54 M  79.00  27.98 D S
 79.00  27.98 M  61.46  10.43 D S
 87.24  38.21 M  79.00  29.98 D S
 79.00  29.98 M  60.79  11.76 D S
 85.82  38.80 M  79.00  31.98 D S
 79.00  31.98 M  60.20  13.18 D S
 84.30  39.28 M  79.00  33.98 D S
 79.00  33.98 M  59.72  14.70 D S
 82.68  39.65 M  79.00  35.98 D S
 79.00  35.98 M  59.35  16.32 D S
 80.92  39.90 M  79.00  37.98 D S
 79.00  37.98 M  59.10  18.08 D S
 79.02  40.00 M  79.00  39.98 D S
 79.00  39.98 M  59.00  19.98 D S
 76.90  39.88 M  59.12  22.10 D S
 74.49  39.47 M  59.53  24.51 D S
 71.58  38.55 M  60.45  27.42 D S
 67.01  35.99 M  63.01  31.99 D S
109.39  10.00 M 110.88  11.05 D 110.88  13.15 D 109.39  14.20 D 107.91  14.20 D
106.43  13.15 D 106.43  12.10 D 101.97  14.20 D 101.97  10.00 D S
 95.96 142.94 M  89.56 136.54 D S
 97.84 146.82 M  85.68 134.66 D S
 98.59 149.57 M  82.93 133.91 D S
 98.93 151.91 M  80.59 133.57 D S
 98.98 153.96 M  78.54 133.52 D S
 98.85 155.82 M  76.68 133.65 D S
 98.57 157.54 M  74.96 133.93 D S
 98.17 159.15 M  73.35 134.33 D S
 97.67 160.64 M  71.86 134.83 D S
 97.08 162.05 M  70.45 135.42 D S
 96.39 163.37 M  69.13 136.11 D S
 95.62 164.60 M  67.90 136.88 D S
 94.78 165.76 M  66.74 137.72 D S
 93.87 166.85 M  65.65 138.63 D S
 92.89 167.87 M  79.00 153.98 D S
 79.00 153.98 M  64.63 139.61 D S
 91.85 168.83 M  79.00 155.98 D S
 79.00 155.98 M  63.67 140.65 D S
 90.72 169.69 M  79.00 157.98 D S
 79.00 157.98 M  62.81 141.78 D S
 89.52 170.49 M  79.00 159.98 D S
 79.00 159.98 M  62.01 142.98 D S
 88.24 171.22 M  79.00 161.98 D S
 79.00 161.98 M  61.28 144.26 D S
 86.89 171.86 M  79.00 163.98 D S
 79.00 163.98 M  60.64 145.61 D S
 85.44 172.42 M  79.00 165.98 D S
 79.00 165.98 M  60.08 147.06 D S
 83.90 172.88 M  79.00 167.98 D S
 79.00 167.98 M  59.62 148.60 D S
 82.25 173.23 M  79.00 169.98 D S
 79.00 169.98 M  59.27 150.25 D S
 80.46 173.44 M  79.00 171.98 D S
 79.00 171.98 M  59.06 152.04 D S
 78.50 173.48 M  59.02 154.00 D S
 76.33 173.30 M  59.20 156.17 D S
 73.85 172.82 M  59.68 158.65 D S
 70.72 171.70 M  60.80 161.78 D S
109.39 143.50 M 110.88 144.55 D 110.88 146.65 D 109.39 147.70 D 107.91 147.70 D
106.43 146.65 D 106.43 145.60 D 101.97 147.70 D 101.97 143.50 D S
 94.82 185.80 M  91.20 182.18 D S
 97.52 190.49 M  86.51 179.48 D S
 98.45 193.43 M  83.57 178.55 D S
 98.87 195.84 M  81.16 178.13 D S
 99.00 197.97 M  79.03 178.00 D S
 98.91 199.88 M  77.12 178.09 D S
 98.66 201.64 M  75.36 178.34 D S
 98.29 203.27 M  73.73 178.71 D S
 97.81 204.79 M  72.21 179.19 D S
 97.23 206.20 M  70.80 179.77 D S
 96.56 207.54 M  69.46 180.44 D S
 95.82 208.79 M  68.21 181.18 D S
 95.00 209.97 M  67.03 182.00 D S
 94.11 211.09 M  65.91 182.89 D S
 93.15 212.13 M  64.87 183.85 D S
 92.11 213.09 M  79.00 199.98 D S
 79.00 199.98 M  63.91 184.89 D S
 91.00 213.98 M  79.00 201.98 D S
 79.00 201.98 M  63.02 186.00 D S
 89.82 214.80 M  79.00 203.98 D S
 79.00 203.98 M  62.20 187.18 D S
 88.57 215.54 M  79.00 205.98 D S
 79.00 205.98 M  61.46 188.43 D S
 87.24 216.21 M  79.00 207.98 D S
 79.00 207.98 M  60.79 189.76 D S
 85.82 216.80 M  79.00 209.98 D S
 79.00 209.98 M  60.20 191.18 D S
 84.30 217.28 M  79.00 211.98 D S
 79.00 211.98 M  59.72 192.70 D S
 82.68 217.65 M  79.00 213.98 D S
 79.00 213.98 M  59.35 194.32 D S
 80.92 217.90 M  79.00 215.98 D S
 79.00 215.98 M  59.10 196.08 D S
 79.02 218.00 M  79.00 217.98 D S
 79.00 217.98 M  59.00 197.98 D S
 76.90 217.88 M  59.12 200.10 D S
 74.49 217.47 M  59.53 202.51 D S
 71.58 216.55 M  60.45 205.42 D S
 67.01 213.99 M  63.01 209.99 D S
109.39 188.00 M 110.88 189.05 D 110.88 191.15 D 109.39 192.20 D 107.91 192.20 D
106.43 191.15 D 106.43 190.10 D 101.97 192.20 D 101.97 188.00 D S
 37.64  99.62 M  29.38  91.36 D S
 39.07 103.05 M  25.95  89.93 D S
 39.72 105.69 M  23.31  89.28 D S
 39.95 107.93 M  21.07  89.05 D S
 39.96 109.93 M  19.07  89.04 D S
 39.79 111.76 M  17.24  89.21 D S
 39.48 113.45 M  15.55  89.52 D S
 39.05 115.03 M  13.97  89.95 D S
 38.52 116.50 M  12.50  90.48 D S
 37.90 117.88 M  11.12  91.10 D S
 37.21 119.18 M   9.82  91.79 D S
 36.43 120.40 M   8.60  92.57 D S
 35.56 121.54 M   7.46  93.44 D S
 34.63 122.61 M   6.39  94.37 D S
 33.63 123.61 M  20.00 109.97 D S
 32.57 124.54 M  20.00 111.97 D S
 31.43 125.41 M  20.00 113.97 D S
 30.21 126.19 M  20.00 115.97 D S
 28.91 126.89 M  20.00 117.97 D S
 27.53 127.51 M  20.00 119.97 D S
 26.06 128.04 M  20.00 121.97 D S
 24.49 128.47 M  20.00 123.97 D S
 22.81 128.78 M  20.00 125.97 D S
 20.98 128.96 M  20.00 127.97 D S
 18.98 128.96 M   0.04 110.02 D S
 16.75 128.73 M   0.27 112.25 D S
 14.12 128.10 M   0.90 114.88 D S
 10.72 126.70 M   2.30 118.28 D S
 50.39  89.00 M  51.88  90.05 D  51.88  92.15 D  50.39  93.20 D  48.91  93.20 D
 47.42  92.15 D  47.42  91.10 D  42.97  93.20 D  42.97  89.00 D S
 36.96 142.94 M  30.56 136.54 D S
 38.84 146.82 M  26.68 134.66 D S
 39.59 149.57 M  23.93 133.91 D S
 39.93 151.91 M  21.59 133.57 D S
 39.98 153.96 M  19.54 133.52 D S
 39.85 155.82 M  17.68 133.65 D S
 39.57 157.54 M  15.96 133.93 D S
 39.17 159.15 M  14.35 134.33 D S
 38.67 160.64 M  12.86 134.83 D S
 38.08 162.05 M  11.45 135.42 D S
 37.39 163.37 M  10.13 136.11 D S
 36.62 164.60 M   8.90 136.88 D S
 35.78 165.76 M   7.74 137.72 D S
 34.87 166.85 M   6.65 138.63 D S
 33.89 167.87 M  20.00 153.98 D S
 32.85 168.83 M  20.00 155.98 D S
 31.72 169.69 M  20.00 157.98 D S
 30.52 170.49 M  20.00 159.98 D S
 29.24 171.22 M  20.00 161.98 D S
 27.89 171.86 M  20.00 163.98 D S
 26.44 172.42 M  20.00 165.98 D S
 24.90 172.88 M  20.00 167.98 D S
 23.25 173.23 M  20.00 169.98 D S
 21.46 173.44 M  20.00 171.98 D S
 19.50 173.48 M   0.02 154.00 D S
 17.33 173.30 M   0.20 156.17 D S
 14.85 172.82 M   0.68 158.65 D S
 11.72 171.70 M   1.80 161.78 D S
 50.39 133.50 M  51.88 134.55 D  51.88 136.65 D  50.39 137.70 D  48.91 137.70 D
 47.42 136.65 D  47.42 135.60 D  42.97 137.70 D  42.97 133.50 D S
 42.97 133.50 M  0.000  0.000  1.000 C
 S
156.01  11.33 M 156.01  28.67 D S
154.01   8.05 M 154.01  31.95 D S
152.01   5.74 M 152.01  34.26 D S
150.01   4.03 M 150.01  35.97 D S
148.01   2.69 M 148.01  37.31 D S
146.01   1.69 M 146.01  38.31 D S
144.01   0.95 M 144.01  39.05 D S
142.01   0.42 M 142.01  39.58 D S
140.01   0.11 M 140.01  39.89 D S
138.01   0.00 M 138.01  40.00 D S
136.01   0.11 M 136.01  39.89 D S
134.01   0.42 M 134.01  39.58 D S
132.01   0.94 M 132.01  39.06 D S
130.01   1.68 M 130.01  38.32 D S
128.01   2.67 M 128.01  37.33 D S
126.01   4.01 M 126.01  35.99 D S
124.01   5.72 M 124.01  34.28 D S
122.01   8.01 M 122.01  31.99 D S
120.01  11.28 M 120.01  28.72 D S
118.01  19.71 M 118.01  20.29 D S
160.97  33.15 M 165.43  30.00 D 166.91  30.00 D 166.91  34.20 D S
165.43  33.15 M 169.88  33.15 D S
156.01 100.33 M 156.01 117.67 D S
154.01  97.05 M 154.01 120.95 D S
152.01  94.74 M 152.01 123.26 D S
150.01  93.03 M 150.01 124.97 D S
148.01  91.69 M 148.01 126.31 D S
146.01  90.69 M 146.01 127.31 D S
144.01  89.95 M 144.01 128.05 D S
142.01  89.42 M 142.01 128.58 D S
140.01  89.11 M 140.01 128.89 D S
138.01  89.00 M 138.01 129.00 D S
136.01  89.11 M 136.01 128.89 D S
134.01  89.42 M 134.01 128.58 D S
132.01  89.94 M 132.01 128.06 D S
130.01  90.68 M 130.01 127.32 D S
128.01  91.67 M 128.01 126.33 D S
126.01  93.01 M 126.01 124.99 D S
124.01  94.72 M 124.01 123.28 D S
122.01  97.01 M 122.01 120.99 D S
120.01 100.28 M 120.01 117.72 D S
118.01 108.71 M 118.01 109.29 D S
160.97 112.15 M 165.43 109.00 D 166.91 109.00 D 166.91 113.20 D S
165.43 112.15 M 169.88 112.15 D S
156.01 189.33 M 156.01 206.67 D S
154.01 186.05 M 154.01 209.95 D S
152.01 183.74 M 152.01 212.26 D S
150.01 182.03 M 150.01 213.97 D S
148.01 180.69 M 148.01 215.31 D S
146.01 179.69 M 146.01 216.31 D S
144.01 178.95 M 144.01 217.05 D S
142.01 178.42 M 142.01 217.58 D S
140.01 178.11 M 140.01 217.89 D S
138.01 178.00 M 138.01 218.00 D S
136.01 178.11 M 136.01 217.89 D S
134.01 178.42 M 134.01 217.58 D S
132.01 178.94 M 132.01 217.06 D S
130.01 179.68 M 130.01 216.32 D S
128.01 180.67 M 128.01 215.33 D S
126.01 182.01 M 126.01 213.99 D S
124.01 183.72 M 124.01 212.28 D S
122.01 186.01 M 122.01 209.99 D S
120.01 189.28 M 120.01 206.72 D S
118.01 197.71 M 118.01 198.29 D S
160.97 201.15 M 165.43 198.00 D 166.91 198.00 D 166.91 202.20 D S
165.43 201.15 M 169.88 201.15 D S
 98.01  58.35 M  98.01  70.65 D S
 96.01  54.02 M  96.01  74.98 D S
 94.01  51.31 M  94.01  77.69 D S
 92.01  49.32 M  92.01  79.68 D S
 90.01  47.82 M  90.01  81.18 D S
 88.01  46.67 M  88.01  82.33 D S
 86.01  45.78 M  86.01  83.22 D S
 84.01  45.15 M  84.01  83.85 D S
 82.01  44.74 M  82.01  84.26 D S
 80.01  44.54 M  80.01  84.46 D S
 78.01  44.54 M  78.01  84.46 D S
 76.01  44.74 M  76.01  84.26 D S
 74.01  45.14 M  74.01  83.86 D S
 72.01  45.77 M  72.01  83.23 D S
 70.01  46.65 M  70.01  82.35 D S
 68.01  47.81 M  68.01  81.19 D S
 66.01  49.30 M  66.01  79.70 D S
 64.01  51.28 M  64.01  77.72 D S
 62.01  53.98 M  62.01  75.02 D S
 60.01  58.27 M  60.01  70.73 D S
101.97  57.65 M 106.43  54.50 D 107.91  54.50 D 107.91  58.70 D S
106.43  57.65 M 110.88  57.65 D S
 98.01 147.35 M  98.01 159.65 D S
 96.01 143.02 M  96.01 163.98 D S
 94.01 140.31 M  94.01 166.69 D S
 92.01 138.32 M  92.01 168.68 D S
 90.01 136.82 M  90.01 170.18 D S
 88.01 135.67 M  88.01 171.33 D S
 86.01 134.78 M  86.01 172.22 D S
 84.01 134.15 M  84.01 172.85 D S
 82.01 133.74 M  82.01 173.26 D S
 80.01 133.54 M  80.01 173.46 D S
 78.01 133.54 M  78.01 173.46 D S
 76.01 133.74 M  76.01 173.26 D S
 74.01 134.14 M  74.01 172.86 D S
 72.01 134.77 M  72.01 172.23 D S
 70.01 135.65 M  70.01 171.35 D S
 68.01 136.81 M  68.01 170.19 D S
 66.01 138.30 M  66.01 168.70 D S
 64.01 140.28 M  64.01 166.72 D S
 62.01 142.98 M  62.01 164.02 D S
 60.01 147.27 M  60.01 159.73 D S
101.97 156.65 M 106.43 153.50 D 107.91 153.50 D 107.91 157.70 D S
106.43 156.65 M 110.88 156.65 D S
 38.01  11.33 M  38.01  28.67 D S
 36.01   8.05 M  36.01  31.95 D S
 34.01   5.74 M  34.01  34.26 D S
 32.01   4.03 M  32.01  35.97 D S
 30.01   2.69 M  30.01  37.31 D S
 28.01   1.69 M  28.01  38.31 D S
 26.01   0.95 M  26.01  39.05 D S
 24.01   0.42 M  24.01  39.58 D S
 22.01   0.11 M  22.01  39.89 D S
 20.01   0.00 M  20.01  40.00 D S
 18.01   0.11 M  18.01  39.89 D S
 16.01   0.42 M  16.01  39.58 D S
 14.01   0.94 M  14.01  39.06 D S
 12.01   1.68 M  12.01  38.32 D S
 10.01   2.67 M  10.01  37.33 D S
  8.01   4.01 M   8.01  35.99 D S
  6.01   5.72 M   6.01  34.28 D S
  4.01   8.01 M   4.01  31.99 D S
  2.01  11.28 M   2.01  28.72 D S
  0.01  19.71 M   0.01  20.29 D S
 42.97  13.15 M  47.42  10.00 D  48.91  10.00 D  48.91  14.20 D S
 47.42  13.15 M  51.88  13.15 D S
 38.01 100.33 M  38.01 117.67 D S
 36.01  97.05 M  36.01 120.95 D S
 34.01  94.74 M  34.01 123.26 D S
 32.01  93.03 M  32.01 124.97 D S
 30.01  91.69 M  30.01 126.31 D S
 28.01  90.69 M  28.01 127.31 D S
 26.01  89.95 M  26.01 128.05 D S
 24.01  89.42 M  24.01 128.58 D S
 22.01  89.11 M  22.01 128.89 D S
 20.01  89.00 M  20.01 129.00 D S
 18.01  89.11 M  18.01 128.89 D S
 16.01  89.42 M  16.01 128.58 D S
 14.01  89.94 M  14.01 128.06 D S
 12.01  90.68 M  12.01 127.32 D S
 10.01  91.67 M  10.01 126.33 D S
  8.01  93.01 M   8.01 124.99 D S
  6.01  94.72 M   6.01 123.28 D S
  4.01  97.01 M   4.01 120.99 D S
  2.01 100.28 M   2.01 117.72 D S
  0.01 108.71 M   0.01 109.29 D S
 42.97 102.15 M  47.42  99.00 D  48.91  99.00 D  48.91 103.20 D S
 47.42 102.15 M  51.88 102.15 D S
 38.01 189.33 M  38.01 206.67 D S
 36.01 186.05 M  36.01 209.95 D S
 34.01 183.74 M  34.01 212.26 D S
 32.01 182.03 M  32.01 213.97 D S
 30.01 180.69 M  30.01 215.31 D S
 28.01 179.69 M  28.01 216.31 D S
 26.01 178.95 M  26.01 217.05 D S
 24.01 178.42 M  24.01 217.58 D S
 22.01 178.11 M  22.01 217.89 D S
 20.01 178.00 M  20.01 218.00 D S
 18.01 178.11 M  18.01 217.89 D S
 16.01 178.42 M  16.01 217.58 D S
 14.01 178.94 M  14.01 217.06 D S
 12.01 179.68 M  12.01 216.32 D S
 10.01 180.67 M  10.01 215.33 D S
  8.01 182.01 M   8.01 213.99 D S
  6.01 183.72 M   6.01 212.28 D S
  4.01 186.01 M   4.01 209.99 D S
  2.01 189.28 M   2.01 206.72 D S
  0.01 197.71 M   0.01 198.29 D S
 42.97 181.15 M  47.42 178.00 D  48.91 178.00 D  48.91 182.20 D S
 47.42 181.15 M  51.88 181.15 D S
eop
@end
%%PageTrailer
%%Trailer
%%EOF
